{
  "verbs": [
    {
      "id": "work",
      "label": "Travailler",
      "slots": [
        {
          "id": "work",
          "forbidden": {
            "reasonskill": "1"
          },
          "label": "Travail",
          "required": {
            "ritual": "1",
            "desire": "1",
            "ability": "1",
            "benefactor": "1",
            "job": "1"
          },
          "description": "Quelque chose que je peux faire; quelque chose que je sais; ou quelque chose que je suis."
        }
      ],
      "description": "Gagnez votre vie, ou pratiquez les arts invisibles.",
      "atStart": "true"
    },
    {
      "id": "dream",
      "label": "Rêver",
      "slots": [
        {
          "id": "dream",
          "label": "Rêver",
          "required": {
            "desire": "1",
            "ability": "1",
            "illhealth": "1",
            "funds": "1",
            "way": "1"
          },
          "description": "Un objectif, une orientation pour mes rêves; ou un problème dont se remettre."
        }
      ],
      "description": "Reposez vous; reconsidérez vos priorités; ou risquez vous à l'exploration des royaumes du sommeil.",
      "atStart": "false"
    },
    {
      "id": "study",
      "label": "Etudier",
      "slots": [
        {
          "id": "study",
          "label": "Etudier",
          "required": {
            "language": "1",
            "tutor": "1",
            "lore": "1",
            "legacyplotitem": "1",
            "influence": "1",
            "text": "1",
            "ability": "1"
          },
          "description": "L'étude des arts invisibles peut occuper dix vies entières."
        }
      ],
      "description": "Débloque des livres et autres trésors.",
      "atStart": "false"
    },
    {
      "id": "talk",
      "label": "Parler",
      "slots": [
        {
          "id": "talk",
          "forbidden": {
            "wary": "1"
          },
          "label": "Parler",
          "required": {
            "summoned": "1",
            "hq": "1",
            "lore": "1",
            "patron": "1",
            "mortal": "1",
            "society": "1"
          },
          "description": "Un allié, un ennemi, ou n'importe quoi entre les deux."
        }
      ],
      "description": "Interrogez, intimidez, séduisez, instruisez, recrutez.",
      "atStart": "false"
    },
    {
      "id": "explore",
      "label": "Explorer",
      "slots": [
        {
          "id": "explore",
          "forbidden": {
            "hireling": "1"
          },
          "label": "Explorer",
          "required": {
            "health": "1",
            "location": "1",
            "secrethistories": "1",
            "ghoul.hunger": "1",
            "follower": "1"
          },
          "description": "Un lieu; une personne; une destination; un secret."
        }
      ],
      "description": "Explorez la cité avec de la Santé ou des Fidèles; explorez des destinations; ou investiguez les possibilités décrites par les anciennes traditions. L'exploration est souvent imprévisible.",
      "atStart": "false"
    },
    {
      "id": "time",
      "label": "Temps",
      "description": "L'ombre du cadran solaire.",
      "atStart": "false"
    }
  ]
}
