{
  "recipes": [
    {
      "id": "party_recruitsocialite",
      "label": "A Famous Recruit!",
      "actionId": "explore",
      "startdescription": "One of the attendants has sent me a letter the morning after, asking to join the 'society' I hinted at throughout the night. They could be useful.",
      "internaldeck": {
        "label": "Socialites",
        "spec": [
          "socialite_grail",
          "socialite_moth",
          "socialite_lantern",
          "socialite_forge",
          "socialite_edge",
          "socialite_winter",
          "socialite_heart",
          "socialite_knock"
        ],
        "resetonexhaustion": true,
        "draws": 1
      },
      "warmup": 30,
      "requirements": {
        "socialite": "1"
      }
    },
    {
      "id": "party_businessdeal_low",
      "label": "A Business Deal",
      "actionId": "explore",
      "startdescription": "One thing leads to another, and an amiable conversation with a fellow aristocrat leads to a mutually beneficial agreement. Next morning, the burden on my soul will feel a little lighter, and my pockets will be a little deeper.",
      "warmup": 30,
      "effects": {
        "funds": "3"
      },
      "requirements": {
        "businessdeal_low": "1"
      }
    },
    {
      "id": "party_businessdeal_high",
      "label": "A Business Deal",
      "actionId": "explore",
      "startdescription": "Besotted and dazzled by hedonism, reason is pushed aside in favour of instinct. I managed to fool an intoxicated attendant into agreeing to a lopsided deal. They may curse me in the morning, but the burden in my soul will feel a little lighter, and my pockets a little deeper.",
      "warmup": 30,
      "effects": {
        "funds": "5"
      },
      "requirements": {
        "businessdeal_high": "1"
      }
    },
    {
      "id": "party_merriment_low",
      "label": "A Night of Merriment",
      "actionId": "explore",
      "startdescription": "Words were exchanged and laughs resonated throughout these ancient halls. I won't remember most of it in the morning, but I will still feel refreshed.",
      "warmup": 30,
      "effects": {
        "contentment": "1",
        "glimmering": "1"
      },
      "requirements": {
        "merriment_low": "1"
      }
    },
    {
      "id": "party_merriment_mid",
      "label": "A Night of Luxury",
      "actionId": "explore",
      "startdescription": "The smell of gladiolas is almost as intoxicating as  the sea of voile dresses and glistening glasses spread out before me. Euphoria will carry me upon her wings throughout the night, but its echoes will still resonate in my soul in the morning.",
      "warmup": 30,
      "effects": {
        "contentment": "2",
        "glimmering": "2"
      },
      "requirements": {
        "merriment_mid": "1"
      }
    },
    {
      "id": "party_merriment_high",
      "label": "A Night of Debauchery",
      "actionId": "explore",
      "startdescription": "The Greeks beleived that pleasure was the daughter of the soul. Tonight, pleasure threatens to drown me in its velvet waves, to immerse me in vibrant colour and rouse my soul beyond repair. The next morning will be filled with regrets, but I will nevertheless feel more fulfilled than ever.",
      "warmup": 30,
      "effects": {
        "contentment": "3",
        "glimmering": "3"
      },
      "requirements": {
        "merriment_high": "1"
      }
    },
    {
      "id": "party_journalist",
      "label": "A Journalist in Our Midst!",
      "actionId": "explore",
      "startdescription": "Unbeknownst to me, one of the attendants was not there to partake in excess, but to report on it! When I awake, my name is all over the newspapers. I should have been more prudent...",
      "warmup": 30,
      "effects": {
        "notoriety": "1",
        "mystique": "1"
      },
      "requirements": {
        "journalist": "1"
      }
    },
    {
      "id": "party_organize_hint",
      "label": "Throw a High Society Party?",
      "actionId": "explore",
      "startdescription": "Papa might have had his faults, but he knew what he was doing by keeping up appearances. Even in our current state, it might be prudent to rebuild connections by throwing lavish parties. [Use a follower or influence of the aspect of Grail and one fund to organise a high society party. The higher the magnitude of Grail, the more beneficial- and risky- a party.]",
      "hintonly": true,
      "requirements": {
        "hedonism_locus": "1"
      }
    },
    {
      "id": "party_organise_follower_high",
      "label": "Throw a High Society Party",
      "actionId": "explore",
      "startdescription": "Tonight, my follower is irresistible, the embodiment of monstrous grace. When they beckon, the crowd heeds.",
      "craftable": true,
      "warmup": 30,
      "effects": {
        "funds": "-1"
      },
      "deckeffects": {
        "partyfavours_high": 1
      },
      "requirements": {
        "hedonism_locus": "1",
        "funds": "1",
        "follower": "1",
        "grail": "7"
      },
      "linked": [
        {
          "id": "party_merriment_high",
          "chance": 100
        },
        {
          "id": "party_businessdeal_high",
          "chance": 100
        },
        {
          "id": "party_recruitsocialite",
          "chance": 100
        },
        {
          "id": "party_journalist",
          "chance": 100
        }
      ]
    },
    {
      "id": "party_organise_influence_high",
      "label": "Throw a High Society Party",
      "actionId": "explore",
      "startdescription": "Tonight, our merriment will take truly deviant turns, and the line between voraciousness and nobility will be obscured by hazy pleasure.",
      "craftable": true,
      "warmup": 30,
      "effects": {
        "funds": "-1"
      },
      "deckeffects": {
        "partyfavours_high": 1
      },
      "requirements": {
        "hedonism_locus": "1",
        "funds": "1",
        "influence": "1",
        "grail": "7"
      },
      "linked": [
        {
          "id": "party_merriment_high",
          "chance": 100
        },
        {
          "id": "party_businessdeal_high"
        },
        {
          "id": "party_recruitsocialite"
        },
        {
          "id": "party_journalist"
        }
      ]
    },
    {
      "id": "party_organise_follower_mid",
      "label": "Throw a High Society Party",
      "actionId": "explore",
      "startdescription": "Tonight, my follower is making jaws drop, and eyes linger. For better or worse, this night will be remembered.\r\n",
      "craftable": true,
      "warmup": 30,
      "effects": {
        "funds": "-1"
      },
      "deckeffects": {
        "partyfavours_mid": 1
      },
      "requirements": {
        "hedonism_locus": "1",
        "funds": "1",
        "follower": "1",
        "grail": "4"
      },
      "linked": [
        {
          "id": "party_merriment_mid",
          "chance": 100
        },
        {
          "id": "party_businessdeal_low",
          "chance": 100
        },
        {
          "id": "party_recruitsocialite",
          "chance": 100
        },
        {
          "id": "party_journalist",
          "chance": 100
        }
      ]
    },
    {
      "id": "party_organise_follower_low",
      "label": "Throw a High Society Party",
      "actionId": "explore",
      "startdescription": "Tonight, my follower smiles for the attendants. The attention of my peers is notoriously ephemeral, but, at least for tonight, they will be the topic of conversation. ",
      "craftable": true,
      "warmup": 30,
      "effects": {
        "funds": "-1"
      },
      "deckeffects": {
        "partyfavours_low": 1
      },
      "requirements": {
        "hedonism_locus": "1",
        "funds": "1",
        "follower": "1",
        "grail": "1"
      },
      "linked": [
        {
          "id": "party_merriment_low"
        },
        {
          "id": "party_businessdeal_low"
        },
        {
          "id": "party_recruitsocialite",
          "chance": 100
        },
        {
          "id": "party_journalist",
          "chance": 100
        }
      ]
    },
    {
      "id": "party_organise_influence_mid",
      "label": "Throw a High Society Party",
      "actionId": "explore",
      "startdescription": "Conversation is more alight than ever; Scandal runs amok, and words are savoured like a glass of gin.",
      "craftable": true,
      "warmup": 30,
      "effects": {
        "funds": "-1"
      },
      "deckeffects": {
        "partyfavours_mid": 1
      },
      "requirements": {
        "hedonism_locus": "1",
        "funds": "1",
        "influence": "1",
        "grail": "4"
      },
      "linked": [
        {
          "id": "party_merriment_mid"
        },
        {
          "id": "party_businessdeal_low"
        },
        {
          "id": "party_recruitsocialite"
        },
        {
          "id": "party_journalist"
        }
      ]
    },
    {
      "id": "party_organise_influence_low",
      "label": "Throw a High Society Party",
      "actionId": "explore",
      "startdescription": "There is a certain joie de vivre in the air. The knife cuts into the steak with glee, and conversation is more jovial than usual.",
      "craftable": true,
      "warmup": 30,
      "effects": {
        "funds": "-1"
      },
      "deckeffects": {
        "partyfavours_low": 1
      },
      "requirements": {
        "hedonism_locus": "1",
        "funds": "1",
        "influence": "1",
        "grail": "1"
      },
      "linked": [
        {
          "id": "party_merriment_low"
        },
        {
          "id": "party_businessdeal_low"
        },
        {
          "id": "party_recruitsocialite"
        },
        {
          "id": "party_journalist"
        }
      ]
    }
  ]
}