{
  "recipes": [
    {
      "id": "cultfoundation_complete_nohq_estate",
      "label": "OUR RISE BEGINS.",
      "actionId": "establishcult",
      "description": "I have founded my cult. This is a step to greater power. [Use your cult to recruit and promote followers. Talk with followers about your cult to send them out on cult business.]",
      "extantreqs": {
        "highsociety.estate": "1"
      }
    },
    {
      "id": "cultfoundation_complete_nohq_hq",
      "label": "OUR RISE BEGINS.",
      "actionId": "establishcult",
      "description": "I have founded my cult. This is a step to greater power. [Use your cult to recruit and promote followers. Talk with followers about your cult to send them out on cult business.]",
      "extantreqs": {
        "hq": "1"
      }
    },
    {
      "id": "cultfoundation_complete",
      "label": "OUR RISE BEGINS.",
      "actionId": "establishcult",
      "description": "I have founded my cult. This is a step to greater power. [Use your cult to recruit and promote followers. Talk with followers about your cult to send them out on cult business.]",
      "alt": [
        {
          "id": "cultfoundation_complete_nohq_estate"
        },
        {
          "id": "cultfoundation_complete_nohq_hq"
        }
      ]
    }
  ]
}