{
  "verbs": [
    {
      "id": "dream",
      "slot": {
        "id": "dream",
        "label": "Dream",
        "description": "A direction for my dreams; or a trouble to recover from.",
        "required": {
          "desire": 1,
          "ability": 1,
          "way": 1,
          "modded_dream_allowed": 1,
          "illhealth": 1,
          "funds": 1
        },
        "forbidden": {
          "modded_dream_forbidden": 1
        }
      }
    },
    {
      "id": "work",
      "slot": {
        "id": "work",
        "label": "Work",
        "description": "Something I can do; something I know; or something I am.",
        "required": {
          "benefactor": 1,
          "job": 1,
          "desire": 1,
          "modded_work_allowed": 1,
          "ritual": 1,
          "ability": 1
        },
        "forbidden": {
          "modded_work_forbidden": 1
        }
      }
    },
    {
      "id": "talk",
      "slot": {
        "id": "talk",
        "label": "Talk",
        "description": "An ally, an enemy, or something in between.",
        "required": {
          "summoned": 1,
          "mortal": 1,
          "society": 1,
          "patron": 1,
          "modded_talk_allowed": 1,
          "lore": 1,
          "hq": 1
        },
        "forbidden": {
          "modded_talk_forbidden": 1,
          "wary": 1
        }
      }
    },
    {
      "id": "study",
      "slot": {
        "id": "study",
        "label": "Study",
        "description": "The invisible arts could occupy ten lifetimes of study.",
        "required": {
          "language": 1,
          "tutor": 1,
          "text": 1,
          "ability": 1,
          "modded_study_allowed": 1,
          "lore": 1,
          "influence": 1,
          "legacyplotitem": 1
        },
        "forbidden": {
          "modded_study_forbidden": 1
        }
      }
    },
    {
      "id": "explore",
      "slot": {
        "id": "explore",
        "label": "Explore",
        "description": "A place; a person; a location; a secret.",
        "required": {
          "location": 1,
          "secrethistories": 1,
          "modded_explore_allowed": 1,
          "follower": 1,
          "ghoul.hunger": 1,
          "health": 1
        },
        "forbidden": {
          "modded_explore_forbidden": 1,
          "hireling": 1
        }
      }
    }
  ]
}