{
  "elements": [
    {
      "id": "acquaintance",
      "label": "Connaissance",
      "isAspect": "true",
      "description": "Pas encore un ami, ni un ennemi."
    },
    {
      "id": "independent",
      "label": "Marginal",
      "isAspect": "true",
      "description": "Un étudiant des arts invisibles, avec son propre agenda."
    },
    {
      "id": "benefactor",
      "label": "Bienfaiteur",
      "isAspect": "true",
      "description": "Un aficionado de mon travail, dont je suis devenu proche."
    },
    {
      "id": "follower",
      "label": "Fidèle",
      "isAspect": "true",
      "description": "Étudiant, assistant, protecteur, champion, dupe, sacrifice... Compagnon."
    },
    {
      "id": "hireling",
      "label": "Homme de main",
      "isAspect": "true",
      "description": "J'ai négocié les services de celui-ci, pour un certain temps."
    },
    {
      "id": "disciple",
      "label": "Disciple",
      "isAspect": "true",
      "description": "Un vrai initié aux mystères."
    },
    {
      "id": "devotee",
      "label": "Dévoué",
      "isAspect": "true",
      "description": "Pour l'instant, la dévotion de celui-ci est totale. Mais bientôt, elle pourrait s'estomper, et alors il pourrait remettre en question ce qu'il a fait."
    },
    {
      "id": "exalted",
      "label": "Exalté",
      "isAspect": "true",
      "description": "Celui-ci ne peut pas s'élever plus haut... du moins, pas tant que je dirige."
    },
    {
      "id": "prisoner",
      "label": "Prisonnier",
      "isAspect": "true",
      "description": "J'ai celui-là dans la paume de ma main."
    },
    {
      "id": "hunter",
      "label": "Chasseur",
      "isAspect": "true",
      "description": "Les lois de la civilisation sont plus jeunes que les lois des Heures, mais elles aussi exigent parfois un sacrifice. Ceci est un agent de la loi."
    },
    {
      "id": "patron",
      "label": "Mécène",
      "isAspect": "true",
      "description": "Une personne de référence dans les cercles où j'évolue."
    },
    {
      "id": "approval",
      "label": "Approbation",
      "isAspect": "true",
      "description": "Quelqu'un me regarde avec une approbation croissante."
    },
    {
      "id": "tutor",
      "label": "Tuteur",
      "isAspect": "true",
      "description": "Celui-ci a des connaissances de valeur."
    },
    {
      "id": "annoyance",
      "label": "Nuisance",
      "isAspect": "true",
      "description": "Voici une épine dans mon pied. Je pourrais trouver un moyen de l'enlever."
    },
    {
      "id": "sending",
      "label": "Sending",
      "isAspect": "true",
      "description": "Not exactly me, but not exactly something else."
    },
    {
      "id": "edge",
      "label": "Lame",
      "isAspect": "true",
      "description": "Toute conquête s'effectue par la Lame. L'une des Heures qui y vit est aveugle, et ne peut être blessée. Une autre est forte, et se renforce. [La Lame est le principe de la bataille et de la lutte.]",
      "noartneeded": "true"
    },
    {
      "id": "forge",
      "label": "Forge",
      "isAspect": "true",
      "description": "\"Le Feu\", ai-je lu un jour, \"est l'hiver qui réchauffe et le printemps qui consume\". [Le principe de la Forge transforme et détruit.]"
    },
    {
      "id": "grail",
      "label": "Graal",
      "isAspect": "true",
      "description": "La faim, la luxure, les eaux de la noyade. [Le principe du Graal honore à la fois la naissance et la fête.]",
      "induces": [
        {
          "id": "grailinduction",
          "chance": "5"
        }
      ]
    },
    {
      "id": "heart",
      "label": "Cœur",
      "isAspect": "true",
      "description": "Le Cœur bat sans relâche pour protéger la peau du monde que nous comprenons. [Le Cœur est le principe de la continuité et de la préservation.]",
      "induces": [
        {
          "id": "heartinduction",
          "chance": "10"
        }
      ]
    },
    {
      "id": "knock",
      "label": "Clef",
      "isAspect": "true",
      "description": "La Clef ne permet ni de sceller ni d'isoler. Elle nous pousse avec joie hors de la sécurité de l'ignorance. [La Clef est le principe qui ouvre les portes et lève les barrières.]"
    },
    {
      "id": "lantern",
      "label": "Lanterne",
      "isAspect": "true",
      "description": "'La Vie est une flamme pure, et nous vivons grâce à un Soleil invisible en nous.' - Thomas Browne. [La Lanterne est le principe de l'endroit secret parfois appelé la Maison du Soleil, et de la lumière au-dessus de celle-ci.]",
      "induces": [
        {
          "id": "lanterninduction",
          "chance": "5"
        }
      ]
    },
    {
      "id": "moth",
      "label": "Phalène",
      "isAspect": "true",
      "description": "J'ai connu un homme qui capturait des papillons de nuit sous une cloche de verre. Lors des nuits comme celle-ci, il les relâchait un par un pour les voir aller se brûler sur une bougie. [Le Phalène est le principe sauvage et périlleux du chaos et du désir]",
      "induces": [
        {
          "id": "mothinduction",
          "chance": "10"
        }
      ]
    },
    {
      "id": "secrethistories",
      "label": "Histoires Secrètes",
      "isAspect": "true",
      "description": "L'Histoire est la cicatrice sur la peau du monde. [Les Histoires secrètes décrivent les complexités inconnues du monde, et ses nombreux passés.]"
    },
    {
      "id": "winter",
      "label": "Hiver",
      "isAspect": "true",
      "description": "... [L'Hiver est le principe du silence, des fins, et des choses qui ne sont pas tout à fait mortes.]"
    },
    {
      "id": "ability",
      "label": "Aptitude",
      "isAspect": "true",
      "description": "Cerveau, cœur, main, ou œil. La plupart d'entre nous naissent avec la majorité de ces choses."
    },
    {
      "id": "scar",
      "label": "Cicatrice",
      "isAspect": "true",
      "description": "Le résultat irrévocable d'un acte irrévocable."
    },
    {
      "id": "advancement",
      "label": "Avancement",
      "isAspect": "true",
      "description": "Un avant-goût de ce qui pourrait être. [Avec assez de ces cartes, vous pouvez produire une Abilité.]"
    },
    {
      "id": "potential",
      "label": "Potentiel",
      "isAspect": "true",
      "description": "La marque de la grandeur ? [Dans les bonnes circonstances, ce fidèle pourrait devenir encore plus puissant.]"
    },
    {
      "id": "job",
      "label": "Emploi",
      "isAspect": "true",
      "description": "Un accord pour échanger la santé de quelqu'un contre de l'argent.",
      "induces": [
        {
          "id": "needs",
          "chance": "100"
        }
      ]
    },
    {
      "id": "dance",
      "label": "Danse",
      "isAspect": "true",
      "description": "Plus ancienne que la parole, plus jeune que la vie.",
      "induces": [
        {
          "id": "heartinduction",
          "chance": "10"
        },
        {
          "id": "mothglimmeringinduction",
          "chance": "10"
        }
      ]
    },
    {
      "id": "ecdysijob",
      "label": "A Place at the Ecdysis Club",
      "isAspect": "true",
      "description": "I have won a place on the stage of the Ecdysis Club."
    },
    {
      "id": "demotion",
      "label": "Rétrogradation",
      "isAspect": "true",
      "description": "J'ai passé trop de temps loin de mon travail."
    },
    {
      "id": "ritual",
      "label": "Rite",
      "isAspect": "true",
      "description": "\"Les bonnes choses, de la bonne manière, dans le bon ordre. Que Dieu nous vienne en aide.\" - attribué à Hersault. [Un Rite vous permet de combiner des aspects pour effectuer une invocation.]"
    },
    {
      "id": "society",
      "label": "Société",
      "isAspect": "true",
      "description": "Pour recruter des fidèles, je dois construire quelque chose en lequel ils peuvent croire."
    },
    {
      "id": "rededicable",
      "label": "Uncertain",
      "isAspect": "true",
      "description": "This organisation has begun to question its tenets. I could apply pressure to alter its direction."
    },
    {
      "comments": "This is so anything that generates Funds will always trigger the needs timer if it's not already running.",
      "description": "Carburant, pommade, pigment, patience : tout se consomme en temps voulu.",
      "label": "Ingrédient",
      "id": "ingredient",
      "induces": [
        {
          "id": "needs",
          "chance": "100"
        }
      ],
      "isAspect": "true"
    },
    {
      "id": "pigment",
      "label": "Pigment",
      "isAspect": "true",
      "description": "It might be possible to apply this to canvas."
    },
    {
      "id": "poison",
      "label": "Poison Mortel",
      "isAspect": "true",
      "description": "En aucun cas, vous ne devez mettre cela dans une personne que vous voulez garder."
    },
    {
      "id": "influence",
      "label": "Influence",
      "isAspect": "true",
      "description": "Un écho, une résonance, un alignement. Quelque chose qui va bientôt s'effacer."
    },
    {
      "id": "tool",
      "label": "Outil",
      "isAspect": "true",
      "description": "\"Une épée ne tue pas, c'est un instrument dans la main du tueur.\" - Sénèque le jeune"
    },
    {
      "id": "mirror",
      "label": "Un Miroir",
      "isAspect": "true",
      "description": "Craquez la peau de la lumière, et la lumière saignera."
    },
    {
      "id": "riddle",
      "label": "Énigme",
      "isAspect": "true",
      "description": "Certaines questions n'ont qu'une seule réponse. D'autres n'ont pas de réponse du tout."
    },
    {
      "id": "reputation",
      "label": "Réputation",
      "isAspect": "true",
      "description": "\"Beaucoup craignent leur réputation, peu leur conscience.\" - Pline"
    },
    {
      "id": "evidencelevel",
      "label": "Niveau de preuve",
      "isAspect": "true",
      "description": "Certaines formes de preuve sont plus fortes que d'autres."
    },
    {
      "id": "suspicious",
      "label": "Suspicieux",
      "isAspect": "true",
      "description": "Un inspecteur pourrait vouloir enquêter sur ce point."
    },
    {
      "id": "healthskill",
      "label": "Force",
      "isAspect": "true",
      "description": "Je suis aussi fort de jour que de nuit. [Ceci devrait vous permettre de mieux accomplir des travaux manuels, ou de danse.]"
    },
    {
      "id": "murderskill",
      "label": "Dangereux",
      "isAspect": "true",
      "description": "La confrontation directe est toujours imprudente. Mais en dernier recours, si on en arrive à la confrontation, je suis très dangereux."
    },
    {
      "id": "passionskill",
      "label": "Imagination",
      "isAspect": "true",
      "description": "Mon crâne bouillonne de visions. [Cela peut vous permettre de créer des tableaux plus ambitieux.]"
    },
    {
      "id": "reasonskill",
      "label": "Érudit",
      "isAspect": "true",
      "description": "Je suis un pilier de sagesse. [Actuellement, cela vous permet de gagner en Raison.]"
    },
    {
      "id": "way",
      "label": "Une Voie de Retour dans le Rêve",
      "isAspect": "true",
      "description": "Certains souvenirs sont des esquisses de chemins dans le rêve. Certains passent même à travers les Limites du rêve, jusqu'au Bois et à la Maison qui s'élève au-dessus."
    },
    {
      "id": "desire",
      "label": "Désir",
      "isAspect": "true",
      "description": "Mon but ultime. Il y aura un prix à payer."
    },
    {
      "id": "promise",
      "label": "Promesse",
      "isAspect": "true",
      "description": "Un engagement pour une conclusion."
    },
    {
      "id": "rivalmarks",
      "label": "A Rival's Ascension",
      "isAspect": "true",
      "description": "Opportunities to ascend to the House of the Sun are rare. If another achieves it, I may miss my chance. [If this reaches seven, your Rival has a chance to win the game instead of you at the next Season of Ambitions.]"
    },
    {
      "id": "changemarks",
      "label": "Les Formes du Changement",
      "isAspect": "true",
      "description": "Chaque fois que je change, je laisse quelque chose derrière."
    },
    {
      "id": "powermarks",
      "label": "Les Marques du Façonnage",
      "isAspect": "true",
      "description": "Je peux rechercher l'immortalité et le pouvoir dans l'Heure appelée la Forge des Jours. Son toucher apporte des appétits particuliers, et des marques."
    },
    {
      "id": "sensationmarks",
      "label": "Les Marques du Plaisir",
      "isAspect": "true",
      "description": "Je peux rechercher l'immortalité et le pouvoir dans l'Heure appelée le Graal Rouge. Son toucher apporte des appétits particuliers, et des marques."
    },
    {
      "id": "enlightenmentmarks",
      "label": "Les Marques de la Lumière",
      "isAspect": "true",
      "description": "Je peux rechercher l'immortalité et l'illumination dans l'Heure appelée le Veilleur. Son toucher apporte des appétits particuliers, et des Marques."
    },
    {
      "id": "remembrancemarks",
      "label": "The Claws of Memory",
      "isAspect": "true",
      "description": "Beneath the soil, bones. In the bones, memory. In the memory, colours.",
      "comments": "Important! this is used to trigger the extra corpse-remnants discovery from Expeditions for Ghoul"
    },
    {
      "isAspect": "true",
      "isHidden": "true",
      "id": "follower_lustenlightenment"
    },
    {
      "isAspect": "true",
      "isHidden": "true",
      "id": "follower_lustpower"
    },
    {
      "isAspect": "true",
      "isHidden": "true",
      "id": "follower_lustsensation"
    },
    {
      "isAspect": "true",
      "isHidden": "true",
      "id": "follower_lustchange"
    },
    {
      "id": "detectivetemptation",
      "isHidden": "true",
      "isAspect": "true",
      "comments": "Aspect for Detective plot items"
    },
    {
      "isAspect": "true",
      "isHidden": "true",
      "id": "long.preference.assault"
    },
    {
      "isAspect": "true",
      "isHidden": "true",
      "id": "long.preference.intrigue"
    },
    {
      "isAspect": "true",
      "isHidden": "true",
      "id": "long.preference.dreamwork"
    },
    {
      "isAspect": "true",
      "isHidden": "true",
      "id": "long.preference.winter"
    },
    {
      "comments": "Recipe aspect",
      "description": "Direction la prochaine Marque.",
      "label": "Ascendant",
      "id": "ascend",
      "noartneeded": "true",
      "isAspect": "true"
    },
    {
      "comments": "Recipe aspect",
      "description": "Si je ne nourris pas mes nouveaux appétits, mes Marques vont pâlir.",
      "label": "Redescente",
      "id": "descend",
      "noartneeded": "true",
      "isAspect": "true"
    },
    {
      "id": "article",
      "label": "Article",
      "isAspect": "true",
      "description": "Un travail original sur un sujet en particulier."
    },
    {
      "id": "text",
      "label": "Texte",
      "isAspect": "true",
      "description": "Les livres sont la mémoire qui ne meurt pas."
    },
    {
      "id": "legacyplotitem",
      "label": "Objet d'Héritage ",
      "isAspect": "true",
      "isHidden": "true",
      "comments": "Used for plot items that shouldn't be passed down to another legacy through LEVER_LastBook, since they can break flows."
    },
    {
      "id": "autographed",
      "label": "Autographié",
      "isAspect": "true",
      "description": "Signé par son créateur."
    },
    {
      "id": "lore",
      "label": "Savoir Ésotérique",
      "isAspect": "true",
      "description": "Connaissance des arts invisibles. Je peux l'utiliser pour attirer des adeptes, pour effectuer des rites, pour ouvrir la voie à la Mansus, pour rechercher mon ascension... [Les fragments de Savoir Ésotérique peuvent parfois être améliorés en les étudiant, et avec des fragments correspondants.]"
    },
    {
      "id": "subvertable_lore",
      "label": "Subvertable Lore",
      "isAspect": "true",
      "isHidden": "true",
      "noartneeded": "true"
    },
    {
      "id": "memory",
      "label": "Souvenir",
      "isAspect": "true",
      "description": "Nous nous souvenons des morts, jusqu'à ce que nous les oubliions."
    },
    {
      "id": "language",
      "label": "Une Langue",
      "isAspect": "true",
      "description": "Utile pour traduire des textes."
    },
    {
      "id": "tutorlatin",
      "label": "Érudit en Latin",
      "isAspect": "true",
      "description": "Un érudit en Latin qui pourrait être prêt à vous l'enseigner si vous étudiez avec lui."
    },
    {
      "id": "tutorgreek",
      "label": "Érudit en Grec",
      "isAspect": "true",
      "description": "Un érudit en Grec qui pourrait être prêt à vous l'enseigner si vous étudiez avec lui."
    },
    {
      "id": "tutoraramaic",
      "label": "Érudit en Araméen",
      "isAspect": "true",
      "description": "Un érudit en Araméen qui pourrait être prêt à vous l'enseigner si vous étudiez avec lui."
    },
    {
      "id": "tutorsanskrit",
      "label": "Érudit en Sanskrit",
      "isAspect": "true",
      "description": "Un érudit en Sanskrit qui pourrait être prêt à vous l'enseigner si vous étudiez avec lui."
    },
    {
      "id": "spirittutorfucine",
      "label": "Érudit en Fucine",
      "isAspect": "true",
      "description": "Cet esprit est capable de vous apprendre le Fucine, si vous connaissez une langue cousine à celle-ci."
    },
    {
      "id": "spirittutorphrygian",
      "label": "Érudit en Phrygien",
      "isAspect": "true",
      "description": "Cet esprit est capable de vous apprendre le Phrygien, si vous connaissez une langue cousine à celle-ci."
    },
    {
      "id": "spirittutormandaic",
      "label": "Érudit en Mandéen",
      "isAspect": "true",
      "description": "Cet esprit est capable de vous apprendre le Mandéen profond, si vous connaissez une langue cousine à celle-ci."
    },
    {
      "id": "spiritsicknessprotector",
      "label": "Phylaxian",
      "isAspect": "true",
      "description": "If I speak with this one about my Health, it can offer protection against disease."
    },
    {
      "id": "spiriteatspassion",
      "label": "Lamp of Loss",
      "isAspect": "true",
      "description": "If I speak to this one, I could offer it my Passion."
    },
    {
      "id": "spiriteatsreason",
      "label": "Thresher of Thoughts",
      "isAspect": "true",
      "description": "If I speak to this one, I could offer it my Reason."
    },
    {
      "id": "auctionable",
      "label": "Vendable aux enchères",
      "isAspect": "true",
      "description": "Je devrais pouvoir vendre ceci, bien que sa valeur aux enchères soit toujours incertaine."
    },
    {
      "id": "compensationvalue",
      "label": "Valeur de Spintria",
      "isAspect": "true",
      "description": "Les Spintriae sont la monnaie du monde caché. Certaines spintriae ont plus de valeur que d'autres. Mais ne vous attendez pas à recevoir de la monnaie. Ce n'est pas une épicerie."
    },
    {
      "id": "hq",
      "label": "Quartier Général",
      "isAspect": "true",
      "description": "Pour les conversations et les convocations."
    },
    {
      "isHidden": "true",
      "id": "hq.potential",
      "label": "Quartier Général Potentiel",
      "isAspect": "true",
      "description": "."
    },
    {
      "id": "movehq",
      "label": "Move to a New HQ",
      "isAspect": "true",
      "description": "Recipe aspect",
      "noartneeded": "true"
    },
    {
      "id": "library",
      "label": "Bibliothèque",
      "isAspect": "true",
      "description": "Une collection de volumes mineurs, de copies partielles et d'éphémères qui peuvent aider à la recherche."
    },
    {
      "id": "pit",
      "label": "Fosse",
      "isAspect": "true",
      "description": "Un puits de solitude sans lumière où je peux faire l'expérience de sombres intuitions."
    },
    {
      "id": "secret",
      "label": "Lieu Secret",
      "isAspect": "true",
      "description": "Cet endroit est facilement négligé. [L'utilisation de ce Quartier Général fera disparaître les cartes de Réputation.]",
      "induces": [
        {
          "id": "secret.induction",
          "chance": "30"
        }
      ]
    },
    {
      "id": "sanctuary",
      "label": "Sanctuaire",
      "isAspect": "true",
      "description": "Un espace conçu pour la contemplation, et peut-être même la paix."
    },
    {
      "id": "location",
      "label": "Lieu",
      "isAspect": "true",
      "description": "Les lieux ! Tout doit être quelque part, et ceci est ici."
    },
    {
      "id": "vaultcapital",
      "label": "Dans la Capitale",
      "isAspect": "true",
      "description": "Un lieu secret dans la capitale grouillante où je vis."
    },
    {
      "id": "vaultshires",
      "label": "Dans les Comtés",
      "isAspect": "true",
      "description": "Champs verts et collines grises."
    },
    {
      "id": "vaultcontinent",
      "label": "Sur le Continent",
      "isAspect": "true",
      "description": "Au-delà d'une mer étroite, dans les recoins insoupçonnés de nations rivales."
    },
    {
      "id": "vaultlandbeyondforest",
      "label": "Dans les Terres par-delà la Forêt",
      "isAspect": "true",
      "description": "Des cols brumeux et des villages reculés, où la peau du monde est fine. "
    },
    {
      "id": "vaultrendingmountains",
      "label": "Dans les Montagnes Ruinées",
      "isAspect": "true",
      "description": "Flancs abrupts et sauvages, aux sommets enneigés, loin de toute aide."
    },
    {
      "id": "vaultloneandlevelsands",
      "label": "Les Sables Monotones et Solitaires",
      "isAspect": "true",
      "description": "Dans un endroit aride et lointain, des horizons de chaînes de dunes vous attendent."
    },
    {
      "id": "vaulteveningisles",
      "label": "Parmi les îles du Soir",
      "isAspect": "true",
      "description": "Des chaînes d'îles rocheuses lavées par les vagues et animées d'une vie verdoyante."
    },
    {
      "id": "peril",
      "label": "Péril",
      "isAspect": "true",
      "description": "Un obstacle, un danger ou une conclusion prématurée."
    },
    {
      "id": "curse",
      "label": "Malédiction",
      "isAspect": "true",
      "description": "Une influence malfaisante que vous devez vaincre."
    },
    {
      "id": "guardian",
      "label": "Gardien",
      "isAspect": "true",
      "description": "Une entité qui a été chargée d'empêcher l'entrée."
    },
    {
      "id": "seal",
      "label": "Sceau",
      "isAspect": "true",
      "description": "Votre progression est entravée."
    },
    {
      "id": "vault",
      "label": "Coffre-fort",
      "isAspect": "true",
      "description": "Il y a quelque chose de précieux ici."
    },
    {
      "id": "challenge.knowledge",
      "label": "Requiert du Savoir",
      "isAspect": "true",
      "description": "Ceci est un puzzle avec des pièces manquantes. Je pourrais trouver ces pièces dans les recoins insolites de l'érudition. [Pour améliorer ou subvertir ce Fragment, il vous faudrait de l'Érudition, ou un QG avec une Bibliothèque.]"
    },
    {
      "id": "challenge.intuition",
      "label": "Requiert de l'Intuition",
      "isAspect": "true",
      "description": "Avec du temps et du calme, les réponses viennent parfois à l'improviste. [Pour améliorer ou subvertir ce Fragment, vous auriez besoin de Rayonnement, ou d'un QG avec un Sanctuaire]."
    },
    {
      "id": "challenge.grim",
      "label": "Requiert une Sinistre Leçon",
      "isAspect": "true",
      "description": "J'apprendrai. [Pour améliorer ou subvertir ce Fragment, vous auriez besoin d'Angoisse (qui pourrait ensuite se reproduire), la compétence Intensité Silencieuse, ou un QG avec une Fosse.]"
    },
    {
      "id": "challenge.obsessive",
      "label": "Requiert une Recherche Obsessive",
      "isAspect": "true",
      "description": "Ce sujet demande plus d'attention qu'il n'est sain. [Pour améliorer ou subvertir ce Fragment, il faudrait un QG avec une Bibliothèque, la compétence Jamais-Non, ou une Raison. Il y a un très faible risque que votre Raison soit endommagée de façon permanente.]"
    },
    {
      "id": "challenge.paradox",
      "label": "Requiert une Résolution Paradoxale",
      "isAspect": "true",
      "description": "La vérité est un serpent. Les réponses nourrissent ses appétits. [Pour améliorer ou subvertir ce Fragment, il vous faudrait un QG avec un Sanctuaire, la compétence Âme ouverte ou une Passion. Il y a un très faible risque que votre Passion soit endommagée de façon permanente.]"
    },
    {
      "id": "challenge.illumination",
      "label": "Requiert de l'Illumination",
      "isAspect": "true",
      "description": "L'eau remplit la coupe; la lumière remplit l'esprit. [Pour améliorer ou subvertir ce Fragment, vous auriez besoin de Fascination (qui pourrait se reproduire), d'un QG avec une Bibliothèque, ou de la compétence Esprit Raréfié]"
    },
    {
      "id": "challenge.practical",
      "label": "Requiert de l'Expérimentation Pratique",
      "isAspect": "true",
      "description": "La douleur n'est que ce qui arrive maintenant ; la connaissance est ce dont nous nous souviendrons. [Pour améliorer ou subvertir ce Fragment, il faudrait risquer votre Santé ou utiliser un Prisonnier.]"
    },
    {
      "id": "summoned",
      "label": "Invoqué",
      "isAspect": "true",
      "description": "Celui-ci n'est pas d'ici."
    },
    {
      "id": "illhealth",
      "label": "Mauvaise Santé",
      "isAspect": "true",
      "description": "Peut-être pourrais-je me reposer, et récupérer."
    },
    {
      "id": "inducesdespair",
      "label": "Induit le Désespoir",
      "isAspect": "true",
      "description": "Cela peut entraîner le Désespoir."
    },
    {
      "id": "inducesvisions",
      "label": "Induit des Visions",
      "isAspect": "true",
      "description": "Je pourrais voir des...choses."
    },
    {
      "comments": "Recipe aspect",
      "description": "Une tâche attend votre attention.",
      "label": "Commission Reçue",
      "id": "commissiongiven",
      "noartneeded": "true",
      "isAspect": "true"
    },
    {
      "comments": "Recipe aspect",
      "description": "Vous avez terminé une tâche.",
      "label": "Commission Satisfaite",
      "id": "commissionfulfilled",
      "noartneeded": "true",
      "isAspect": "true"
    },
    {
      "comments": "Recipe aspect",
      "description": "Pour voir la lumière, il ne faut pas être aveugle ; mais parfois, c'est la lumière elle-même qui nous aveugle.",
      "label": "Recrutement",
      "id": "recruiting",
      "noartneeded": "true",
      "isAspect": "true"
    },
    {
      "comments": "Recipe aspect. Use to rehire hirelings.",
      "description": "Prolonger la période de service d'un homme de main.",
      "label": "Engagement",
      "id": "hiring",
      "noartneeded": "true",
      "isAspect": "true"
    },
    {
      "comments": "Recipe aspect. Use to refire devotees.",
      "description": "Extend a d's period of service.",
      "label": "Refiring",
      "id": "refiring",
      "noartneeded": "true",
      "isAspect": "true"
    },
    {
      "comments": "Recipe aspect",
      "description": "Il est temps de prêter les serments les plus profonds.",
      "label": "Promotion",
      "id": "promotiontodisciple",
      "noartneeded": "true",
      "isAspect": "true"
    },
    {
      "comments": "Recipe aspect",
      "description": "Ce sont les véritables mystères de notre vénération.",
      "label": "Exaltation : Lame",
      "id": "promotionto_d_edge",
      "noartneeded": "true",
      "isAspect": "true"
    },
    {
      "comments": "Recipe aspect",
      "description": "Ce sont les véritables mystères de notre vénération.",
      "label": "Exaltation : Forge",
      "id": "promotionto_d_forge",
      "noartneeded": "true",
      "isAspect": "true"
    },
    {
      "comments": "Recipe aspect",
      "description": "Ce sont les véritables mystères de notre vénération.",
      "label": "Exaltation : Graal",
      "id": "promotionto_d_grail",
      "noartneeded": "true",
      "isAspect": "true"
    },
    {
      "comments": "Recipe aspect",
      "description": "Ce sont les véritables mystères de notre vénération.",
      "label": "Exaltation : Cœur",
      "id": "promotionto_d_heart",
      "noartneeded": "true",
      "isAspect": "true"
    },
    {
      "comments": "Recipe aspect",
      "description": "Ce sont les véritables mystères de notre vénération.",
      "label": "Exaltation : Clef",
      "id": "promotionto_d_knock",
      "noartneeded": "true",
      "isAspect": "true"
    },
    {
      "comments": "Recipe aspect",
      "description": "Ce sont les véritables mystères de notre vénération.",
      "label": "Exaltation : Lanterne",
      "id": "promotionto_d_lantern",
      "noartneeded": "true",
      "isAspect": "true"
    },
    {
      "comments": "Recipe aspect",
      "description": "Ce sont les véritables mystères de notre vénération.",
      "label": "Exaltation : Phalène",
      "id": "promotionto_d_moth",
      "noartneeded": "true",
      "isAspect": "true"
    },
    {
      "comments": "Recipe aspect",
      "description": "Ce sont les véritables mystères de notre vénération.",
      "label": "Exaltation : Hiver",
      "id": "promotionto_d_winter",
      "noartneeded": "true",
      "isAspect": "true"
    },
    {
      "id": "rival_promotion",
      "label": "Promotion : Rival",
      "isAspect": "true",
      "comments": "Recipe aspect",
      "noartneeded": "true"
    },
    {
      "comments": "Recipe aspect; runs to fatigue stats, or to convert situation-invested elements into a form that won't keep triggering a recipe that wants more of them (eg reason in Research, funds in bidding).",
      "description": "Quelque chose s'est produit.",
      "label": "Un Engagement est Pris",
      "id": "fatiguing",
      "noartneeded": "true",
      "isAspect": "true"
    },
    {
      "id": "exhaustlocation",
      "label": "Lieu épuisé",
      "isAspect": "true",
      "description": "Un lieu a été épuisé et ne sera pas rouvert à moins d'être explicitement renouvelé.",
      "noartneeded": "true"
    },
    {
      "comments": "Recipe aspect; runs when an situation fails to convert situation control elements back to their originals.",
      "description": "All is as it was",
      "label": "Nothing has Occurred",
      "id": "restore",
      "noartneeded": "true",
      "isAspect": "true"
    },
    {
      "comments": "Recipe aspect; runs when we want to decay something like an investment.",
      "description": "Quelque chose se termine",
      "label": "Déclin",
      "id": "decline",
      "noartneeded": "true",
      "isAspect": "true"
    },
    {
      "comments": "Recipe aspect; runs when we want to flip someone's loyalties positively",
      "description": "A Positive Change in Loyalties",
      "label": "Avowal",
      "id": "avowal",
      "noartneeded": "true",
      "isAspect": "true"
    },
    {
      "comments": "Recipe aspect; runs when we want to flip someone's loyalties",
      "description": "A Change in Loyalties",
      "label": "Rejection",
      "id": "rejection",
      "noartneeded": "true",
      "isAspect": "true"
    },
    {
      "id": "scarability",
      "label": "Scar Ability",
      "isAspect": "true",
      "description": "Permanently converts an ability (active or exhausted) to its scar version",
      "noartneeded": "true"
    },
    {
      "comments": "Recipe aspect",
      "description": "Health will return.",
      "label": "Restore Health",
      "id": "restorehealth",
      "noartneeded": "true",
      "isAspect": "true"
    },
    {
      "comments": "Recipe aspect",
      "description": "La Santé sera blessée.",
      "label": "Santé Endommagée",
      "id": "damagehealth",
      "noartneeded": "true",
      "isAspect": "true"
    },
    {
      "comments": "Recipe aspect",
      "description": "La Santé va devenir une Affliction; cela pourrait aussi affecter des gens.",
      "label": "Tomber Malade",
      "id": "fallsick",
      "noartneeded": "true",
      "isAspect": "true"
    },
    {
      "comments": "Recipe aspect",
      "description": "De la Santé va être détruite.",
      "label": "Destruction de Santé",
      "id": "destroyhealth",
      "noartneeded": "true",
      "isAspect": "true"
    },
    {
      "comments": "Recipe aspect",
      "description": "La Raison deviendra de l'Angoisse.",
      "label": "Raison Endommagée",
      "id": "damagereason",
      "noartneeded": "true",
      "isAspect": "true"
    },
    {
      "comments": "Recipe aspect",
      "description": "...deviendra de la Raison.",
      "label": "En Raison",
      "id": "toreason",
      "noartneeded": "true",
      "isAspect": "true"
    },
    {
      "comments": "Recipe aspect",
      "description": "...deviendra de la Passion.",
      "label": "En Passion",
      "id": "topassion",
      "noartneeded": "true",
      "isAspect": "true"
    },
    {
      "comments": "Recipe aspect",
      "description": "...deviendra de la Santé.",
      "label": "En Santé",
      "id": "tohealth",
      "noartneeded": "true",
      "isAspect": "true"
    },
    {
      "comments": "Recipe aspect",
      "description": "Risque de générer de l'Angoisse.",
      "label": "Angoissant",
      "id": "dreadful",
      "noartneeded": "true",
      "induces": [
        {
          "id": "dreadinduction",
          "chance": "30"
        }
      ],
      "isAspect": "true"
    },
    {
      "comments": "Recipe aspect",
      "description": "Risque de susciter de la Fascination.",
      "label": "Fascinant",
      "id": "fascinating",
      "noartneeded": "true",
      "induces": [
        {
          "id": "fascinationinduction",
          "chance": "30"
        }
      ],
      "isAspect": "true"
    },
    {
      "comments": "Recipe aspect",
      "description": "La Passion deviendra de la Fascination.",
      "label": "Passion Endommagée",
      "id": "damagepassion",
      "noartneeded": "true",
      "isAspect": "true"
    },
    {
      "comments": "Recipe aspect",
      "description": "Mortals will be replaced by corpses",
      "label": "Kill Mortal",
      "id": "killmortal",
      "noartneeded": "true",
      "isAspect": "true"
    },
    {
      "comments": "Recipe aspect",
      "description": "Long will be replaced by their rewards",
      "label": "Kill Long",
      "id": "longded",
      "noartneeded": "true",
      "isAspect": "true"
    },
    {
      "comments": "Recipe aspect",
      "description": "Summonings will be replaced by flavour influences or summon blockers",
      "label": "Kill Summoning",
      "id": "killsummoned",
      "noartneeded": "true",
      "isAspect": "true"
    },
    {
      "comments": "Recipe aspect",
      "description": "Summonings will be replaced by flavour influences or summon blockers",
      "label": "Kill Manifesting Summoning",
      "id": "killmanifesting",
      "noartneeded": "true",
      "isAspect": "true"
    },
    {
      "comments": "Recipe aspect",
      "description": "Ce qui est à l'extérieur, à l'intérieur ; ce qui est à l'intérieur, à l'extérieur. Dissout quelque chose en une Influence.",
      "label": "Dissolution",
      "id": "dissolution",
      "noartneeded": "true",
      "isAspect": "true"
    },
    {
      "id": "raiseshattered",
      "label": "Transform eg a corpse to Shattered Risen",
      "isAspect": "true",
      "comments": "Recipe aspect",
      "noartneeded": "true"
    },
    {
      "id": "raiseburgeoning",
      "label": "Transform eg a corpse to Burgeoning Risen",
      "isAspect": "true",
      "comments": "Recipe aspect",
      "noartneeded": "true"
    },
    {
      "isAspect": "true",
      "noartneeded": "true",
      "comments": "Recipe aspect",
      "id": "renewshattered"
    },
    {
      "isAspect": "true",
      "noartneeded": "true",
      "comments": "Recipe aspect",
      "id": "renewburgeoning"
    },
    {
      "comments": "Recipe aspect",
      "description": "Followers will become Rivals",
      "label": "Rebellion",
      "id": "rebellion",
      "noartneeded": "true",
      "isAspect": "true"
    },
    {
      "comments": "Recipe aspect",
      "description": "Les nuisances comme les patrons difficiles seront résolues.",
      "label": "Mettre fin à la nuisance",
      "id": "endannoyance",
      "noartneeded": "true",
      "isAspect": "true"
    },
    {
      "comments": "Recipe aspect",
      "description": "Une promotion ou amélioration de compétence",
      "label": "Avancement de Carrière",
      "id": "careeradvancement",
      "noartneeded": "true",
      "isAspect": "true"
    },
    {
      "comments": "Recipe aspect",
      "description": "Mortals will be replaced by Lunatics",
      "label": "Derange Mortal",
      "id": "derangemortal",
      "noartneeded": "true",
      "isAspect": "true"
    },
    {
      "comments": "Recipe aspect",
      "description": "Des Chasseurs vont être emprisonnés.",
      "label": "Capture d'un Chasseur",
      "id": "capturehunter",
      "noartneeded": "true",
      "isAspect": "true"
    },
    {
      "comments": "Recipe aspect",
      "description": "Les Chasseurs deviendront des cadavres.",
      "label": "Tuer un Chasseur",
      "id": "killhunter",
      "noartneeded": "true",
      "isAspect": "true"
    },
    {
      "comments": "Recipe aspect",
      "description": "Des Fidèles vont être emprisonnés.",
      "label": "Capture de Fidèle",
      "id": "capturefollower",
      "noartneeded": "true",
      "isAspect": "true"
    },
    {
      "comments": "Recipe aspect",
      "description": "Passion will be clarified.",
      "label": "Restore Passion",
      "id": "restorepassion",
      "noartneeded": "true",
      "isAspect": "true"
    },
    {
      "comments": "Recipe aspect",
      "description": "La clémence pourrait être accordée.",
      "label": "Plaidoyer",
      "id": "plead",
      "noartneeded": "true",
      "isAspect": "true"
    },
    {
      "comments": "Recipe aspect. Refreshes job timers and fatigues stats",
      "description": "J'ai fait une journée de travail.",
      "label": "Travail",
      "id": "employment",
      "noartneeded": "true",
      "isAspect": "true"
    },
    {
      "comments": "Recipe aspect. Refreshes reputation timers.",
      "description": "On ne m'oubliera pas de sitôt.",
      "label": "Scandaleux",
      "id": "scandalous",
      "noartneeded": "true",
      "isAspect": "true"
    },
    {
      "comments": "Recipe aspect. Upgrades lore.",
      "description": "Ma compréhension s'est améliorée.",
      "label": "Épiphanie",
      "id": "epiphany",
      "noartneeded": "true",
      "isAspect": "true"
    },
    {
      "comments": "Recipe aspect. Upgrades influence.",
      "description": "J'ai trouvé un alignement.",
      "label": "Renforcer l'Influence",
      "id": "upgradeinfluence",
      "noartneeded": "true",
      "isAspect": "true"
    },
    {
      "id": "glorify",
      "label": "A MOve toWards the GLory",
      "isAspect": "true",
      "description": "Converts Dread to Fascination, and potential other elements to more Gloryful equivalents.",
      "noartneeded": "true"
    },
    {
      "comments": "Recipe aspect. Downgrades and splits lore.",
      "description": "I understand things more simply now.",
      "label": "Depiphany",
      "id": "depiphany",
      "noartneeded": "true",
      "isAspect": "true"
    },
    {
      "comments": "Recipe aspect.",
      "description": "Upgrades evidence.",
      "label": "Investigation Success",
      "id": "investigatingsuccess",
      "noartneeded": "true",
      "isAspect": "true"
    },
    {
      "comments": "Recipe aspect.",
      "description": "Downgrades evidence.",
      "label": "Investigation Setback",
      "id": "investigatingsetback",
      "noartneeded": "true",
      "isAspect": "true"
    },
    {
      "comments": "Recipe aspect",
      "description": "Des miroirs vont être fissurés.",
      "label": "Fissurer des Miroirs",
      "id": "crackmirror",
      "noartneeded": "true",
      "isAspect": "true"
    },
    {
      "id": "mortal",
      "label": "Mortel",
      "isAspect": "true",
      "description": "'La longue habitude de vivre nous indispose à mourir.' - Thomas Browne"
    },
    {
      "id": "commission",
      "label": "Commission",
      "isAspect": "true",
      "description": "Une opportunité de profit. Je dois remplir cette demande et la retourner à un Mécène."
    },
    {
      "id": "benign",
      "label": "Sheer Good Fortune",
      "isAspect": "true",
      "description": "How lucky I have been."
    },
    {
      "id": "malign",
      "label": "An Ugliness",
      "isAspect": "true",
      "description": "Something unwelcome."
    },
    {
      "id": "season",
      "label": "Saison",
      "isAspect": "true",
      "description": "Quelque chose de pertinent va se produire, bientôt",
      "comments": "identifies card draws for Time seasonal events"
    },
    {
      "id": "devourer",
      "label": "Dévoreur",
      "isAspect": "true",
      "description": "Si cette chose se libère, elle pourrait vous agresser ou dévorer vos fidèles."
    },
    {
      "id": "deceiver",
      "label": "Trompeur",
      "isAspect": "true",
      "description": "Si elle se libère, elle pourrait tenter de vous rendre, vous ou vos adeptes, fous."
    },
    {
      "id": "mystic",
      "label": "Mystique",
      "isAspect": "true",
      "description": "Ce Chasseur survivra généralement aux attaques des créatures de la Mansus, même si ces attaques seraient normalement imparables."
    },
    {
      "id": "brilliant",
      "label": "Brillant",
      "isAspect": "true",
      "description": "Les Chasseurs Brillants  trouvent un sens dans le moindre détail. Ils peuvent convertir la notoriété directement en preuves accablantes.",
      "noartneeded": "true"
    },
    {
      "id": "erratic",
      "label": "Erratique",
      "isAspect": "true",
      "description": "Ce Chasseur échoue souvent à créer des Preuves à partir de Notoriété. Inversement, il crée parfois des Preuves même lorsqu'il ne trouve pas de Notoriété."
    },
    {
      "id": "meticulous",
      "label": "Méticuleux",
      "isAspect": "true",
      "description": "Ce chasseur parvient toujours à créer des Preuves à partir de Notoriété."
    },
    {
      "id": "tenacious",
      "label": "Tenace",
      "isAspect": "true",
      "description": "Ce Chasseur survivra peut-être à une attaque physique sur trois, même lorsque l'attaque serait normalement imparable."
    },
    {
      "id": "wary",
      "label": "Méfiant",
      "isAspect": "true",
      "description": "Celui-ci est devenu prudent. Il ne me rencontrera plus jamais en personne."
    },
    {
      "id": "grim",
      "label": "Sinistre",
      "isAspect": "true",
      "description": "Les Chasseurs Sinistres ne peuvent pas être influencés par l'attrait de la Gloire... mais leur propre désespoir peut les détruire."
    },
    {
      "id": "idealist",
      "label": "Idéaliste",
      "isAspect": "true",
      "description": "Les idéalistes ne peuvent pas être démoralisés - même si parfois leurs idéaux peuvent être retournés contre eux."
    },
    {
      "id": "venerationedge",
      "label": "Vénération : Lame",
      "isAspect": "true",
      "description": "Cette organisation vénère le principe appelé Lame, que nous invoquons au nom du Colonel et du Forgeur-de-Lions...entre autres."
    },
    {
      "id": "venerationforge",
      "label": "Vénération : Forge",
      "isAspect": "true",
      "description": "Cette organisation vénère le principe appelé Forge, que nous invoquons au nom de la Forge des Jours elle-même et de la Madrugade...entre autres."
    },
    {
      "id": "venerationgrail",
      "label": "Vénération : Graal",
      "isAspect": "true",
      "description": "Cette organisation vénère le principe appelé Graal, que nous invoquons au nom du Graal Rouge lui-même et de la Soeur-et-Sorcière...entre autres."
    },
    {
      "id": "venerationheart",
      "label": "Vénération : Cœur",
      "isAspect": "true",
      "description": "Cette organisation vénère le principe appelé Cœur, que nous invoquons au nom de la Peau-du-Tonnerre et du Velours...entre autres."
    },
    {
      "id": "venerationknock",
      "label": "Vénération : Clef",
      "isAspect": "true",
      "description": "Cette organisation vénère le principe appelé Clef, que nous invoquons au nom de la Mère des Fourmis et de la Ménisque...entre autres."
    },
    {
      "id": "venerationlantern",
      "label": "Vénération: Lanterne",
      "isAspect": "true",
      "description": "Cette organisation vénère le principe appelé Lanterne, que nous invoquons au nom de la Porte-dans-l'oeil et du Faiseur-de-fleurs...entre autres."
    },
    {
      "id": "venerationmoth",
      "label": "Vénération : Phalène",
      "isAspect": "true",
      "description": "Cette organisation vénère le principe appelé Phalène, que nous invoquons au nom du Phalène lui-même et de la Sorcière-et-Sœur...entre autres."
    },
    {
      "id": "venerationwinter",
      "label": "Vénération : Hiver",
      "isAspect": "true",
      "description": "Cette organisation vénère le principe appelé Hiver, que nous invoquons au nom du Soleil-en-Lambeaux et de la Hache Cornue...entre autres."
    },
    {
      "id": "textlatin",
      "label": "Écrit en Latin",
      "isAspect": "true",
      "description": "Une langue morte: aussi figée que les diamants. [Certains livres doivent être traduits avant de pouvoir être lus]"
    },
    {
      "id": "textfucine",
      "label": "Écrit en Fucine",
      "isAspect": "true",
      "description": "Un peuple vivait à l'est du lac perdu Fucino. Horace a averti que leur pays était une terre de sorcières. C'était leur langue, appelée par certains \"la langue aride\" et par d'autres \"la langue des sorcières\" [certains livres doivent être traduits avant de pouvoir être lus.]"
    },
    {
      "id": "textgreek",
      "label": "Écrit en Grec",
      "isAspect": "true",
      "description": "Une langue pour les philosophes, les théologiens et les héros. [Certains livres doivent être traduits avant de pouvoir être lus.]"
    },
    {
      "id": "textphrygian",
      "label": "Écrit en Phrygien",
      "isAspect": "true",
      "description": "Les Phrygiens vénéraient la Grande Mère, que nous appelons le Graal. C'est dans leur pays que naquit la Sororité du Nœud, et c'est dans cette langue que la Peau du Tonnerre supplia lors de son ascension. [Certains livres doivent être traduits avant de pouvoir être lus.]"
    },
    {
      "id": "textaramaic",
      "label": "Écrit en Araméen",
      "isAspect": "true",
      "description": "La langue d'Aram, et tous ses nombreux enfants depuis plus de trois mille ans. [Certains livres doivent être traduits avant de pouvoir être lus.]"
    },
    {
      "id": "textmandaic",
      "label": "Écrit en Mandéen Profond",
      "isAspect": "true",
      "description": "Le scénario le plus secret des rites les plus intimes des sectes profondes du désert profond. La langue natale, dit-on, de la Mère des Fourmis elle-même. [Certains livres doivent être traduits avant de pouvoir être lus.]"
    },
    {
      "id": "textsanskrit",
      "label": "Écrit en Sanskrit",
      "isAspect": "true",
      "description": "La langue sacrée du Sous-continent. La porte à quatre mille ans de poésie, de cérémonie et de mystère s'ouvre maintenant devant vous, si vous parvenez à vous débattre avec les circonvolutions de son vocabulaire. [Certains livres doivent être traduits avant de pouvoir être lus]"
    },
    {
      "id": "textvak",
      "label": "Écrit en Vak",
      "isAspect": "true",
      "description": "Avant que les dieux ne surgissent du sang, avant que le singe ne se tienne debout, c'était la langue entendue dans la Maison du Soleil. [Certains livres doivent être traduits avant de pouvoir être lus.]"
    },
    {
      "id": "follower_honoured",
      "label": "Honoured",
      "isAspect": "true",
      "description": "I have honoured this follower with a gift."
    },
    {
      "id": "romanticinterest",
      "label": "Interested",
      "isAspect": "true",
      "description": "This is someone who has developed a romantic interest in me."
    },
    {
      "icon": "long_wound",
      "id": "long_wound",
      "label": "Blessure",
      "isAspect": "true",
      "description": "Est-il possible pour un Immortel de mourir ? Mettons cette hypothèse à l'épreuve."
    },
    {
      "id": "follower_wound",
      "label": "Blessure",
      "isAspect": "true",
      "description": "Celui-ci a souffert à mon service. [Les Fidèles Blessés ne comptent pas comme des Fidèles et ne peuvent pas être utilisés comme agents ou assistants. Ils peuvent mourir pendant la Saison des Maladies. Utilisez <b>Parler</b> pour les soigner.]"
    },
    {
      "id": "follower_scar_edge",
      "label": "Scar: Brutal Experience",
      "isAspect": "true",
      "description": "FAUSTUS: I think Hell's a fable. MEPHISTOPHILIS: Ay, think so still, till experience change thy mind. [Three Scars of the same type will kill a mortal.]"
    },
    {
      "id": "follower_scar_knock",
      "label": "Scar: Half-Healed Fistula",
      "isAspect": "true",
      "description": "Not all doors are wounds; but all wounds are doors. [Three Scars of the same type will kill a mortal.]"
    },
    {
      "id": "follower_scar_winter",
      "label": "Scar: Old Wound",
      "isAspect": "true",
      "description": "Step closer to the sunset, and see the first stars of night. [Three Scars of the same type will kill a mortal.]"
    },
    {
      "id": "corpse_scar",
      "label": "Vieille Cicatrice",
      "isAspect": "true",
      "description": "C'était une personne qui connaissait la douleur."
    },
    {
      "id": "resentment",
      "label": "Resentment",
      "isAspect": "true",
      "description": "Too many grievances can compromise loyalty.",
      "comments": "Three resentments in the season of ambitions will turn someone Troublemaker"
    },
    {
      "id": "boredom",
      "label": "Boredom",
      "isAspect": "true",
      "description": "My benefactor's interest will eventually wane."
    },
    {
      "id": "besotment",
      "label": "Besotment",
      "isAspect": "true",
      "description": "My benefactor looks fondly on me."
    },
    {
      "id": "benefactor_proposal",
      "label": "A Proposal from a Benefactor",
      "isAspect": "true",
      "description": "In a moment of passion, my benefactor has proposed marriage. If I seize the moment and accept, this will transform my life... and close other doors forever. [Talk to the Benefactor before their enthusiasm wanes.]"
    },
    {
      "id": "desiremoth_track",
      "label": "Old Form",
      "isAspect": "true",
      "description": "I am coming to know a dance that began in the sodden forests of the first continent."
    },
    {
      "id": "desireheart_track",
      "label": "The New Form",
      "isAspect": "true",
      "description": "I am coming to know a dance that began beneath the mountain pines of the dry land."
    },
    {
      "id": "potentialbenefactorm",
      "label": "The Gentlemen at the Stage Door",
      "isAspect": "true",
      "description": "A gentleman of means sometimes attends performances. He has been known to pay his respects to chorus members after the show."
    },
    {
      "id": "potentialbenefactorf",
      "label": "The Lady in the Box",
      "isAspect": "true",
      "description": "A lady of means sometimes attends performances. She has been known to show a keen interest in chorus members."
    },
    {
      "id": "potentialecdysiast",
      "label": "A Bright-Eyed Watcher",
      "isAspect": "true",
      "description": "Sometimes she sits in the second row, seeking new talent for her peculiar establishment. Those she employs are rarely seen about town."
    },
    {
      "id": "snarelevel",
      "label": "Snare Effectiveness",
      "isAspect": "true",
      "description": "Some snares are easy to escape. Some are webs of steel."
    },
    {
      "id": "apostleforge.pillar4.dormant",
      "label": "La Boussole Choisie",
      "isAspect": "true",
      "description": "Notre Façonneur a choisi celui-ci pour être une boussole vers la faille du monde - le point faible dans le lieu qui ne change pas. Lorsqu'il la trouvera, il y abandonnera ses yeux et vivra pour accomplir son Dessein."
    },
    {
      "id": "apostleforge.pillar4",
      "label": "Tes Yeux Ont Vu",
      "isAspect": "true",
      "description": "Celui-ci est aveugle à tout, sauf à la faille du monde que nous cherchons. Il y en a une à Vienne, mais il y en a une autre beaucoup plus près de chez nous, dans le lieu dont le nom a toujours été le même, même en tant que Caer Ys. Il peut nous y conduire, avec le Cœur de l'Aube Ascendante, pour accomplir notre Grande Œuvre."
    },
    {
      "id": "mentor",
      "label": "Mentor",
      "isAspect": "true",
      "description": "Our secret ruler, who commands our loyalty, who shall rise still higher through our works."
    },
    {
      "isHidden": "true",
      "id": "intention.assault",
      "label": "Intention",
      "isAspect": "true",
      "description": "Notre ennemi immortel a un plan."
    },
    {
      "isHidden": "true",
      "id": "intention.intrigue",
      "label": "Intention",
      "isAspect": "true",
      "description": "Notre ennemi immortel a un plan."
    },
    {
      "isHidden": "true",
      "id": "intention.dreams",
      "label": "Intention",
      "isAspect": "true",
      "description": "Notre ennemi immortel a un plan."
    },
    {
      "isHidden": "true",
      "id": "intention.downtime",
      "label": "Intention",
      "isAspect": "true",
      "description": "Notre ennemi immortel a un plan."
    },
    {
      "isHidden": "true",
      "id": "strategy.revealed",
      "label": "Strategy Revealed",
      "isAspect": "true",
      "description": "This strategy's been exposed."
    },
    {
      "id": "revealstrategy",
      "label": "Reveal Strategy",
      "isAspect": "true",
      "description": "Reveals a concealed strategy",
      "noartneeded": "true"
    },
    {
      "id": "revealidentity",
      "label": "Reveal Indentity",
      "isAspect": "true",
      "description": "Reveals an unknown enemy",
      "noartneeded": "true"
    },
    {
      "isHidden": "true",
      "id": "long.lesson",
      "label": "Une Leçon Apprise",
      "isAspect": "true",
      "description": "Notre ennemi observe et apprend."
    },
    {
      "id": "long.might",
      "label": "Pouvoir",
      "isAspect": "true",
      "description": "Au fil du temps, cet Immortel accumulera des alliés et des ressources dans la cité, améliorant ainsi sa capacité à nous attaquer. [Si cette carte atteint 10, l'Immortel envisagera de vous attaquer directement.]"
    },
    {
      "id": "long.connections",
      "label": "Contacts",
      "isAspect": "true",
      "description": "Au fil du temps, cet Immortel développera son réseau dans la cité, améliorant ainsi sa capacité à comploter contre nous. [Si cette carte atteint 10, l'Immortel envisagera de vous attaquer directement.]"
    },
    {
      "id": "long.dreamwork",
      "label": "Taille de la Lumière des Étoiles",
      "isAspect": "true",
      "description": "Avec le temps, cet Immortel apprendra la forme de nos rêves, améliorant ainsi sa capacité à nous frapper à travers la Mansus. [Si cette carte atteint 10, l'Immortel envisagera de vous attaquer directement.]"
    },
    {
      "isHidden": "true",
      "id": "long.enemy",
      "label": "Un Ennemi Immortel",
      "isAspect": "true",
      "description": "Beaucoup d'Immortels servent les Heures. Ils s'opposent farouchement à l'émergence de nouveaux Noms, qui pourraient, peut-être, devenir des Heures usurpatrices un jour. Certains Immortels détestent les Heures. Leur opposition aux nouveaux Noms est, au mieux, encore plus féroce."
    },
    {
      "id": "greatwork",
      "label": "Un élément du Grand Œuvre",
      "isAspect": "true",
      "description": "Lorsque l'Œuvre sera achevée, notre fondateur, notre inspiration, s'élèvera encore plus haut."
    },
    {
      "id": "greatwork.sabotaged",
      "label": "Saboté !",
      "isAspect": "true",
      "description": "Le Grand Œuvre est en péril. [Utilisez un adepte de la Forge et un Spintria d'argent pour le réparer.]"
    },
    {
      "id": "sabotage",
      "label": "Sabotage!",
      "isAspect": "true",
      "description": "Convertit un élément du Grand Œuvre en une version instable qui doit être réparée.",
      "noartneeded": "true"
    },
    {
      "id": "sabotage.repair",
      "label": "Sabotage Réparé !",
      "isAspect": "true",
      "noartneeded": "true"
    },
    {
      "id": "grailflavour",
      "label": "Le plus Doux",
      "isAspect": "true",
      "description": "Fraises, cannelle, fleur d'oranger."
    },
    {
      "id": "heartflavour",
      "label": "Le Sel",
      "isAspect": "true",
      "description": "Cuivre, myrrhe, rouille."
    },
    {
      "id": "mothflavour",
      "label": "La Douceur",
      "isAspect": "true",
      "description": "Figues, noix, malt."
    },
    {
      "id": "vitulationupgrade",
      "label": "Amélioration des Invités à la Vitulation",
      "isAspect": "true",
      "description": "Invités, approchez !",
      "noartneeded": "true"
    },
    {
      "id": "cloudwitnessesupgrade",
      "label": "Amélioration de la Nuée des Témoins",
      "isAspect": "true",
      "description": "Témoins, rassemblez-vous !",
      "noartneeded": "true"
    },
    {
      "id": "renew.apostlelantern.pillar3",
      "label": "Renew the Allure",
      "isAspect": "true",
      "noartneeded": "true"
    },
    {
      "description": "This follower's secrets have been revealed to the public. Any time they're active, the press might take an interest.",
      "label": "Exposed",
      "id": "poison.notoriety",
      "icon": "reputation",
      "induces": [
        {
          "id": "poison.notoriety.induction",
          "chance": "30"
        }
      ],
      "isAspect": "true"
    },
    {
      "id": "poison.passion.dread",
      "label": "Poisoned Passion",
      "isAspect": "true",
      "description": "My emotions have been infected with the creeping taint of fear. [Using this card anywhere will probably create Dread.]",
      "induces": [
        {
          "id": "poison.passion.dread.induction",
          "chance": "70"
        }
      ]
    },
    {
      "id": "poison.reason.fascination",
      "label": "The Splendorous Infection",
      "isAspect": "true",
      "description": "I am teased by recurring dreams of candlefire. [Using this card anywhere will probably create Fascination.]",
      "induces": [
        {
          "id": "poison.reason.fascination.induction",
          "chance": "70"
        }
      ]
    },
    {
      "id": "poison.health.dread",
      "label": "The Failing Flesh ",
      "isAspect": "true",
      "description": "I have become subject to pain that will never depart. [Using this card anywhere will probably create Dread.]",
      "induces": [
        {
          "id": "poison.health.dread.induction",
          "chance": "70"
        }
      ]
    },
    {
      "id": "poison.fascination.longlesson",
      "label": "The Eyes in my Memory",
      "isAspect": "true",
      "description": "The Long has sent me a sweet dream. I must not think of it. [If you Dream away this card or use it in a ritual, the Long will learn from you, increasing their power in your dreams.]"
    },
    {
      "id": "poison.dread.longlesson",
      "label": "The Teeth in my Heart",
      "isAspect": "true",
      "description": "The Long has set dreams to bedevil me. It would be safer to banish them, but wiser not to think of them. [If you Dream away this card or use it in a ritual, the Long will learn from you, increasing their power in your dreams.]"
    },
    {
      "id": "poison.way.long",
      "label": "The Way is Watched",
      "isAspect": "true",
      "description": "The Long has set a watch upon this Way. If I pass it, they'll learn more of me as I sleep."
    },
    {
      "id": "lockscar",
      "label": "Lock-Scar",
      "isAspect": "true",
      "description": "Perhaps a serpent has kissed me, perhaps a knife has drunk of me, perhaps I dreamt too sharp a dream. [In a rite with a sufficient intensity of Knock, this Scar might open.]"
    },
    {
      "id": "openedlockscar",
      "label": "Open Lock-Scar",
      "isAspect": "true",
      "description": "[This Scar is opening.]"
    },
    {
      "id": "unlockscar",
      "label": "This Scar will Open",
      "isAspect": "true",
      "description": "Recipee aspect.",
      "noartneeded": "true"
    },
    {
      "id": "ghoul.hunger",
      "label": "Graveyard Mouth",
      "isAspect": "true",
      "description": "Now that I have tasted the graveyard fruit, the hunger comes often to trouble me. My mouth waters at the fragrances of decay, and my belly growls like a dog. [Reduce this by feeding on Remnants. Do not ever permit it to reach seven, the game may end, and not pleasantly.]"
    },
    {
      "id": "colours.furious",
      "label": "The Colours Seven-Coiled",
      "isAspect": "true",
      "description": "On a bed of dunes beneath a red low sun a monster wrestles itself while attendants crowd around its flanks. It is flabby and huge, the colour of dirty sulphur. Fanged tentacle-necks wrestle like kittens. It tears cheerfully at its own flesh, and the blood that flows is golden. It flops over in a cataclysm of wattled flesh, crushing a knot of attendants, and the others scream and cheer."
    },
    {
      "id": "colours.luxurious",
      "label": "The Colours Tidal",
      "isAspect": "true",
      "description": "In a night-blue Mansus-haze swims a coral palace-crown. At its fore-edge it absorbs the lesser Names, coating them with its minerals and juices, and at its rear edge it expels some of them, polished like jewels. The others go to feed its thorny Tide-heart."
    },
    {
      "id": "colours.liminal",
      "label": "The Colours of the Double Threshold",
      "isAspect": "true",
      "description": "When I remember the Horned Axe, I recall the scent of hawthorn. I recall a purple evening sky shot with red gold. I recall that her edges dripped where she had lately been at work."
    },
    {
      "id": "colours.horizon",
      "label": "The Colours of the Horizon",
      "isAspect": "true",
      "description": "A faded pale white-gold seen in certain patches of the sky, when the mist is clearing but the sun might be mistaken for the moon. We hold our breath and watch it brighten, until each colour divides from the next like a new-minted alphabet. The Egg Unhatching."
    },
    {
      "id": "colours.splendid",
      "label": "The Colours that Were",
      "isAspect": "true",
      "description": "Auroral rose vies with electric blue. There is neither night nor morning but only the hours of noon anticipated and lingering noon. We each of us open our hearts to the golden needle of the sky. All colours magnified beneath the Sun-in-Splendour."
    },
    {
      "id": "colours.endless",
      "label": "The Colours that Turn",
      "isAspect": "true",
      "description": "With each turn its cilia pulse and wriggle and its body flushes translucent to crimson. It might be ugly but it is beautiful like the withdrawing of blood from the labyrinths of glass. It does not cease and all its involutions are infinite. The Wheel."
    },
    {
      "id": "colours.wildering",
      "label": "The Colours That Are Not Black",
      "isAspect": "true",
      "description": "The Wood before its darkening, its fruits poison-green, its carnelian roots. The Moth's eyes are merry with hunger. He is hunting."
    },
    {
      "id": "colours.golden",
      "label": "The Colours of the Old Fire",
      "isAspect": "true",
      "description": "This is only a stone, though it is smoothed and sharpened to a midnight point, but look closer. Each of its facets shows a single point of light. It might be the glint of firelight. It might be each a different Star."
    },
    {
      "id": "colours.honeyed",
      "label": "The Colours that Will Be",
      "isAspect": "true",
      "description": "Our wings unfurled and shining, our scales lambent as obsidian, our eyes faceted like jewels, our claws unimpeachable dark."
    },
    {
      "id": "ascension.remembrance.offering",
      "label": "The Elegiast's Price",
      "isAspect": "true",
      "description": "The Elegiast is the Hour from whom nothing more can be taken, and the Hour who calls each of the Dead by name. Once in a long ever, for a great price, he will call one of the Dead up out of Nowhere, that they may continue, lonely, unscathed, until the date of their own final winter."
    },
    {
      "id": "remnant",
      "label": "Reste",
      "isAspect": "true",
      "description": "Autrefois, un autre portait cette chair."
    },
    {
      "id": "manifesting",
      "label": "Manifesting",
      "isAspect": "true",
      "description": "The spirit is entering the world. This is simpler than a birth, but not so simple as passing through a door."
    },
    {
      "icon": "boredom",
      "id": "stale",
      "label": "Staleness",
      "isAspect": "true",
      "description": "I have begun to repeat myself. [The higher this grows, the greater the impact on your work. Producing the very highest-quality work will gradually reduce Staleness.]"
    },
    {
      "isHidden": "true",
      "id": "project",
      "label": "Projet",
      "isAspect": "true",
      "description": "Agenda du projet de recherche"
    }
  ]
}