{
  "elements": [
    {
      "description": "J'ai besoin de repos et de nourriture, si je veux récupérer. Mais quand ma bouche salive, quand ma vision se brouille, je vois la coupe rouge; et de temps en temps elle me parle. [Rêver avec la Faim avant que la carte ne disparaisse vous permet de récupérer la Santé]",
      "decayTo": "decrepitude",
      "slots": [
        {
          "actionId": "dream",
          "id": "nourishment",
          "label": "Nourriture",
          "required": {
            "funds": "1"
          },
          "description": "Pour récupérer, je dois manger."
        }
      ],
      "id": "hunger",
      "aspects": {
        "grail": "2",
        "illhealth": "1",
        "ingredient": "1"
      },
      "lifetime": "60",
      "xtriggers": {
        "restorehealth": "health",
        "scar_ability": "scar_heart"
      },
      "label": "Faim"
    },
    {
      "description": "Ceci est mon corps. Il y a d'autres corps, mais celui-ci est le mien, et mon esprit a en a besoin comme un champignon a besoin de terre. [Avec assez de Vitalité, vous pouvez obtenir plus de Santé.]",
      "id": "health",
      "aspects": {
        "ability": "1",
        "heart": "2",
        "ingredient": "1"
      },
      "animFrames": "1",
      "xtriggers": {
        "destroyhealth": "decrepitude",
        "damagehealth": "injury",
        "fatiguing": "fatigue",
        "fallsick": "affliction",
        "scar_ability": "scar_heart",
        "employment": "fatigue",
        "job": "fatigue",
        "ritual": "fatigue",
        "society": "fatigue"
      },
      "label": "Santé"
    },
    {
      "description": "L'exercice physique, ou quelque chose de plus rare, m'a revigoré. [A utiliser avec d'autres Vitalité pour améliorer vos capacités. Ne dure que trois minutes, si inutilisé.]",
      "slots": [
        {
          "actionId": "study",
          "id": "morevitality",
          "label": "Plus de Vitalité",
          "required": {
            "vitality": "1",
            "influenceheart": "1"
          },
          "description": "Avec assez de Vitalité - ou parfois quelque chos de plus exotique - je peux améliorer ma Santé."
        }
      ],
      "id": "vitality",
      "aspects": {
        "advancement": "1",
        "influence": "1",
        "heart": "1"
      },
      "lifetime": "180",
      "xtriggers": {
        "upgradeinfluence": "influenceheartc"
      },
      "label": "Vitalité"
    },
    {
      "description": "Je suis prêt à m'améliorer. [Utilisez ceci avec votre compétence de Force pour améliorer la compétence et gagner de la Santé. Dure cinq minutes, puis se dégrade en Vitalité.]",
      "decayTo": "vitality",
      "id": "vitalityplus",
      "aspects": {
        "advancement": "1",
        "influence": "1",
        "heart": "2"
      },
      "lifetime": "300",
      "xtriggers": {
        "upgradeinfluence": "influenceheartc"
      },
      "label": "Vitalité : une Leçon Apprise"
    },
    {
      "description": "Un désir ardent m'habite. Je sens que j'ai envie de faire... <i>quelque chose</i>. Mais quoi, exactement ?",
      "decayTo": "dread",
      "id": "restlessness",
      "aspects": {
        "memory": "1",
        "forge": "2",
        "heart": "2",
        "influence": "1",
        "lantern": "2",
        "grail": "2",
        "moth": "2"
      },
      "lifetime": "60",
      "label": "Fébrilité"
    },
    {
      "lifetime": "1",
      "id": "bloodshed",
      "label": "Effusion de sang",
      "description": "Le sang a été versé."
    },
    {
      "description": "J'ai besoin de repos et de nourriture, si je veux récupérer. Mais la Mère des Fourmis est très attentive aux blessures. [Rêver avec une Blessure avant que la carte ne disparaisse vous permettrait aussi de récupérer la Santé.]",
      "decayTo": "decrepitude",
      "slots": [
        {
          "description": "Je pourrais aller voir un médecin...",
          "required": {
            "funds": "1"
          },
          "actionId": "dream",
          "id": "medicines",
          "label": "Médicaments, ou..."
        },
        {
          "actionId": "dream",
          "id": "vitality",
          "label": "...de la Vitalité",
          "required": {
            "vitality": "1"
          },
          "description": "...mais peut-être ai-je juste besoin de repos."
        }
      ],
      "id": "injury",
      "aspects": {
        "illhealth": "1",
        "knock": "2",
        "ingredient": "1"
      },
      "lifetime": "150",
      "xtriggers": {
        "restorehealth": "health",
        "scar_ability": "scar_heart"
      },
      "label": "Une Blessure"
    },
    {
      "description": "Je suis allé à l'encontre de mes propres principes, ou de mes propres préférences. [Cette carte ne peut pas être utilisée, mais elle sera récupérée au bout de soixante secondes]",
      "decayTo": "passion",
      "resaturate": "true",
      "id": "disillusionment",
      "icon": "passion",
      "lifetime": "60",
      "xtriggers": {
        "scarability": "scar_moth",
        "toreason": "concentration",
        "damagepassion": "fascination"
      },
      "label": "Passion (Désillusionné)"
    },
    {
      "description": "Ma passion est épuisée. [Cette carte ne peut pas être utilisée, mais elle sera récupérée au bout de soixante secondes]",
      "decayTo": "passion",
      "resaturate": "true",
      "id": "passionexhausted",
      "icon": "passion",
      "lifetime": "60",
      "xtriggers": {
        "scarability": "scar_moth",
        "toreason": "concentration",
        "damagepassion": "fascination"
      },
      "label": "Passion (Épuisée)"
    },
    {
      "description": "Cette carte ne peut pas être utilisée, mais elle sera récupérée au bout de soixante secondes. Vous pouvez la récupérer plus rapidement en Rêvant.",
      "decayTo": "health",
      "resaturate": "true",
      "id": "fatigue",
      "aspects": {
        "heart": "1",
        "illhealth": "1"
      },
      "icon": "health",
      "lifetime": "60",
      "xtriggers": {
        "damagehealth": "injury",
        "restorehealth": "health",
        "scarability": "scar_heart",
        "destroyhealth": "decrepitude",
        "fallsick": "affliction"
      },
      "label": "Santé (Fatigué)"
    },
    {
      "description": "La Maladie m'a laissé faible. J'ai besoin de repos et de nourriture, si je veux me rétablir. [Rêvez d'une Affection pour la transformer en Santé, avant que la carte ne se désintègre.]",
      "decayTo": "decrepitude",
      "slots": [
        {
          "actionId": "dream",
          "id": "medicine",
          "label": "Médicaments, ou...",
          "required": {
            "funds": "1"
          },
          "description": "Je pourrais aller voir un médecin..."
        },
        {
          "actionId": "dream",
          "id": "vitality",
          "label": "...de la Vitalité",
          "required": {
            "vitality": "1"
          },
          "description": "...mais peut-être ai-je juste besoin de repos."
        }
      ],
      "id": "affliction",
      "aspects": {
        "illhealth": "1",
        "winter": "2",
        "ingredient": "1"
      },
      "lifetime": "180",
      "xtriggers": {
        "restorehealth": "health",
        "scarability": "scar_heart"
      },
      "label": "Une Affliction"
    },
    {
      "description": "'\"Aucun organisme vivant ne peut continuer longtemps à exister de manière saine dans des conditions de réalité absolue.\" - Shirley Jackson'\n\n[Avec de l'Érudition, vous pouvez Étudier pour obtenir plus de Raison.]",
      "id": "reason",
      "aspects": {
        "ability": "1",
        "lantern": "2",
        "ingredient": "1"
      },
      "animFrames": "1",
      "xtriggers": {
        "fatiguing": "concentration",
        "damagereason": "dread",
        "employment": "concentration",
        "job": "concentration",
        "scarability": "scar_lantern",
        "ritual": "concentration",
        "society": "concentration",
        "topassion": "passion"
      },
      "label": "Raison"
    },
    {
      "description": "Mon esprit est fatigué. [Cette carte ne peut pas être utilisée, mais elle sera récupérée au bout de soixante secondes]",
      "decayTo": "reason",
      "resaturate": "true",
      "id": "concentration",
      "icon": "reason",
      "lifetime": "60",
      "xtriggers": {
        "scarability": "scar_lantern",
        "damagereason": "dread",
        "topassion": "passionexhausted"
      },
      "label": "Raison [Atténuée]"
    },
    {
      "description": "Je me gorge de savoir comme les ombres dévorent la lumière. Je suis peut-être tout près de l'avancement. [l'Érudition peut être Étudiée pour gagner de la Raison. Ne dure que trois minutes, si inutilisée.]",
      "slots": [
        {
          "actionId": "study",
          "id": "moreerudition",
          "label": "Plus d'Érudition",
          "required": {
            "erudition": "1",
            "influencelantern": "1"
          },
          "description": "Avec assez d'Érudition - ou parfois quelque chose de plus exotique - je peux gagner en Raison."
        }
      ],
      "id": "erudition",
      "aspects": {
        "advancement": "1",
        "influence": "1",
        "lantern": "1"
      },
      "lifetime": "180",
      "xtriggers": {
        "upgradeinfluence": "influencelanternc"
      },
      "label": "Érudition"
    },
    {
      "description": "Je suis prêt à m'améliorer. [Utilisez ceci avec votre compétence d'Études pour améliorer la compétence et gagner de la Raison. Dure cinq minutes, puis se dégrade en Vitalité.]",
      "decayTo": "erudition",
      "id": "eruditionplus",
      "aspects": {
        "advancement": "1",
        "influence": "1",
        "lantern": "2"
      },
      "lifetime": "300",
      "xtriggers": {
        "upgradeinfluence": "influencelanternc"
      },
      "label": "Érudition : une Leçon Apprise"
    },
    {
      "description": "J'en ai vu trop. Une peur sans nom ronge mes espoirs; une horreur existentielle.",
      "slots": [
        {
          "actionId": "dream",
          "id": "reminders",
          "label": "Rappels",
          "description": "J'ai besoin d'un peu de paix, ou d'un petit moment de bonheur. [Trop d'Angoisse vous détruira. Le Contentement peut la guérir.]",
          "required": {
            "contentment": "1"
          }
        },
        {
          "actionId": "study",
          "id": "with",
          "label": "Avec",
          "required": {
            "influenceedge": "1",
            "influencewinter": "1"
          },
          "description": "Peut-être pourrais-je utiliser mon Angoisse pour renforcer une influence dangereuse."
        },
        {
          "actionId": "study",
          "id": "knowledge",
          "label": "Connaissance",
          "required": {
            "fragmentedgef": "1",
            "fragmentedgec": "1",
            "fragmentedgee": "1",
            "fragmentedged": "1",
            "fragmentedgeg": "1"
          },
          "description": "Je dois comprendre les influences à l'oeuvre, si je veux pouvoir les renforcer ou les subvertir. [Vous aurez besoin d'une base importante dans les traditions pertinentes.]"
        }
      ],
      "id": "dread",
      "aspects": {
        "memory": "1",
        "illhealth": "1",
        "edge": "2",
        "inducesdespair": "1",
        "influence": "1"
      },
      "lifetime": "180",
      "xtriggers": {
        "upgradeinfluence": "influenceedgec",
        "glorify": "fascination"
      },
      "label": "Angoisse"
    },
    {
      "description": "'Les esprits ternes ne sont jamais ni intuitifs ni mathématiques.' - Blaise Pascal\n\n[Avec assez de Rayonnement, vous pouvez Étudier pour gagner en Passion.]",
      "id": "passion",
      "aspects": {
        "moth": "2",
        "ability": "1",
        "ingredient": "1"
      },
      "animFrames": "1",
      "xtriggers": {
        "fatiguing": "passionexhausted",
        "toreason": "reason",
        "plead": "disillusionment",
        "employment": "passionexhausted",
        "job": "passionexhausted",
        "ritual": "passionexhausted",
        "society": "passionexhausted",
        "damagepassion": "fascination"
      },
      "label": "Passion"
    },
    {
      "description": "Certaines blessures ne guérissent jamais vraiment. [Les Blessures et Faims non traitées deviennent des Décrépitudes, qui ne redeviennent pas de la Santé. La Décrépitude persiste jusqu'à votre mort.]",
      "slots": [
        {
          "actionId": "dream",
          "id": "consume",
          "label": "Consomme",
          "forbidden": {
            "poison": "1"
          },
          "required": {
            "ingredient": "1"
          }
        }
      ],
      "id": "decrepitude",
      "aspects": {
        "remnant": "1",
        "ability": "1",
        "winter": "1"
      },
      "xtriggers": {
        "alzabo": "memory.honeyed",
        "tohealth": "health"
      },
      "label": "Décrépitude"
    },
    {
      "description": "Mes émotions sont plus fortes que d'habitude. Il y a des choses que je comprendrai jamais, et ces choses seront toujours précieuses, mais à cet instant je suis plus proche d'elles. [le Rayonnement peut être utilisé pour gagner de la Passion. Dure trois minutes, si inutilisé.]",
      "slots": [
        {
          "actionId": "study",
          "id": "moreglimmering",
          "label": "Plus de Rayonnement",
          "required": {
            "influencemoth": "1",
            "glimmering": "1"
          },
          "description": "Avec assez de Rayonnement - ou parfois quelque chose de plus exotique - je peux gagner en Passion."
        }
      ],
      "id": "glimmering",
      "aspects": {
        "moth": "1",
        "advancement": "1",
        "influence": "1"
      },
      "lifetime": "180",
      "xtriggers": {
        "upgradeinfluence": "influencemothc"
      },
      "label": "Rayonnement"
    },
    {
      "description": "Je suis prêt à m'améliorer. [Utilisez ceci avec votre compétence d'Imagination pour améliorer la compétence et gagner de la Passion. Dure cinq minutes, puis se dégrade en Rayonnement.]",
      "decayTo": "glimmering",
      "id": "glimmeringplus",
      "aspects": {
        "moth": "2",
        "advancement": "1",
        "influence": "1"
      },
      "lifetime": "300",
      "xtriggers": {
        "upgradeinfluence": "influencemothc"
      },
      "label": "Rayonnement : une Leçon Apprise"
    },
    {
      "description": "La Lumière FUIT a travers les FISSURES. Mon esprit est plus LUMINEUX qu'il ne l'a JAMAIS été. PLUS JE M'ÉLÈVE, PLUS JE VOIS.",
      "slots": [
        {
          "actionId": "dream",
          "id": "reminders",
          "label": "Rappels",
          "description": "Réalité terne pour ancrer mon âme.",
          "required": {
            "dread": "1",
            "fleeting": "1"
          }
        },
        {
          "actionId": "study",
          "id": "with",
          "label": "Avec",
          "required": {
            "influencelantern": "1",
            "influencemoth": "1"
          },
          "description": "Peut-être pourrais-je utiliser ma Fascination pour renforcer une influence tentatrice."
        },
        {
          "actionId": "study",
          "id": "knowledge",
          "label": "Connaissance",
          "required": {
            "fragmentmothe": "1",
            "fragmentmothd": "1",
            "fragmentmothg": "1",
            "fragmentmothf": "1",
            "fragmentmothc": "1"
          },
          "description": "Je dois comprendre les influences à l'oeuvre, si je veux pouvoir les renforcer ou les subvertir. [Vous aurez besoin d'une base importante dans les traditions pertinentes.]"
        }
      ],
      "id": "fascination",
      "aspects": {
        "moth": "2",
        "illhealth": "1",
        "influence": "1",
        "memory": "1"
      },
      "lifetime": "180",
      "xtriggers": {
        "upgradeinfluence": "influencemothc"
      },
      "label": "Fascination"
    },
    {
      "description": "Une langue morte: aussi figée que les diamants. [Certains livres doivent être traduits avant de pouvoir être lus]",
      "slots": [
        {
          "actionId": "study",
          "id": "Text",
          "label": "Texte non traduit",
          "required": {
            "textlatin": "1"
          }
        }
      ],
      "id": "scholarlatin",
      "aspects": {
        "language": "1"
      },
      "unique": "true",
      "label": "Érudit : Latin"
    },
    {
      "description": "Un peuple vivait à l'est du lac perdu Fucino. Horace a averti que leur pays était une terre de sorcières. C'était leur langue, appelée par certains \"la langue aride\" et par d'autres \"la langue des sorcières\" [certains livres doivent être traduits avant de pouvoir être lus.]",
      "slots": [
        {
          "actionId": "study",
          "id": "Text",
          "label": "Texte non traduit",
          "required": {
            "textfucine": "1"
          }
        }
      ],
      "id": "scholarfucine",
      "aspects": {
        "language": "1"
      },
      "unique": "true",
      "label": "Érudit : Fucine"
    },
    {
      "description": "Vous connaissez sans doute toutes les variétés de grec, des origines à Byzance. Mais c'est une bonne chose que vous ayez ces ouvrages de référence. [Certains livres doivent être traduits avant de pouvoir être lus.]",
      "slots": [
        {
          "actionId": "study",
          "id": "Text",
          "label": "Texte non traduit",
          "required": {
            "textgreek": "1"
          }
        }
      ],
      "id": "scholargreek",
      "aspects": {
        "language": "1"
      },
      "unique": "true",
      "label": "Érudit : Grec"
    },
    {
      "description": "Les Phrygiens vénéraient la Grande Mère, que nous appelons le Graal. C'est dans leur pays que naquit la Sororité du Nœud, et c'est dans cette langue que la Peau du Tonnerre supplia lors de son ascension. [Certains livres doivent être traduits avant de pouvoir être lus.]",
      "slots": [
        {
          "actionId": "study",
          "id": "Text",
          "label": "Texte non traduit",
          "required": {
            "textphrygian": "1"
          }
        }
      ],
      "id": "scholarphrygian",
      "aspects": {
        "language": "1"
      },
      "unique": "true",
      "label": "Érudit : Phrygien"
    },
    {
      "description": "La langue d'Aram, et tous ses nombreux enfants depuis plus de trois mille ans. [Certains livres doivent être traduits avant de pouvoir être lus.]",
      "slots": [
        {
          "actionId": "study",
          "id": "Text",
          "label": "Texte non traduit",
          "required": {
            "textaramaic": "1"
          }
        }
      ],
      "id": "scholararamaic",
      "aspects": {
        "language": "1"
      },
      "unique": "true",
      "label": "Érudit : Araméen"
    },
    {
      "description": "Le scénario le plus secret des rites les plus intimes des sectes profondes du désert profond. La langue natale, dit-on, de la Mère des Fourmis elle-même. [Certains livres doivent être traduits avant de pouvoir être lus.]",
      "slots": [
        {
          "actionId": "study",
          "id": "Text",
          "label": "Texte non traduit",
          "required": {
            "textmandaic": "1"
          }
        }
      ],
      "id": "scholarmandaic",
      "aspects": {
        "language": "1"
      },
      "unique": "true",
      "label": "Érudit : Mandéen Profond"
    },
    {
      "description": "La langue sacrée du Sous-continent. La porte à quatre mille ans de poésie, de cérémonie et de mystère s'ouvre maintenant devant vous, si vous parvenez à vous débattre avec les circonvolutions de son vocabulaire. [Certains livres doivent être traduits avant de pouvoir être lus]",
      "slots": [
        {
          "actionId": "study",
          "id": "Text",
          "label": "Texte non traduit",
          "required": {
            "textsanskrit": "1"
          }
        }
      ],
      "id": "scholarsanskrit",
      "aspects": {
        "language": "1"
      },
      "unique": "true",
      "label": "Érudit : Sanskrit"
    },
    {
      "description": "Avant que les dieux ne surgissent du sang, avant que le singe ne se tienne debout, c'était la langue entendue dans la Maison du Soleil. [Certains livres doivent être traduits avant de pouvoir être lus.]",
      "slots": [
        {
          "actionId": "study",
          "id": "Text",
          "label": "Texte non traduit",
          "required": {
            "textvak": "1"
          }
        }
      ],
      "id": "scholarvak",
      "aspects": {
        "language": "1"
      },
      "unique": "true",
      "label": "Érudit : Vak"
    },
    {
      "description": "Un moment dans le temps. Dans un instant, il sera passé.",
      "slots": [
        {
          "actionId": "study",
          "id": "with",
          "label": "Avec",
          "required": {
            "influencelantern": "1",
            "influencemoth": "1"
          },
          "description": "Peut-être pourrais-je trouver quelque chose dans mes souvenirs pour renforcer une influence passagère."
        },
        {
          "actionId": "study",
          "id": "knowledge",
          "label": "Connaissance",
          "required": {
            "fragmentmothe": "1",
            "fragmentmothd": "1",
            "fragmentmothg": "1",
            "fragmentmothf": "1",
            "fragmentmothc": "1"
          },
          "description": "Je dois comprendre les influences à l'oeuvre, si je veux pouvoir les renforcer ou les subvertir. [Vous aurez besoin d'une base importante dans les traditions pertinentes.]"
        }
      ],
      "id": "fleeting",
      "aspects": {
        "moth": "2",
        "secrethistories": "2",
        "memory": "1",
        "influence": "1"
      },
      "lifetime": "120",
      "xtriggers": {
        "upgradeinfluence": "influencemothc"
      },
      "label": "Réminiscence Fugace"
    },
    {
      "description": "Je suis heureux, je crois. [Le Contentement défend contre l'Angoisse; mais le Contentement ne dure pas.]",
      "slots": [
        {
          "actionId": "study",
          "id": "with",
          "label": "Avec",
          "required": {
            "influenceforge": "1",
            "influenceheart": "1",
            "influencewinter": "1",
            "influencelantern": "1"
          },
          "description": "Peut-être pourrais-je utiliser mon Contentement pour renforcer une influence positive."
        },
        {
          "actionId": "study",
          "id": "knowledge",
          "label": "Connaissance",
          "required": {
            "fragmentheartc": "1",
            "fragmentheartg": "1",
            "fragmentheartf": "1",
            "fragmenthearte": "1",
            "fragmentheartd": "1"
          },
          "description": "Je dois comprendre les influences à l'oeuvre, si je veux pouvoir les renforcer ou les subvertir. [Vous aurez besoin d'une base importante dans les traditions pertinentes.]"
        }
      ],
      "id": "contentment",
      "aspects": {
        "influence": "1",
        "lantern": "2",
        "heart": "2"
      },
      "lifetime": "60",
      "xtriggers": {
        "upgradeinfluence": "influenceheartc"
      },
      "label": "Contentement"
    },
    {
      "id": "scar_edge",
      "label": "Cicatrice : Expérience brutale",
      "description": "FAUST : Je pense que l'enfer est une fable. MÉPHISTOPHÉLÈS : Ay, pense encore, jusqu'à ce que l'expérience te fasse changer d'avis. [Vous avez fait un sacrifice permanent pour du pouvoir.]",
      "aspects": {
        "scar": "1",
        "edge": "4",
        "tool": "1"
      }
    },
    {
      "id": "scar_knock",
      "label": "Cicatrice : Fistule à moitié guérie",
      "description": "Toutes les portes ne sont pas des blessures, mais toutes les blessures sont des portes. [Vous avez fait un sacrifice permanent pour du pouvoir.]",
      "aspects": {
        "scar": "1",
        "tool": "1",
        "knock": "4"
      }
    },
    {
      "id": "scar_winter",
      "label": "Cicatrice : Vieille blessure",
      "description": "Approchez vous du coucher de soleil et voyez les premières étoiles de la nuit. [Vous avez fait un sacrifice permanent pour du pouvoir.]",
      "aspects": {
        "scar": "1",
        "tool": "1",
        "winter": "4"
      }
    },
    {
      "id": "scar_heart",
      "xtriggers": {
        "ritual": "scar_heart_fatigued",
        "employment": "scar_heart_fatigued",
        "job": "scar_heart_fatigued"
      },
      "label": "Cicatrice : Un Cœur Errant",
      "description": "J'ai tellement de vie en moi. Il est difficile de ne pas bouger. Quand je suis assis, mes articulations picotent. Je sais que si je m'arrête, je risque de m'arrêter pour toujours. [Vous avez fait un sacrifice permanent pour le pouvoir. Attention : contrairement à la Santé, cette carte ne satisfera pas la Maladie ou la Famine.]",
      "aspects": {
        "scar": "1",
        "tool": "1",
        "heart": "4"
      }
    },
    {
      "description": "Mes artères chantent, mes veines brûlent. Je ne peux pas me surpasser plus que ça. [Attendez.]",
      "decayTo": "scar_heart",
      "resaturate": "true",
      "id": "scar_heart_fatigued",
      "lifetime": "60",
      "label": "Cicatrice : Un Cœur Errant (Fatigué)"
    },
    {
      "id": "scar_moth",
      "xtriggers": {
        "ritual": "scar_moth_fatigued",
        "employment": "scar_moth_fatigued",
        "job": "scar_moth_fatigued"
      },
      "label": "Cicatrice : Un Aspect Flexible",
      "description": "J'ai porté tant de déguisements. À chaque nouvelle apparence, il est plus difficile de se souvenir de mon visage d'origine. Même le cartilage s'assouplit quand je suis à fleur de peau. [Vous avez fait un sacrifice permanent pour le pouvoir.]",
      "aspects": {
        "moth": "4",
        "scar": "1",
        "tool": "1"
      }
    },
    {
      "description": "A chaque nouvelle expression, mes traits ondulent comme l'eau. Si je ne fais pas attention, je me dissoudrai entièrement. [Attendez.]",
      "decayTo": "scar_moth",
      "resaturate": "true",
      "id": "scar_moth_fatigued",
      "lifetime": "60",
      "label": "Cicatrice : Un Aspect Flexible (Fatigué)"
    },
    {
      "id": "scar_lantern",
      "label": "Cicatrice : Une Translucidité",
      "description": "Je suis superbe au plus profond de moi. Quand je me penche au bon angle - quand mes vêtements tombent - quand l'œil est vif - ma forme est une révélation parfaite. [Vous avez fait un sacrifice permanent pour du pouvoir.]",
      "aspects": {
        "scar": "1",
        "tool": "1",
        "lantern": "4"
      }
    }
  ]
}