{
  "elements": [
    {
      "id": "ingredientedgeb",
      "label": "Pâte de Martensite",
      "description": "Le saint chrême de l'épée. De plus, elle est d'un beau vert argenté.",
      "aspects": {
        "auctionable": "2",
        "edge": "4",
        "pigment": "1",
        "ingredient": "1"
      }
    },
    {
      "id": "ingredientedged",
      "label": "Grains Labhitiques",
      "description": "Les labhites sont les plus jeunes des serviteurs du Forgeur-de-Lions. Une fois les grains réduits en poudre, ils conservent leur puissance mais pas leur beauté.",
      "aspects": {
        "auctionable": "4",
        "edge": "8",
        "ingredient": "1"
      }
    },
    {
      "id": "ingredientedgef",
      "label": "Croc de Skaptodon",
      "description": "Il est rare pour le Forgeur-de-Lions de fabriquer des skaptodons, de nos jours ; mais ils sont difficiles à tuer, et vivent très longtemps.",
      "aspects": {
        "auctionable": "6",
        "edge": "12",
        "ingredient": "1"
      }
    },
    {
      "id": "ingredientforgeb",
      "label": "Sels Noir-Amers",
      "description": "Aucun chimiste ordinaire ne pourrait produire ces cristaux à l'éclat sombre - pas sans le concours de la Forge.",
      "aspects": {
        "forge": "4",
        "auctionable": "2",
        "pigment": "1",
        "ingredient": "1"
      }
    },
    {
      "id": "ingredientforged",
      "label": "Essence Xanthotique",
      "description": "Dans certaines opérations de la Forge, il est dit que la lumière du soleil l'emporte sur celle de la lune, lorsque nous passons de la Ménisque à la Madrugade. Cette essence était autrefois du mercure, mais à présent c'est l'or riche d'un après-midi d'été. Superbe.",
      "aspects": {
        "forge": "8",
        "auctionable": "4",
        "ingredient": "1"
      }
    },
    {
      "id": "ingredientforgef",
      "label": "Essence Iotique ",
      "description": "Dans les récentes opérations de la Forge, la Madrugade cède à la véritable Forge des Jours, et l'essence commence à rougir.  Un jour, peut-être, elle ne rougira plus, mais pour l'instant nous avons ce résultat. ",
      "aspects": {
        "forge": "12",
        "auctionable": "6",
        "ingredient": "1"
      }
    },
    {
      "id": "ingredientgrailb",
      "label": "Pigment Vital",
      "description": "Il n'est pas habituel qu'un rouge aussi rouge survive à la mort du corps.",
      "aspects": {
        "grail": "4",
        "auctionable": "2",
        "pigment": "1",
        "ingredient": "1"
      }
    },
    {
      "id": "ingredientgraild",
      "label": "Nectar Amaranthin",
      "description": "Un des nombreux cadeaux du Faiseur-de-fleurs. A une époque plus brillante, il aurait pu conférer l'immortalité. Dans cette Histoire malheureuse, il reste une douceur inégalée.",
      "aspects": {
        "grail": "8",
        "auctionable": "4",
        "ingredient": "1"
      }
    },
    {
      "id": "ingredientgrailf",
      "label": "Coiffe Céphalique Tremblante",
      "description": "Posez votre main sur ces plis en lambeaux et sentez leur chaleur ; laissez votre main dessus, et elle explorera les possibilités offertes par une étreinte.",
      "aspects": {
        "grail": "12",
        "auctionable": "6",
        "ingredient": "1"
      }
    },
    {
      "id": "ingredientheartb",
      "label": "Poussière de Perle-de-rose",
      "description": "Les perles sont sacrées pour la Sorcière-et-Sœur, surtout celles de cette couleur. Elles ont été utilisées dans des rituels de protection, entre autres.",
      "aspects": {
        "ingredient": "1",
        "auctionable": "2",
        "pigment": "1",
        "heart": "4"
      }
    },
    {
      "id": "ingredientheartd",
      "label": "Huile des Sorcières",
      "description": "La formule reste inchangée depuis l'époque où Hécate était vénéré aux carrefours.",
      "aspects": {
        "ingredient": "1",
        "auctionable": "4",
        "heart": "8"
      }
    },
    {
      "id": "ingredientheartf",
      "xtriggers": {
        "alzabo": "memory.endless"
      },
      "label": "Vrai sang de Saint-Janvier",
      "description": "La Peau du Tonnerre protégeait celui qu'ils appelaient Janvier, contre les périls de tous les passés. Aujourd'hui encore, son sang continue de danser.",
      "aspects": {
        "ingredient": "1",
        "auctionable": "6",
        "heart": "12",
        "remnant": "1"
      }
    },
    {
      "id": "ingredientknockb",
      "label": "La Teinture Byzantine",
      "description": "Le violet profond ne se porte que dans les Histoires où la teinture Tyrienne n'était pas assez riche pour les empereurs. Il est difficile d'interdire l'accès à une personne portant cette couleur.",
      "aspects": {
        "auctionable": "2",
        "knock": "4",
        "pigment": "1",
        "ingredient": "1"
      }
    },
    {
      "id": "ingredientknockd",
      "label": "Venin Sthénique",
      "description": "De temps en temps, la Mère des Fourmis a également été appelée la Fille des Venins. Cette substance ouvre le corps en d'innombrables points.",
      "aspects": {
        "poison": "2",
        "auctionable": "4",
        "knock": "8",
        "ingredient": "1"
      }
    },
    {
      "id": "ingredientknockf",
      "label": "Azoth",
      "description": "Ne le stockez que dans des récipients faits d'un élément pur, et ne le laissez jamais se réchauffer. Ce n'est peut-être pas le solvant final que les alchimistes recherchaient. Mais il fera l'affaire, pour nos besoins.",
      "aspects": {
        "auctionable": "6",
        "knock": "12",
        "ingredient": "1"
      }
    },
    {
      "id": "ingredientlanternb",
      "label": "Refulgin",
      "description": "Un blanc si pur qu'il reste visible même dans l'obscurité la plus totale.",
      "aspects": {
        "auctionable": "2",
        "lantern": "4",
        "pigment": "1",
        "ingredient": "1"
      }
    },
    {
      "id": "ingredientlanternd",
      "label": "Toxine Doigts-de-verre",
      "description": "\"Ce qui est dedans, dehors ; ce qui est dehors, dedans.\" Un poison sacré pour les élus de la Ménisque.",
      "aspects": {
        "poison": "2",
        "auctionable": "4",
        "lantern": "8",
        "ingredient": "1"
      }
    },
    {
      "id": "ingredientlanternf",
      "label": "Ichor Vitreux",
      "description": "Un fluide pâle et protecteur qui peut être recueilli, parfois, à l'ouverture de la Porte-dans-l'œil.",
      "aspects": {
        "auctionable": "6",
        "lantern": "12",
        "ingredient": "1"
      }
    },
    {
      "id": "ingredientmothb",
      "label": "Pigment Pie",
      "description": "Obtenu à partir des ailes écrasées de rares lépidoptères. \"Peindre en noir ou en blanc, c'est ce qu'il faut faire pour être bien vu.\"",
      "aspects": {
        "moth": "4",
        "auctionable": "2",
        "pigment": "1",
        "ingredient": "1"
      }
    },
    {
      "id": "ingredientmothd",
      "label": "Liqueur de l'Oubli",
      "description": "Une liqueur sombre et sirupeuse très appréciée dans les villages forestiers sans nom. \"La langue et l'œil, et maintenant commençons ! Oublie ton nom, oublie ton croupon.\"",
      "aspects": {
        "moth": "8",
        "auctionable": "4",
        "ingredient": "1"
      }
    },
    {
      "id": "ingredientmothf",
      "xtriggers": {
        "alzabo": "memory.wildering"
      },
      "label": "L'Hémolymphe la plus sainte",
      "description": "Les faibles traces d'une substance énigmatique déversée lors de la perpétration d'un crime ancien, scellées dans une ampoule de verre. \"Qui se souviendra du fils du barbier ?\"",
      "aspects": {
        "moth": "12",
        "remnant": "1",
        "auctionable": "6",
        "ingredient": "1"
      }
    },
    {
      "id": "ingredientwinterb",
      "label": "Huile d'Aube grise",
      "description": "La couleur précise des Heures où l'on ne peut pas dormir.",
      "aspects": {
        "auctionable": "2",
        "winter": "4",
        "pigment": "1",
        "ingredient": "1"
      }
    },
    {
      "id": "ingredientwinterd",
      "label": "Neige-Loup",
      "description": "Bien trop froide pour fondre ailleurs que dans le soleil de midi le plus chaud. Elle consomme, très progressivement, la chair humaine.",
      "aspects": {
        "auctionable": "4",
        "winter": "8",
        "ingredient": "1"
      }
    },
    {
      "id": "ingredientwinterf",
      "label": "Vers-Attentifs",
      "description": "Un minuscule pot de restes larvaires rabougris et desséchés de la Première Guerre des Vers, pleins de la puissance qui habite les Heures mortes.",
      "aspects": {
        "poison": "3",
        "auctionable": "6",
        "winter": "12",
        "ingredient": "1"
      }
    }
  ]
}