{
  "elements": [
    {
      "id": "peril_treacherousground",
      "label": "Terrain Dangereux",
      "description": "Des fosses et des bourbiers et des chutes soudaines. On ne peut pas faire confiance à la terre ici. Nous aurons besoin de mains fortes ou d'une vue claire - Forge ou Lanterne.",
      "aspects": {
        "peril": "1"
      }
    },
    {
      "id": "peril_forest",
      "label": "Forêt aux Périls Rampants",
      "description": "Il y a longtemps, les arbres primitifs s'étendaient d'un océan à l'autre. Quelques traces de leur règne subsistent encore - comme ce territoire dense et étouffant de racines et d'épines. Les aspects pratiques de la Forge ou les mystères du Phalène peuvent nous aider à traverser cette épreuve.",
      "aspects": {
        "peril": "1"
      }
    },
    {
      "id": "peril_mountains",
      "label": "Les Grands Cols",
      "description": "Des pentes sombres et gris-vert attirent l'attention vers de lointains pics enneigés et escarpés... Ce sera un véritable enfer de trouver quelque chose là-dedans. La Forge nous soutiendra, l'Hiver nous protégera.",
      "aspects": {
        "peril": "1"
      }
    },
    {
      "id": "peril_desert",
      "label": "Désolation",
      "description": "Une immense fournaise fauve à peine contenue par ses horizons. La nuit, un désert froid d'étoiles. Nous devons y aller prudemment, avec la Forge pour façonner notre chemin ou le Graal pour nous protéger contre la soif.",
      "aspects": {
        "peril": "1"
      }
    },
    {
      "id": "peril_sea",
      "label": "Une Mer Occidentale",
      "description": "La plupart de ces îles sont bien connues des historiens, mais notre destination se trouve dans des contrées sauvages et inexplorées. Nous aurons besoin de Cœur ou de Forge pour survivre.",
      "aspects": {
        "peril": "1"
      }
    },
    {
      "id": "seal_hiddendoor",
      "label": "Une Porte Dérobée",
      "description": "Les portes cachées peuvent être trouvées avec la Lanterne ou la Clef.",
      "aspects": {
        "seal": "1"
      }
    },
    {
      "id": "seal_wardeddoor",
      "label": "Une Porte Scellée",
      "description": "Un ingénieur, ou un adepte, a veillé à ce que cette porte ne s'ouvre pas facilement. La Forge ou la Clef peuvent la défaire.",
      "aspects": {
        "seal": "1"
      }
    },
    {
      "id": "guardian_serpent",
      "label": "Soeur Cadette",
      "description": "La Mère des Fourmis est née parmi les serpents. Elle a beaucoup de jeunes sœurs. Elles peuvent être vaincues au combat ; ou elles répondront à la puissance de la Mère.",
      "aspects": {
        "guardian": "1"
      }
    },
    {
      "id": "guardian_watchers",
      "label": "Veilleurs",
      "description": "Mortels. Peut-être même des mortels ordinaires. Mais un certain nombre d'entre eux. Ils peuvent être combattus, séduits ou trompés.",
      "aspects": {
        "guardian": "1"
      }
    },
    {
      "id": "guardian_monks",
      "label": "Moines",
      "description": "Des contemplatifs bénis ou condamnés à servir ici. Ils sont liés par leurs vœux étranges. Nous pouvons les assassiner ou les tromper, mais ils ne seront pas séduits.",
      "aspects": {
        "guardian": "1"
      }
    },
    {
      "id": "guardian_dead",
      "label": "Les Morts Fébriles",
      "description": "Tous les morts ne reposent pas en paix. Ceux-là n'aiment pas notre intrusion. Nous pouvons les vaincre avec la Lame; ou ils peuvent obéir à celui qui vient au nom de l'Hiver.",
      "aspects": {
        "guardian": "1"
      }
    },
    {
      "icon": "guardian",
      "id": "guardian_serpent_pre",
      "label": "Soeur Cadette",
      "isAspect": "true",
      "description": "La Mère des Fourmis est née parmi les serpents. Elle a beaucoup de jeunes sœurs. Elles peuvent être vaincues au combat ; ou elles répondront à la puissance de la Mère."
    },
    {
      "description": "Mortels. Peut-être même des mortels ordinaires. Mais un certain nombre d'entre eux. Ils peuvent être combattus, séduits ou trompés.",
      "label": "Veilleurs",
      "id": "guardian_watchers_pre",
      "aspects": {
        "guardian": "1"
      },
      "icon": "guardian",
      "isAspect": "true"
    },
    {
      "description": "Des contemplatifs bénis ou condamnés à servir ici. Ils sont liés par leurs vœux étranges. Nous pouvons les assassiner ou les tromper, mais ils ne seront pas séduits.",
      "label": "Moines",
      "id": "guardian_monks_pre",
      "aspects": {
        "guardian": "1"
      },
      "icon": "guardian",
      "isAspect": "true"
    },
    {
      "description": "Tous les morts ne reposent pas en paix. Ceux-là n'aiment pas notre intrusion. Nous pouvons les vaincre avec la Lame; ou ils peuvent obéir à celui qui vient au nom de l'Hiver.",
      "label": "Les Morts Fébriles",
      "id": "guardian_dead_pre",
      "aspects": {
        "guardian": "1"
      },
      "icon": "guardian",
      "isAspect": "true"
    },
    {
      "id": "guardian_soucouyants",
      "label": "Soucouyants",
      "description": "On pourrait les prendre pour des vieilles femmes, jusqu'à ce qu'elles se débarrassent de leur peau. L'endroit grouille de leur présence. Elles sont fortes comme des racines noueuses, et au moins mi-Éternelles, mais elles peuvent être trompées, et elles craignent beaucoup la lumière.",
      "aspects": {
        "guardian": "1"
      }
    },
    {
      "id": "guardian_long",
      "label": "Éternel",
      "description": "Il est très difficile de tuer quelqu'un qui a passé la Porte Tricuspide. Et il y en a beaucoup, par ici. Mais peut-être pouvons-nous en tromper un, ou profiter de ses appétits.",
      "aspects": {
        "guardian": "1"
      }
    },
    {
      "id": "curse_dread",
      "label": "La Malédiction de L'Âme Sèche",
      "description": "Nous avons besoin de Cœur ou de Lanterne pour supprimer cette malédiction. Sinon, elle ne nous empêchera pas d'atteindre notre but, mais elle pourrait nous troubler plus tard.",
      "aspects": {
        "curse": "1"
      }
    },
    {
      "id": "curse_visions",
      "label": "La Malédiction du Cinquième Œil",
      "description": "Nous avons besoin de Cœur ou de l'Hiver pour supprimer cette malédiction. Sinon, elle ne nous empêchera pas d'atteindre notre but, mais elle pourrait nous troubler plus tard.",
      "aspects": {
        "curse": "1"
      }
    },
    {
      "id": "curse_affliction",
      "label": "La Malédiction du Souffle Traînant",
      "description": "Nous avons besoin de Cœur ou de Graal pour supprimer cette malédiction. Sinon, elle ne nous empêchera pas d'atteindre notre but, mais elle pourrait nous troubler plus tard.",
      "aspects": {
        "curse": "1"
      }
    },
    {
      "id": "curse_nowhere",
      "label": "Les Vers du Monde",
      "description": "Nous avons besoin de Lanterne ou du Phalène pour supprimer cette malédiction. Sinon, elle ne nous empêchera pas d'atteindre notre but, mais elle pourrait nous troubler plus tard.",
      "aspects": {
        "curse": "1"
      }
    }
  ]
}