{
  "recipes": [
    {
      "startdescription": "Le même rêve, encore.",
      "requirements": {
        "apostlelantern.mentor": "1"
      },
      "actionId": "work",
      "id": "ambition.apostlelantern.emitfuel",
      "effects": {
        "apostlelantern.pillarfuel": "1"
      },
      "label": "Une Vision de notre Illuminé"
    },
    {
      "startdescription": "Le Veilleur est ici dans tout son éclat tranchant, mais même lui se tiendra à l'écart pour la Clef des Jours. J'ai fermé la porte dans mon œil, mais je ne peux pas oublier. Mon chemin a été tracé avant que je ne voie la vraie lumière.  Les Témoins et moi sommes préparés - préparés pour que la Gloire entre dans la Mansus par l'autre côté. Les rêves des innocents ne sont pas aussi bien préparés. Des centaines d'âmes ne se réveilleront jamais. Il y a toujours un prix à payer, et il est essentiel que notre Illuminé navigue ; qu'il illumine ; qu'il ne soit pas compatissant.",
      "label": "Et Pourtant, la Porte S'ouvre sur l'Extérieur",
      "requirements": {
        "fragmentmothe": "1",
        "toollanternf": "1",
        "kleidouchos": "1",
        "promise": "1",
        "apostlelantern.pillar3": "1",
        "ingredientlanternf": "1",
        "apostlelantern.pillar4": "1"
      },
      "actionId": "work",
      "id": "work.apostlelantern.majorvictory.postbetrayal",
      "craftable": "true",
      "warmup": "60",
      "ending": "majorlanternvictory",
      "extantreqs": {
        "apostlelantern.mentor": "-1"
      }
    },
    {
      "startdescription": "Le Veilleur est ici dans tout son éclat tranchant, mais même lui se tiendra à l'écart pour la Clef des Jours. Les Témoins et moi sommes préparés - préparés pour que la Gloire entre dans la Mansus par l'autre côté. Les rêves des innocents ne sont pas aussi bien préparés. Des centaines d'âmes ne se réveilleront jamais. Il y a toujours un prix à payer, et il est essentiel que notre Illuminé navigue ; qu'il illumine ; qu'il ne soit pas compatissant.",
      "label": "La Porte S'ouvre sur l'Extérieur",
      "requirements": {
        "fragmentmothe": "1",
        "toollanternf": "1",
        "kleidouchos": "1",
        "promise": "1",
        "apostlelantern.pillar3": "1",
        "ingredientlanternf": "1",
        "apostlelantern.pillar4": "1"
      },
      "actionId": "work",
      "id": "work.apostlelantern.majorvictory",
      "craftable": "true",
      "warmup": "60",
      "ending": "majorlanternvictory",
      "extantreqs": {
        "apostlelantern.mentor": "1"
      }
    },
    {
      "description": "Ici, la lumière bleue de la Mansus s'approfondit et se rapproche du bleu du ciel du soir. Les routes s'étendent dans le brouillard et se perdent, mais ici, à leur croisement, l'ombre du corbeau dans l'ombre du chêne se souvient.",
      "warmup": "60",
      "requirements": {
        "waypeacock": "1",
        "apostlelantern.pillarfuel": "1"
      },
      "actionId": "dream",
      "id": "apostlelantern.createpillar2",
      "effects": {
        "apostlelantern.pillar2": "1",
        "apostlelantern.pillarfuel": "-1"
      },
      "startdescription": "Derrière la Porte du Paon, à l'entrée de la Chambre des Voies, deux routes se croisent à l'ombre d'un chêne.",
      "label": "Localiser le Carrefour"
    },
    {
      "startdescription": "Enfoncer le rêve d'une clef dans le sol meuble du Carrefour. Le baigner de l'éclat le plus vif que nous pourrons rassembler. Qu'est-ce qui va pousser ?",
      "requirements": {
        "apostlelantern.pillar2": "1",
        "apostlelantern.pillarfuel": "1"
      },
      "actionId": "dream",
      "id": "apostlelantern.createpillar3.hint2",
      "hintonly": "true",
      "label": "Planter la Séduisance ?"
    },
    {
      "startdescription": "Quand le rêve de la clef viendra, je l'apporterai au Carrefour.",
      "requirements": {
        "apostlelantern.pillar2": "1"
      },
      "actionId": "dream",
      "id": "apostlelantern.createpillar3.hint1",
      "hintonly": "true",
      "label": "Planter la Séduisance ?"
    },
    {
      "description": "C'est la plus grande illumination dont notre Illuminé a besoin pour la manifestation du Veilleur, mais elle a aussi un autre but. Comme les papillons de nuit par une bougie, comme les poissons par un appât, ainsi les âmes sont attirées par la lumière.",
      "warmup": "60",
      "requirements": {
        "apostlelantern.pillarfuel": "1",
        "influencelanterng": "1",
        "apostlelantern.pillar2": "1"
      },
      "actionId": "dream",
      "id": "apostlelantern.createpillar3",
      "craftable": "true",
      "effects": {
        "apostlelantern.pillarfuel": "-1",
        "apostlelantern.pillar3": "1",
        "influencelanterng": "-1"
      },
      "startdescription": "Enfoncer le rêve d'une clef dans le sol meuble du Carrefour. Le baigner dans la lumière du Veilleur. Un arbre brillant se développera, avec dans ses branches une récolte radieuse.",
      "label": "Planter la Séduisance"
    },
    {
      "startdescription": "L'Allure se fanera... à moins qu'elle ne soit arrosée avec les bonnes couleurs.",
      "requirements": {
        "apostlelantern.pillar3": "1"
      },
      "actionId": "study",
      "id": "apostlelantern.maintainpillar3.hint",
      "hintonly": "true",
      "label": "Entretenir la Séduisance ?"
    },
    {
      "description": "J'ouvre mes mains au-dessus des racines de la Séduisance, là où elle s'accroche au sol. De nouveaux fruits gonflent dans ses branches, et le Carrefour est à nouveau plus pâle.",
      "warmup": "30",
      "requirements": {
        "fascination": "1",
        "apostlelantern.pillar3": "1"
      },
      "actionId": "study",
      "id": "apostlelantern.maintainpillar3",
      "aspects": {
        "renew.apostlelantern.pillar3": "1"
      },
      "craftable": "true",
      "effects": {
        "fascination": "-1"
      },
      "startdescription": "Dans le rêve bleu de la Mansus, il est parfois possible de porter de la lumière dans ses mains en forme de coupe.",
      "label": "Entretenir la Séduisance"
    },
    {
      "startdescription": "Ma Servante conduira l'âme endormie à travers la Porte Blanche, et la portera le long de l'Ascension des Couteaux, jusqu'à ce que ce qu'il en reste voie la Séduisance au Carrefour.",
      "requirements": {
        "spirit_winterd_edge": "1",
        "apostlelantern.pillar3": "1"
      },
      "actionId": "talk",
      "id": "apostlelantern.usepillar3",
      "linked": [
        {
          "id": "apostlelantern.trycreatepillar4"
        }
      ],
      "label": "Envoyer une Servante-dans-le-Miroir pour appâter un Témoin"
    },
    {
      "description": "La Servante s'en va ; le témoin reste, se balançant comme l'ombre de l'arbre, les yeux fixés sur la Séduisance, sa bouche guérissant doucement. Un sur sept. Il ne se réveillera jamais ; cela attirera certainement l'intérêt du Bureau de la Répression.",
      "slots": [
        {
          "id": "pillar4",
          "greedy": "true",
          "label": "Témoins",
          "required": {
            "uqthirdwaywitnesses": "1"
          }
        }
      ],
      "actionId": "talk",
      "id": "apostlelantern.trycreatepillar4",
      "alt": [
        {
          "id": "apostlelantern.upgradepillar4"
        }
      ],
      "warmup": "10",
      "effects": {
        "spirit_winterd_edge": "-1",
        "apostlelantern.pillar4.inprogress1": "1",
        "notoriety": "1"
      },
      "startdescription": "La Servante murmure les éléments les moins importants du Mantra de l'Ascension. Elle pose ses pieds pâles avec précaution sur les pierres de la route : ils ne laissent aucune empreinte. Les pieds du Témoin sont tachés de sang.",
      "label": "Envoyer une Servante-dans-le-Miroir pour appâter un Témoin"
    },
    {
      "description": "La Servante s'en va ; le témoin reste, se balançant comme l'ombre de l'arbre, les yeux fixés sur la Séduisance, sa bouche guérissant doucement .Encore un. Il ne se réveillera jamais ; cela attirera certainement l'intérêt du Bureau de la Répression.",
      "requirements": {
        "uqthirdwaywitnesses": "1"
      },
      "actionId": "talk",
      "id": "apostlelantern.upgradepillar4",
      "aspects": {
        "cloudwitnessesupgrade": "1"
      },
      "effects": {
        "spirit_winterd_edge": "-1",
        "notoriety": "1"
      },
      "startdescription": "La Servante murmure les éléments les moins importants du Mantra de l'Ascension. Elle pose ses pieds pâles avec précaution sur les pierres de la route : ils ne laissent aucune empreinte. Les pieds du Témoin sont tachés de sang.",
      "label": "Envoyer une Servante-dans-le-Miroir pour appâter un Témoin"
    },
    {
      "description": "Parfois, ils me regardent. La plupart du temps, ils regardent la lumière. Je les vois soupirer, je les vois se toucher les uns les autres doucement. Ils sont encore humains. La lumière s'imprègne en eux, et en moi. Peut-être ai-je contribué à maintenir leur attention.",
      "warmup": "60",
      "requirements": {
        "uqthirdwaywitnesses": "1"
      },
      "actionId": "talk",
      "id": "apostlelantern.pillar4.chat",
      "craftable": "true",
      "effects": {
        "fascination": "1"
      },
      "startdescription": "Leurs bouches sont fermées, mais leurs oreilles sont ouvertes.",
      "label": "Parler abec les Témoins"
    },
    {
      "actionId": "talk",
      "id": "apostlelantern.attemptrecruitkleidouchos.sulochana",
      "requirements": {
        "apostlelantern.pillarfuel": "1",
        "sulochana": "1"
      },
      "label": "Demander à Sulochana à propos de la Clef",
      "startdescription": "\"La Clef des Jours\". Sulochana se mordille la lèvre. Ses dents brillent dans la lumière de la lampe. \"Oui, j'ai une sœur concernée. Mais je ne vais pas faire cette présentation. Demandez à quelqu'un de l'autre côté du Bois - quelqu'un qui s'intéresse à la Gloire.\""
    },
    {
      "description": "\"Je connais la Détentrice de la Clef, celle que vous voulez. Je ne lui ai pas parlé depuis longtemps - je ne parle pas souvent aux Ligéiens - mais en tant qu'Immortelle de la Lanterne, je dois la courtoisie à votre mentor. Je vais faire venir votre Détentrice de la Clef.\"",
      "requirements": {
        "spirit_lanterne_secret": "1",
        "apostlelantern.pillarfuel": "1"
      },
      "actionId": "talk",
      "id": "apostlelantern.recruitkleidouchos.teresa",
      "effects": {
        "apostlelantern.pillarfuel": "-1",
        "spirit_lanterne_secret": "-1",
        "kleidouchos.enroute": "1"
      },
      "startdescription": "\"Ainsi, mon compagnon d'ascension a visé encore plus haut, hm ? Il pourrait le regretter.\" Teresa fait tourner la clef imaginaire dans ses mains. \"Un rêve de la Clef des Jours. Le rêve est faux, la Clef est réelle. Mais ni vous ni moi ne pouvons la toucher.\"",
      "label": "Interroger Teresa au sujet du Rêve de la Clef"
    },
    {
      "description": "\"Les occasions de cette nature sont si rares, très rares. Je serais ravie d'assister à l'ascension de votre Immortel, petite marionnette. Dites-moi où. Dites-moi quand. D'ici là, je vais profiter de votre ville.\"",
      "warmup": "30",
      "requirements": {
        "promise": "-1",
        "kleidouchos": "1"
      },
      "actionId": "talk",
      "id": "apostlelantern.persuadekleidouchos",
      "craftable": "true",
      "mutations": [
        {
          "mutate": "promise",
          "filter": "kleidouchos",
          "level": "1"
        }
      ],
      "startdescription": "\"Vous avez besoin de moi pour vous aider avec la Porte Tricuspide, oui, c'est exact ? Dans son mode ultime ? Avec ma Clef des Jours ? Oui, oui, je suis au courant. Je n'aime pas voyager sans être au courant.\"",
      "label": "Parler à la Femme en Noir-et-Blanc"
    },
    {
      "startdescription": "\"Quand vous serez prêt. Prenez votre temps. J'ai encore des peaux à glaner.\"",
      "requirements": {
        "promise": "1",
        "kleidouchos": "1"
      },
      "actionId": "talk",
      "id": "apostlelantern.kleidouchos.persuaded.hint",
      "hintonly": "true",
      "label": "Parler à la Femme en Noir-et-Blanc"
    }
  ]
}