{
  "recipes": [
    {
      "startdescription": "Il doit y avoir une porte ici. Mais sans Lanterne ou Clef, nous ne pouvons pas la découvrir.",
      "slots": [
        {
          "id": "Assistance",
          "label": "Assistance",
          "required": {
            "funds": "1",
            "follower": "1"
          },
          "description": "Les fonds sont essentiels pour les expéditions. Les fidèles, eux, me permettront de franchir les obstacles."
        }
      ],
      "requirements": {
        "seal_hiddendoor": "1"
      },
      "actionId": "explore",
      "id": "explorevaultseal_hiddendoor_encounter",
      "linked": [
        {
          "id": "explorevaultseal_hiddendoor_failure",
          "chance": "100"
        }
      ],
      "craftable": "false",
      "warmup": "30",
      "alternativerecipes": [
        {
          "id": "explorevaultseal_hiddendoor_highlantern",
          "chance": "100"
        },
        {
          "id": "explorevaultseal_hiddendoor_highknock",
          "chance": "100"
        },
        {
          "id": "explorevaultseal_hiddendoor_midlantern",
          "chance": "100"
        },
        {
          "id": "explorevaultseal_hiddendoor_midknock",
          "chance": "100"
        },
        {
          "id": "explorevaultseal_hiddendoor_lowlantern",
          "chance": "100"
        },
        {
          "id": "explorevaultseal_hiddendoor_lowknock",
          "chance": "100"
        }
      ],
      "label": "Une Porte Dérobée"
    },
    {
      "startdescription": "Nous trouverons presque certainement cette Porte Dérobée.",
      "requirements": {
        "lantern": "10"
      },
      "actionId": "explore",
      "id": "explorevaultseal_hiddendoor_highlantern",
      "linked": [
        {
          "id": "explorevaultseal_hiddendoor_success",
          "chance": "90"
        },
        {
          "id": "explorevaultseal_hiddendoor_failure",
          "chance": "100"
        }
      ],
      "description": ".",
      "label": "Nous faisons appel au Veilleur, qui Illumine"
    },
    {
      "startdescription": "Nos sens sont aiguisés. Nous devrions trouver cette Porte Dérobée.",
      "requirements": {
        "lantern": "5"
      },
      "actionId": "explore",
      "id": "explorevaultseal_hiddendoor_midlantern",
      "linked": [
        {
          "id": "explorevaultseal_hiddendoor_success",
          "chance": "70"
        },
        {
          "id": "explorevaultseal_hiddendoor_failure",
          "chance": "100"
        }
      ],
      "description": ".",
      "label": "Nous faisons appel au Veilleur, qui Circule"
    },
    {
      "startdescription": "Nous transportons la lumière. Nous pourrions trouver cette Porte Dérobée. Ce sera difficile.",
      "requirements": {
        "lantern": "1"
      },
      "actionId": "explore",
      "id": "explorevaultseal_hiddendoor_lowlantern",
      "linked": [
        {
          "id": "explorevaultseal_hiddendoor_success",
          "chance": "30"
        },
        {
          "id": "explorevaultseal_hiddendoor_failure",
          "chance": "100"
        }
      ],
      "description": ".",
      "label": "Nous faisons appel au Veilleur, qui n'est pas Compatissant"
    },
    {
      "startdescription": "Nous portons un grand pouvoir d'ouverture. Nous trouverons presque certainement cette Porte Dérobée.",
      "requirements": {
        "knock": "10"
      },
      "actionId": "explore",
      "id": "explorevaultseal_hiddendoor_highknock",
      "linked": [
        {
          "id": "explorevaultseal_hiddendoor_success",
          "chance": "90"
        },
        {
          "id": "explorevaultseal_hiddendoor_failure",
          "chance": "100"
        }
      ],
      "description": ".",
      "label": "Nous faisons appel au Corbeau-Ratisseur, qui voit ce qui est perdu"
    },
    {
      "startdescription": "Nous sommes habiles à découvrir des voies cachées. Nous trouverons probablement cette Porte Dérobée.",
      "requirements": {
        "knock": "5"
      },
      "actionId": "explore",
      "id": "explorevaultseal_hiddendoor_midknock",
      "linked": [
        {
          "id": "explorevaultseal_hiddendoor_success",
          "chance": "70"
        },
        {
          "id": "explorevaultseal_hiddendoor_failure",
          "chance": "100"
        }
      ],
      "description": ".",
      "label": "Nous faisons appel au Corbeau-Ratisseur, qui ouvre la terre"
    },
    {
      "startdescription": "Nous avons une certaine capacité en matière d'ouverture. Nous pourrions trouver cette Porte Dérobée. Ce sera difficile.",
      "requirements": {
        "knock": "1"
      },
      "actionId": "explore",
      "id": "explorevaultseal_hiddendoor_lowknock",
      "linked": [
        {
          "id": "explorevaultseal_hiddendoor_success",
          "chance": "30"
        },
        {
          "id": "explorevaultseal_hiddendoor_failure",
          "chance": "100"
        }
      ],
      "description": ".",
      "label": "Nous faisons appel au Corbeau-Ratisseur, à qui appartient ce qui n'est pas possédé"
    },
    {
      "description": ".",
      "warmup": "30",
      "craftable": "false",
      "actionId": "explore",
      "id": "explorevaultseal_hiddendoor_success",
      "linked": [
        {
          "id": "explorevaulttick",
          "chance": "100"
        }
      ],
      "effects": {
        "seal_hiddendoor": "-1"
      },
      "startdescription": "De fines lignes dans la pierre ; une surface qui cède à la pression. Nous l'avons trouvée ! La Porte Dérobée bouge, accompagnée d'un long grincement et d'une pluie de poussière.",
      "label": "Un Passage par la Porte Dérobée"
    },
    {
      "description": ".",
      "warmup": "30",
      "craftable": "false",
      "actionId": "explore",
      "id": "explorevaultseal_hiddendoor_failure",
      "linked": [
        {
          "id": "explorevaulttick",
          "chance": "100"
        }
      ],
      "startdescription": "Où se trouve-t-elle ? Nous pourrions utiliser plus de Clef, ou de Lanterne.",
      "label": "Une Recherche Infructueuse"
    },
    {
      "startdescription": "Cette porte a tenu bon pendant longtemps. Si nous n'apportons pas de Forge ou de Clef, elle nous résistera aussi.",
      "slots": [
        {
          "id": "Assistance",
          "label": "Assistance",
          "required": {
            "funds": "1",
            "follower": "1"
          },
          "description": "Les fonds sont essentiels pour les expéditions. Les fidèles, eux, me permettront de franchir les obstacles."
        }
      ],
      "requirements": {
        "seal_wardeddoor": "1"
      },
      "actionId": "explore",
      "id": "explorevaultseal_wardeddoor_encounter",
      "linked": [
        {
          "id": "explorevaultseal_wardeddoor_failure",
          "chance": "100"
        }
      ],
      "craftable": "false",
      "warmup": "30",
      "alternativerecipes": [
        {
          "id": "explorevaultseal_wardeddoor_highforge",
          "chance": "100"
        },
        {
          "id": "explorevaultseal_wardeddoor_highknock",
          "chance": "100"
        },
        {
          "id": "explorevaultseal_wardeddoor_midforge",
          "chance": "100"
        },
        {
          "id": "explorevaultseal_wardeddoor_midknock",
          "chance": "100"
        },
        {
          "id": "explorevaultseal_wardeddoor_lowforge",
          "chance": "100"
        },
        {
          "id": "explorevaultseal_wardeddoor_lowknock",
          "chance": "100"
        }
      ],
      "label": "Une Porte Scellée"
    },
    {
      "startdescription": "Nous allons presque certainement briser cette Porte Scellée.",
      "requirements": {
        "forge": "10"
      },
      "actionId": "explore",
      "id": "explorevaultseal_wardeddoor_highforge",
      "linked": [
        {
          "id": "explorevaultseal_wardeddoor_success",
          "chance": "90"
        },
        {
          "id": "explorevaultseal_wardeddoor_failure",
          "chance": "100"
        }
      ],
      "description": ".",
      "label": "Nous faisons appel à la Forge des Jours, qui terminera toutes les nuits"
    },
    {
      "startdescription": "Nos outils sont prêts. Nous devrions être en mesure de pénétrer dans cette Porte Scellée.",
      "requirements": {
        "forge": "5"
      },
      "actionId": "explore",
      "id": "explorevaultseal_wardeddoor_midforge",
      "linked": [
        {
          "id": "explorevaultseal_wardeddoor_success",
          "chance": "70"
        },
        {
          "id": "explorevaultseal_wardeddoor_failure",
          "chance": "100"
        }
      ],
      "description": ".",
      "label": "Nous faisons appel à la Forge des Jours, qui met fin à ce qui ne veut pas changer"
    },
    {
      "startdescription": "Nous sommes prêts avec le feu de la Forge. Nous pourrions être capables de pénétrer cette Porte Scellée. Ce sera difficile.",
      "requirements": {
        "forge": "1"
      },
      "actionId": "explore",
      "id": "explorevaultseal_wardeddoor_lowforge",
      "linked": [
        {
          "id": "explorevaultseal_wardeddoor_success",
          "chance": "30"
        },
        {
          "id": "explorevaultseal_wardeddoor_failure",
          "chance": "100"
        }
      ],
      "description": ".",
      "label": "Nous faisons appel à la Forge des Jours, qui refait avec le feu"
    },
    {
      "startdescription": "Nous portons un grand pouvoir d'ouverture. Nous allons presque certainement briser cette Porte Scellée.",
      "requirements": {
        "knock": "10"
      },
      "actionId": "explore",
      "id": "explorevaultseal_wardeddoor_highknock",
      "linked": [
        {
          "id": "explorevaultseal_wardeddoor_success",
          "chance": "90"
        },
        {
          "id": "explorevaultseal_wardeddoor_failure",
          "chance": "100"
        }
      ],
      "description": ".",
      "label": "Nous appelons la Hache-Cornue, qui attend au seuil"
    },
    {
      "startdescription": "Nous sommes compétents pour ouvrir les voies protégées. Nous allons probablement pénétrer dans cette Porte Scellée.",
      "requirements": {
        "knock": "5"
      },
      "actionId": "explore",
      "id": "explorevaultseal_wardeddoor_midknock",
      "linked": [
        {
          "id": "explorevaultseal_wardeddoor_success",
          "chance": "70"
        },
        {
          "id": "explorevaultseal_wardeddoor_failure",
          "chance": "100"
        }
      ],
      "description": ".",
      "label": "Nous demandons à la Hache-Cornue, qui permet le passage quand le passage doit être autorisé"
    },
    {
      "startdescription": "Nous avons une certaine capacité en matière d'ouverture. Nous pourrions être en mesure de pénétrer dans cette Porte Scellée. Ce sera difficile.",
      "requirements": {
        "knock": "1"
      },
      "actionId": "explore",
      "id": "explorevaultseal_wardeddoor_lowknock",
      "linked": [
        {
          "id": "explorevaultseal_wardeddoor_success",
          "chance": "30"
        },
        {
          "id": "explorevaultseal_wardeddoor_failure",
          "chance": "100"
        }
      ],
      "description": ".",
      "label": "Nous faisons appel à la Hache-Cornue, qui porte deux lames"
    },
    {
      "description": ".",
      "warmup": "30",
      "craftable": "false",
      "actionId": "explore",
      "id": "explorevaultseal_wardeddoor_success",
      "linked": [
        {
          "id": "explorevaulttick",
          "chance": "100"
        }
      ],
      "effects": {
        "seal_wardeddoor": "-1"
      },
      "startdescription": "Toutes les portes doivent s'ouvrir, comme toutes les vies doivent prendre fin. Cette porte a trouvé sa fin ici aujourd'hui.",
      "label": "La Mort d'une Porte"
    },
    {
      "description": ".",
      "warmup": "30",
      "craftable": "false",
      "actionId": "explore",
      "id": "explorevaultseal_wardeddoor_failure",
      "linked": [
        {
          "id": "explorevaulttick",
          "chance": "100"
        }
      ],
      "startdescription": "Les portes ont deux fonctions : ouvrir et rester fermées. Aujourd'hui, cette porte reste fidèle à sa deuxième fonction.",
      "label": "Les Objectifs des Portes"
    }
  ]
}