{
  "recipes": [
    {
      "startdescription": "Boue collante, crevasses sournoises : la terre a faim. Nous avons besoin de la Lanterne pour nous montrer un chemin, ou de la Forge pour en faire un.",
      "slots": [
        {
          "id": "Assistance",
          "label": "Assistance",
          "required": {
            "funds": "1",
            "follower": "1"
          },
          "description": "Les fonds sont essentiels pour les expéditions. Les fidèles, eux, me permettront de franchir les obstacles."
        }
      ],
      "requirements": {
        "peril_treacherousground": "1"
      },
      "actionId": "explore",
      "id": "explorevaultperil_treacherousground_encounter",
      "linked": [
        {
          "id": "explorevaultperil_treacherousground_failure",
          "chance": "100"
        }
      ],
      "craftable": "false",
      "warmup": "30",
      "alternativerecipes": [
        {
          "id": "explorevaultperil_treacherousground_highlantern",
          "chance": "100"
        },
        {
          "id": "explorevaultperil_treacherousground_highforge",
          "chance": "100"
        },
        {
          "id": "explorevaultperil_treacherousground_midlantern",
          "chance": "100"
        },
        {
          "id": "explorevaultperil_treacherousground_midforge",
          "chance": "100"
        },
        {
          "id": "explorevaultperil_treacherousground_lowlantern",
          "chance": "100"
        },
        {
          "id": "explorevaultperil_treacherousground_lowforge",
          "chance": "100"
        }
      ],
      "label": "Terrain Traître"
    },
    {
      "startdescription": "Le Veilleur nous dégagera la vue, de sorte que nous pourrons presque certainement passer sans erreur.",
      "requirements": {
        "lantern": "10"
      },
      "actionId": "explore",
      "id": "explorevaultperil_treacherousground_highlantern",
      "linked": [
        {
          "id": "explorevaultperil_treacherousground_success",
          "chance": "90"
        },
        {
          "id": "explorevaultperil_treacherousground_failure",
          "chance": "100"
        }
      ],
      "description": ".",
      "label": "Nous faisons appel au Veilleur, qui navigue"
    },
    {
      "startdescription": "Le Gardien donnera de la vertu à nos lampes, afin qu'elles nous montrent les périls à éviter. Probablement.",
      "requirements": {
        "lantern": "5"
      },
      "actionId": "explore",
      "id": "explorevaultperil_treacherousground_midlantern",
      "linked": [
        {
          "id": "explorevaultperil_treacherousground_success",
          "chance": "70"
        },
        {
          "id": "explorevaultperil_treacherousground_failure",
          "chance": "100"
        }
      ],
      "description": ".",
      "label": "Nous faisons appel au Veilleur, qui illumine"
    },
    {
      "startdescription": "Le Veilleur ne fait preuve de pitié ni envers nos obstacles ni envers nous. Si nous avons de la chance, nous pouvons nous en sortir.",
      "requirements": {
        "lantern": "1"
      },
      "actionId": "explore",
      "id": "explorevaultperil_treacherousground_lowlantern",
      "linked": [
        {
          "id": "explorevaultperil_treacherousground_success",
          "chance": "30"
        },
        {
          "id": "explorevaultperil_treacherousground_failure",
          "chance": "100"
        }
      ],
      "description": ".",
      "label": "Nous faisons appel au Veilleur, qui n'est pas compatissant"
    },
    {
      "startdescription": "Nous invoquons la Madrugade, une Heure de la Forge aussi bien que de l'Hiver. Nous nous fraierons notre propre chemin. Le succès est presque certain.",
      "requirements": {
        "forge": "10"
      },
      "actionId": "explore",
      "id": "explorevaultperil_treacherousground_highforge",
      "linked": [
        {
          "id": "explorevaultperil_treacherousground_success",
          "chance": "90"
        },
        {
          "id": "explorevaultperil_treacherousground_failure",
          "chance": "100"
        }
      ],
      "description": ".",
      "label": "Nous faisons appel à la Madrugade, qui ne peut être déséquilibrée"
    },
    {
      "startdescription": "La Madrugade est une Heure de la Forge aussi bien que de l'Hiver. Son pouvoir pourrait calmer la terre instable. Nous nous en sortirons probablement.",
      "requirements": {
        "forge": "5"
      },
      "actionId": "explore",
      "id": "explorevaultperil_treacherousground_midforge",
      "linked": [
        {
          "id": "explorevaultperil_treacherousground_success",
          "chance": "70"
        },
        {
          "id": "explorevaultperil_treacherousground_failure",
          "chance": "100"
        }
      ],
      "description": ".",
      "label": "Nous faisons appel à la Madrugade, qui réprime et calme"
    },
    {
      "startdescription": "La Madrugade est une Heure de la Forge aussi bien que de l'Hiver. La Forge donne de la force, mais maintenant les brouillards se lèvent et s'accrochent. Nous pourrions nous en sortir.",
      "requirements": {
        "forge": "1"
      },
      "actionId": "explore",
      "id": "explorevaultperil_treacherousground_lowforge",
      "linked": [
        {
          "id": "explorevaultperil_treacherousground_success",
          "chance": "30"
        },
        {
          "id": "explorevaultperil_treacherousground_failure",
          "chance": "100"
        }
      ],
      "description": ".",
      "label": "Nous faisons appel à la Madrugade, qui vient avant le Soleil"
    },
    {
      "description": ".",
      "warmup": "30",
      "craftable": "false",
      "actionId": "explore",
      "id": "explorevaultperil_treacherousground_success",
      "linked": [
        {
          "id": "explorevaulttick",
          "chance": "100"
        }
      ],
      "effects": {
        "peril_treacherousground": "-1"
      },
      "startdescription": "Nous sommes éclaboussés de boue et éraflés par les épines, mais nous avons réussi à nous en sortir.",
      "label": "En Sécurité au-delà du Terrain Traitre"
    },
    {
      "description": ".",
      "alternativerecipes": [
        {
          "id": "explorevault_casualty",
          "additional": "true",
          "expulsion": {
            "filter": {
              "follower": "1"
            },
            "limit": "1"
          },
          "chance": "70"
        }
      ],
      "warmup": "30",
      "craftable": "false",
      "actionId": "explore",
      "id": "explorevaultperil_treacherousground_failure",
      "linked": [
        {
          "id": "explorevaulttick",
          "chance": "100"
        }
      ],
      "startdescription": "Une voie prometteuse se révèle être un piège boueux. Il faudra faire le tour et réessayer.",
      "label": "La Terre est Affamée"
    },
    {
      "startdescription": "L'obscurité sous les arbres est calme, pour l'instant, mais nous ne sommes pas seuls ici. L'aspect du Phalène nous guidera, ou l'aspect de la Forge nous ouvrira un chemin.",
      "slots": [
        {
          "id": "Assistance",
          "label": "Assistance",
          "required": {
            "funds": "1",
            "follower": "1"
          },
          "description": "Les fonds sont essentiels pour les expéditions. Les fidèles, eux, me permettront de franchir les obstacles."
        }
      ],
      "requirements": {
        "peril_forest": "1"
      },
      "actionId": "explore",
      "id": "explorevaultperil_forest_encounter",
      "linked": [
        {
          "id": "explorevaultperil_forest_failure",
          "chance": "100"
        }
      ],
      "craftable": "false",
      "warmup": "30",
      "alternativerecipes": [
        {
          "id": "explorevaultperil_forest_highmoth",
          "chance": "100"
        },
        {
          "id": "explorevaultperil_forest_highforge",
          "chance": "100"
        },
        {
          "id": "explorevaultperil_forest_midmoth",
          "chance": "100"
        },
        {
          "id": "explorevaultperil_forest_midforge",
          "chance": "100"
        },
        {
          "id": "explorevaultperil_forest_lowmoth",
          "chance": "100"
        },
        {
          "id": "explorevaultperil_forest_lowforge",
          "chance": "100"
        }
      ],
      "label": "Une Forêt de Périls Rampants"
    },
    {
      "startdescription": "Le Bois sous la Mansus est encore plus sombre que cet endroit. Le Phalène guidera nos pas. Le succès est très probable.",
      "requirements": {
        "moth": "10"
      },
      "actionId": "explore",
      "id": "explorevaultperil_forest_highmoth",
      "linked": [
        {
          "id": "explorevaultperil_forest_success",
          "chance": "90"
        },
        {
          "id": "explorevaultperil_forest_failure",
          "chance": "100"
        }
      ],
      "description": ".",
      "label": "Nous faisons appel au Phalène, qui cherche parmi les arbres du Bois"
    },
    {
      "startdescription": "Les ombres parsèment le chemin. Peut-être que le chemin est celui que le Phalène nous a donné. C'est probablement le cas. Nous allons probablement nous en sortir.",
      "requirements": {
        "moth": "5"
      },
      "actionId": "explore",
      "id": "explorevaultperil_forest_midmoth",
      "linked": [
        {
          "id": "explorevaultperil_forest_success",
          "chance": "70"
        },
        {
          "id": "explorevaultperil_forest_failure",
          "chance": "100"
        }
      ],
      "description": ".",
      "label": "Nous faisons appel au Phalène, qui est tacheté"
    },
    {
      "startdescription": "Nous invoquons le Phalène à nos risques et périls. La forêt palpite d'ailes, et d'yeux imaginaires. Nous pourrions nous en sortir.",
      "requirements": {
        "moth": "1"
      },
      "actionId": "explore",
      "id": "explorevaultperil_forest_lowmoth",
      "linked": [
        {
          "id": "explorevaultperil_forest_success",
          "chance": "30"
        },
        {
          "id": "explorevaultperil_forest_failure",
          "chance": "100"
        }
      ],
      "description": ".",
      "label": "Nous faisons appel au Phalène, qui pulse dans le crâne"
    },
    {
      "startdescription": "La Forge est ingénieuse, la Forge est impitoyable. Nous nous en sortirons presque certainement.",
      "requirements": {
        "forge": "10"
      },
      "actionId": "explore",
      "id": "explorevaultperil_forest_highforge",
      "linked": [
        {
          "id": "explorevaultperil_forest_success",
          "chance": "90"
        },
        {
          "id": "explorevaultperil_forest_failure",
          "chance": "100"
        }
      ],
      "description": ".",
      "label": "Acier et Feu"
    },
    {
      "startdescription": "La forêt nous enveloppe, mais nous sommes des âmes pragmatiques, fortes en Forge. Nous nous en sortirons sans doute.",
      "requirements": {
        "forge": "5"
      },
      "actionId": "explore",
      "id": "explorevaultperil_forest_midforge",
      "linked": [
        {
          "id": "explorevaultperil_forest_success",
          "chance": "70"
        },
        {
          "id": "explorevaultperil_forest_failure",
          "chance": "100"
        }
      ],
      "description": ".",
      "label": "Hache et Lampe"
    },
    {
      "startdescription": "Nous invoquons les pouvoirs de la Forge et nous frayons un chemin à travers les arbres. C'est difficile. Nous pourrions y arriver.",
      "requirements": {
        "forge": "1"
      },
      "actionId": "explore",
      "id": "explorevaultperil_forest_lowforge",
      "linked": [
        {
          "id": "explorevaultperil_forest_success",
          "chance": "30"
        },
        {
          "id": "explorevaultperil_forest_failure",
          "chance": "100"
        }
      ],
      "description": ".",
      "label": "Difficultés au Crépuscule"
    },
    {
      "description": ".",
      "warmup": "30",
      "craftable": "false",
      "actionId": "explore",
      "id": "explorevaultperil_forest_success",
      "linked": [
        {
          "id": "explorevaulttick",
          "chance": "100"
        }
      ],
      "effects": {
        "peril_forest": "-1"
      },
      "startdescription": "Il y a quelque chose devant nous. Nous avons réussi à traverser la forêt.",
      "label": "\"Une Lumière à Travers les Arbres...\""
    },
    {
      "description": ".",
      "alternativerecipes": [
        {
          "id": "explorevault_casualty",
          "additional": "true",
          "expulsion": {
            "filter": {
              "follower": "1"
            },
            "limit": "1"
          },
          "chance": "70"
        }
      ],
      "warmup": "30",
      "craftable": "false",
      "actionId": "explore",
      "id": "explorevaultperil_forest_failure",
      "linked": [
        {
          "id": "explorevaulttick",
          "chance": "100"
        }
      ],
      "startdescription": "Nous avons perdu le chemin. La forêt se dresse contre le ciel crépusculaire. Les bêtes de la forêt sont silencieuses, mais de temps en temps nous voyons leurs yeux.",
      "label": "L'Épaississement du Silence"
    },
    {
      "startdescription": "Des pics sauvages balafrent le ciel. L'aspect de l'Hiver pourrait nous préserver du froid, et l'aspect de la Forge pourrait nous donner un chemin. Si nous n'avons ni l'un ni l'autre, notre expédition échouera.",
      "slots": [
        {
          "id": "Assistance",
          "label": "Assistance",
          "required": {
            "funds": "1",
            "follower": "1"
          },
          "description": "Les fonds sont essentiels pour les expéditions. Les fidèles, eux, me permettront de franchir les obstacles."
        }
      ],
      "requirements": {
        "peril_mountains": "1"
      },
      "actionId": "explore",
      "id": "explorevaultperil_mountains_encounter",
      "linked": [
        {
          "id": "explorevaultperil_mountains_failure",
          "chance": "100"
        }
      ],
      "craftable": "false",
      "warmup": "30",
      "alternativerecipes": [
        {
          "id": "explorevaultperil_mountains_highwinter",
          "chance": "100"
        },
        {
          "id": "explorevaultperil_mountains_highforge",
          "chance": "100"
        },
        {
          "id": "explorevaultperil_mountains_midwinter",
          "chance": "100"
        },
        {
          "id": "explorevaultperil_mountains_midforge",
          "chance": "100"
        },
        {
          "id": "explorevaultperil_mountains_lowwinter",
          "chance": "100"
        },
        {
          "id": "explorevaultperil_mountains_lowforge",
          "chance": "100"
        }
      ],
      "label": "Les Hauts Cols"
    },
    {
      "startdescription": "L'Heure appelée la Madrugade est dans son élément dans le froid. Elle nous empêchera presque certainement de tomber.",
      "requirements": {
        "winter": "10"
      },
      "actionId": "explore",
      "id": "explorevaultperil_mountains_highwinter",
      "linked": [
        {
          "id": "explorevaultperil_mountains_success",
          "chance": "90"
        },
        {
          "id": "explorevaultperil_mountains_failure",
          "chance": "100"
        }
      ],
      "description": ".",
      "label": "Nous faisons appel à la Madrugade, qui ne peut être déséquilibrée"
    },
    {
      "startdescription": "La Madrugade est puissante en Hiver. Elle nous protégera probablement des avalanches.",
      "requirements": {
        "winter": "5"
      },
      "actionId": "explore",
      "id": "explorevaultperil_mountains_midwinter",
      "linked": [
        {
          "id": "explorevaultperil_mountains_success",
          "chance": "70"
        },
        {
          "id": "explorevaultperil_mountains_failure",
          "chance": "100"
        }
      ],
      "description": ".",
      "label": "Nous faisons appel à la Madrugade, qui réprime et calme"
    },
    {
      "startdescription": "Les heures qui précèdent l'aube sont sacrées pour l'Heure appelée Madrugade, qui connaît l'Hiver. Si nous nous levons à ce moment-là et l'invoquons, peut-être nous gardera-t-elle en sécurité.",
      "requirements": {
        "winter": "1"
      },
      "actionId": "explore",
      "id": "explorevaultperil_mountains_lowwinter",
      "linked": [
        {
          "id": "explorevaultperil_mountains_success",
          "chance": "30"
        },
        {
          "id": "explorevaultperil_mountains_failure",
          "chance": "100"
        }
      ],
      "description": ".",
      "label": "Nous faisons appel à la Madrugade, qui vient avant le Soleil"
    },
    {
      "startdescription": "Nos compétences en Forge constituent une grande expertise. Nous nous en sortirons presque certainement.",
      "requirements": {
        "forge": "10"
      },
      "actionId": "explore",
      "id": "explorevaultperil_mountains_highforge",
      "linked": [
        {
          "id": "explorevaultperil_mountains_success",
          "chance": "90"
        },
        {
          "id": "explorevaultperil_mountains_failure",
          "chance": "100"
        }
      ],
      "description": ".",
      "label": "La Route du Montagnard"
    },
    {
      "startdescription": "Nous sommes des âmes pragmatiques, fortes en Forge. Nous nous en sortirons sans doute.",
      "requirements": {
        "forge": "5"
      },
      "actionId": "explore",
      "id": "explorevaultperil_mountains_midforge",
      "linked": [
        {
          "id": "explorevaultperil_mountains_success",
          "chance": "70"
        },
        {
          "id": "explorevaultperil_mountains_failure",
          "chance": "100"
        }
      ],
      "description": ".",
      "label": "La Route de l'Explorateur"
    },
    {
      "startdescription": "Les adeptes de la Forge sont compétents et pragmatiques, mais les montagnes sont constituées de kilomètres de rochers gelés. Notre route est difficile. Nous pourrions avoir de la chance.",
      "requirements": {
        "forge": "1"
      },
      "actionId": "explore",
      "id": "explorevaultperil_mountains_lowforge",
      "linked": [
        {
          "id": "explorevaultperil_mountains_success",
          "chance": "30"
        },
        {
          "id": "explorevaultperil_mountains_failure",
          "chance": "100"
        }
      ],
      "description": ".",
      "label": "La Route du Voyageur"
    },
    {
      "description": ".",
      "warmup": "30",
      "craftable": "false",
      "actionId": "explore",
      "id": "explorevaultperil_mountains_success",
      "linked": [
        {
          "id": "explorevaulttick",
          "chance": "100"
        }
      ],
      "effects": {
        "peril_mountains": "-1"
      },
      "startdescription": "Gelés et frissonnants, nous avons réussi à traverser les montagnes.",
      "label": "A Travers les Hauts Cols"
    },
    {
      "description": ".",
      "alternativerecipes": [
        {
          "id": "explorevault_casualty",
          "additional": "true",
          "expulsion": {
            "filter": {
              "follower": "1"
            },
            "limit": "1"
          },
          "chance": "70"
        }
      ],
      "warmup": "30",
      "craftable": "false",
      "actionId": "explore",
      "id": "explorevaultperil_mountains_failure",
      "linked": [
        {
          "id": "explorevaulttick",
          "chance": "100"
        }
      ],
      "startdescription": "Les éboulements et les avalanches nous repoussent. Nous essayerons une autre route, si nous survivons.",
      "label": "Échos Furieux"
    },
    {
      "startdescription": "Une immense fournaise fauve à peine contenue par ses horizons. La nuit, un désert froid d'étoiles. Nous devons y aller prudemment, avec la Forge pour façonner notre chemin ou le Graal pour nous protéger contre la soif.",
      "slots": [
        {
          "id": "Assistance",
          "label": "Assistance",
          "required": {
            "funds": "1",
            "follower": "1"
          },
          "description": "Les fonds sont essentiels pour les expéditions. Les fidèles, eux, me permettront de franchir les obstacles."
        }
      ],
      "requirements": {
        "peril_desert": "1"
      },
      "actionId": "explore",
      "id": "explorevaultperil_desert_encounter",
      "linked": [
        {
          "id": "explorevaultperil_desert_failure",
          "chance": "100"
        }
      ],
      "craftable": "false",
      "warmup": "30",
      "alternativerecipes": [
        {
          "id": "explorevaultperil_desert_highgrail",
          "chance": "100"
        },
        {
          "id": "explorevaultperil_desert_highforge",
          "chance": "100"
        },
        {
          "id": "explorevaultperil_desert_midgrail",
          "chance": "100"
        },
        {
          "id": "explorevaultperil_desert_midforge",
          "chance": "100"
        },
        {
          "id": "explorevaultperil_desert_lowgrail",
          "chance": "100"
        },
        {
          "id": "explorevaultperil_desert_lowforge",
          "chance": "100"
        }
      ],
      "label": "Désolation"
    },
    {
      "startdescription": "La Sœur-et-Sorcière devraient nous voir en sécurité à travers les endroits secs.",
      "requirements": {
        "grail": "10"
      },
      "actionId": "explore",
      "id": "explorevaultperil_desert_highgrail",
      "linked": [
        {
          "id": "explorevaultperil_desert_success",
          "chance": "90"
        },
        {
          "id": "explorevaultperil_desert_failure",
          "chance": "100"
        }
      ],
      "description": ".",
      "label": "Nous faisons appel à la Sœur-et-Sorcière, qui sont telles une perle"
    },
    {
      "startdescription": "Nous ferons appel à la Sœur-et-Sorcière pour nous protéger de la chaleur brûlante du soleil et des miroirs de l'horizon. Elles devraient nous aider à traverser.",
      "requirements": {
        "grail": "5"
      },
      "actionId": "explore",
      "id": "explorevaultperil_desert_midgrail",
      "linked": [
        {
          "id": "explorevaultperil_desert_success",
          "chance": "70"
        },
        {
          "id": "explorevaultperil_desert_failure",
          "chance": "100"
        }
      ],
      "description": ".",
      "label": "Nous faisons appel à la Sœur-et-Sorcière, qui ne peuvent être touchées"
    },
    {
      "startdescription": "Nous ferons appel à la Sœur-et-Sorcière pour nous maintenir ensemble à travers les tempêtes de poussière de la terre aride. Cela pourrait être suffisant.",
      "requirements": {
        "grail": "1"
      },
      "actionId": "explore",
      "id": "explorevaultperil_desert_lowgrail",
      "linked": [
        {
          "id": "explorevaultperil_desert_success",
          "chance": "30"
        },
        {
          "id": "explorevaultperil_desert_failure",
          "chance": "100"
        }
      ],
      "description": ".",
      "label": "Nous faisons appel à la Sœur-et-Sorcière, qui ne peuvent être séparées"
    },
    {
      "startdescription": "Nos compétences en Forge devraient nous garder en sécurité et nous conduire à travers les rochers cuisants vers les endroits verts. Nous nous en sortirons presque certainement.",
      "requirements": {
        "forge": "10"
      },
      "actionId": "explore",
      "id": "explorevaultperil_desert_highforge",
      "linked": [
        {
          "id": "explorevaultperil_desert_success",
          "chance": "90"
        },
        {
          "id": "explorevaultperil_desert_failure",
          "chance": "100"
        }
      ],
      "description": ".",
      "label": "La Route Brûlée par le Soleil"
    },
    {
      "startdescription": "Nous sommes des âmes pragmatiques, fortes en Forge. Nous devrions être capables de passer entre les pierres brûlantes pour aller dans les endroits verts.",
      "requirements": {
        "forge": "5"
      },
      "actionId": "explore",
      "id": "explorevaultperil_desert_midforge",
      "linked": [
        {
          "id": "explorevaultperil_desert_success",
          "chance": "70"
        },
        {
          "id": "explorevaultperil_desert_failure",
          "chance": "100"
        }
      ],
      "description": ".",
      "label": "La Route Aride"
    },
    {
      "startdescription": "Les adeptes de la Forge sont compétents et pragmatiques, mais c'est un endroit mal famé. Nous pourrions nous en sortir.",
      "requirements": {
        "forge": "1"
      },
      "actionId": "explore",
      "id": "explorevaultperil_desert_lowforge",
      "linked": [
        {
          "id": "explorevaultperil_desert_success",
          "chance": "30"
        },
        {
          "id": "explorevaultperil_desert_failure",
          "chance": "100"
        }
      ],
      "description": ".",
      "label": "La Route sans Pitié"
    },
    {
      "description": ".",
      "warmup": "30",
      "craftable": "false",
      "actionId": "explore",
      "id": "explorevaultperil_desert_success",
      "linked": [
        {
          "id": "explorevaulttick",
          "chance": "100"
        }
      ],
      "effects": {
        "peril_desert": "-1"
      },
      "startdescription": "Le soleil se couche. Nous nous retournons sur la désolation que nous avons traversée, et sur toutes les couleurs qu'elle prend dans la lumière du soir. La nuit tombe. Les étoiles scintillent. Le vent presse ses mains froides sur nos visages. En avant.",
      "label": "Le Soleil"
    },
    {
      "description": ".",
      "alternativerecipes": [
        {
          "id": "explorevault_casualty",
          "additional": "true",
          "expulsion": {
            "filter": {
              "follower": "1"
            },
            "limit": "1"
          },
          "chance": "70"
        }
      ],
      "warmup": "30",
      "craftable": "false",
      "actionId": "explore",
      "id": "explorevaultperil_desert_failure",
      "linked": [
        {
          "id": "explorevaulttick",
          "chance": "100"
        }
      ],
      "startdescription": "Jour après jour, le soleil tend notre peau, assèche notre bouche, inonde notre crâne d'une lumière sauvage. Nous pourrions être perdus. Il est possible que nous soyons perdus.",
      "label": "Le Soleil en Furie"
    },
    {
      "startdescription": "La mer dans laquelle nous naviguons est assaillie par les tempêtes. Les îles que nous recherchons sont nichées dans les recoins d'une histoire non cartographiée. Nous aurons besoin de Cœur ou de Forge ou des deux.",
      "slots": [
        {
          "id": "Assistance",
          "label": "Assistance",
          "required": {
            "funds": "1",
            "follower": "1"
          },
          "description": "Les fonds sont essentiels pour les expéditions. Les fidèles, eux, me permettront de franchir les obstacles."
        }
      ],
      "requirements": {
        "peril_sea": "1"
      },
      "actionId": "explore",
      "id": "explorevaultperil_sea_encounter",
      "linked": [
        {
          "id": "explorevaultperil_sea_failure",
          "chance": "100"
        }
      ],
      "craftable": "false",
      "warmup": "30",
      "alternativerecipes": [
        {
          "id": "explorevaultperil_sea_highheart",
          "chance": "100"
        },
        {
          "id": "explorevaultperil_sea_highforge",
          "chance": "100"
        },
        {
          "id": "explorevaultperil_sea_midheart",
          "chance": "100"
        },
        {
          "id": "explorevaultperil_sea_midforge",
          "chance": "100"
        },
        {
          "id": "explorevaultperil_sea_lowheart",
          "chance": "100"
        },
        {
          "id": "explorevaultperil_sea_lowforge",
          "chance": "100"
        }
      ],
      "label": "La Mer autour des Îles du Soir"
    },
    {
      "startdescription": "Les tempêtes se lèvent pour la Peau-du-Tonnerre et s'apaisent pour la Sœur. Les mots justes devraient nous porter en toute sécurité à travers la mer.",
      "requirements": {
        "heart": "10"
      },
      "actionId": "explore",
      "id": "explorevaultperil_sea_highheart",
      "linked": [
        {
          "id": "explorevaultperil_sea_success",
          "chance": "90"
        },
        {
          "id": "explorevaultperil_sea_failure",
          "chance": "100"
        }
      ],
      "description": ".",
      "label": "Nous faisons appel à la Sœur-et-Sorcière, qui ne peuvent être touchées"
    },
    {
      "startdescription": "Si une tempête éclate, le Sœur-et-Sorcière gardera notre équipage et notre navire en un seul morceau. Probablement.",
      "requirements": {
        "heart": "5"
      },
      "actionId": "explore",
      "id": "explorevaultperil_sea_midheart",
      "linked": [
        {
          "id": "explorevaultperil_sea_success",
          "chance": "70"
        },
        {
          "id": "explorevaultperil_sea_failure",
          "chance": "100"
        }
      ],
      "description": ".",
      "label": "Nous faisons appel à la Sœur-et-Sorcière, qui ne peuvent être séparées"
    },
    {
      "startdescription": "La Sœur-et-Sorcière ne sont pas de la mer, mais elles marchent à côté d'elle. Peut-être que leur protection sera suffisante.",
      "requirements": {
        "heart": "1"
      },
      "actionId": "explore",
      "id": "explorevaultperil_sea_lowheart",
      "linked": [
        {
          "id": "explorevaultperil_sea_success",
          "chance": "30"
        },
        {
          "id": "explorevaultperil_sea_failure",
          "chance": "100"
        }
      ],
      "description": ".",
      "label": "Nous faisons appel à la Sœur-et-Sorcière, qui sont telles une perle"
    },
    {
      "startdescription": "Nos compétences en Forge constituent une grande expertise. Nous nous en sortirons presque certainement.",
      "requirements": {
        "forge": "10"
      },
      "actionId": "explore",
      "id": "explorevaultperil_sea_highforge",
      "linked": [
        {
          "id": "explorevaultperil_sea_success",
          "chance": "90"
        },
        {
          "id": "explorevaultperil_sea_failure",
          "chance": "100"
        }
      ],
      "description": ".",
      "label": "La Caution du Marin"
    },
    {
      "startdescription": "Nous sommes des âmes pragmatiques, fortes en Forge. Nous nous en sortirons sans doute.",
      "requirements": {
        "forge": "5"
      },
      "actionId": "explore",
      "id": "explorevaultperil_sea_midforge",
      "linked": [
        {
          "id": "explorevaultperil_sea_success",
          "chance": "70"
        },
        {
          "id": "explorevaultperil_sea_failure",
          "chance": "100"
        }
      ],
      "description": ".",
      "label": "La Force du Marin"
    },
    {
      "startdescription": "Les adeptes de la Forge sont compétents et pragmatiques, mais la mer est rusée. Nous aurons du mal à maintenir le cap.",
      "requirements": {
        "forge": "1"
      },
      "actionId": "explore",
      "id": "explorevaultperil_sea_lowforge",
      "linked": [
        {
          "id": "explorevaultperil_sea_success",
          "chance": "30"
        },
        {
          "id": "explorevaultperil_sea_failure",
          "chance": "100"
        }
      ],
      "description": ".",
      "label": "L'Espoir du Marin"
    },
    {
      "description": ".",
      "warmup": "30",
      "craftable": "false",
      "actionId": "explore",
      "id": "explorevaultperil_sea_success",
      "linked": [
        {
          "id": "explorevaulttick",
          "chance": "100"
        }
      ],
      "effects": {
        "peril_sea": "-1"
      },
      "startdescription": "Eclaboussés par les vagues et la mer, brûlés par le soleil et tachés par le sel. Mais nous sommes arrivés.",
      "label": "En Sécurité à travers la Mer"
    },
    {
      "description": ".",
      "alternativerecipes": [
        {
          "id": "explorevault_casualty",
          "additional": "true",
          "expulsion": {
            "filter": {
              "follower": "1"
            },
            "limit": "1"
          },
          "chance": "70"
        }
      ],
      "warmup": "30",
      "craftable": "false",
      "actionId": "explore",
      "id": "explorevaultperil_sea_failure",
      "linked": [
        {
          "id": "explorevaulttick",
          "chance": "100"
        }
      ],
      "startdescription": "Un autre jour battu par les tempêtes. Nous devons être proches. Mais les îles sont un labyrinthe exaspérant, et les endroits que nous cherchons ne figurent sur aucune carte publiée.",
      "label": "Labyrinthes de Sel et de Basalte"
    }
  ]
}