{
  "recipes": [
    {
      "startdescription": "La ville regorge de journalistes, de détectives et d'autres personnes qui se mêlent de tout. Combien de temps vont-ils me laisser en paix ?",
      "slots": [
        {
          "id": "Suspicion",
          "greedy": "true",
          "label": "Un Adversaire ?",
          "required": {
            "hunter": "1"
          }
        }
      ],
      "requirements": {
        "seasonsuspicion": "1"
      },
      "actionId": "suspicion",
      "id": "suspicion",
      "linked": [
        {
          "id": "suspiciongrabreputation",
          "chance": "100"
        },
        {
          "id": "suspiciontrycreatehunter",
          "chance": "70"
        }
      ],
      "craftable": "false",
      "description": "Je suis en sécurité pour l'instant. L'attention des indiscrets doit être ailleurs. Un soulagement.",
      "warmup": "10",
      "label": "Le Mauvais Type d'Attention"
    },
    {
      "startdescription": "Un adversaire investigue sur mes activités.",
      "slots": [
        {
          "id": "Clues",
          "greedy": "true",
          "label": "Indices",
          "required": {
            "reputation": "1"
          }
        }
      ],
      "requirements": {
        "hunter": "1"
      },
      "actionId": "suspicion",
      "id": "suspiciongrabreputation",
      "linked": [
        {
          "id": "suspicion_searchlongerforevidence",
          "chance": "100"
        },
        {
          "id": "suspiciongrabevidence",
          "chance": "100"
        }
      ],
      "description": "",
      "warmup": "30",
      "label": "En train de chercher des Indices..."
    },
    {
      "description": "Je suis en sécurité, pour l'instant. Mon adversaire n'a pas assez de preuves pour m'incriminer et il n'a pas trouvé de nouveaux indices.",
      "alternativerecipes": [
        {
          "id": "suspicionpretrial",
          "chance": "100"
        },
        {
          "id": "suspicionerratic_alwaysfail",
          "chance": "10"
        },
        {
          "id": "suspicionpromoteevidencemeticulous",
          "chance": "100"
        },
        {
          "id": "suspicionpromoteevidence",
          "chance": "70"
        },
        {
          "id": "suspicioncreateevidencemeticulous",
          "chance": "100"
        },
        {
          "id": "suspicioncreateevidence",
          "chance": "70"
        }
      ],
      "slots": [
        {
          "id": "Evidence",
          "greedy": "true",
          "label": "Preuve",
          "required": {
            "evidence": "1",
            "evidenceb": "1"
          }
        }
      ],
      "actionId": "suspicion",
      "id": "suspiciongrabevidence",
      "linked": [
        {
          "id": "suspicionerratic_alwayssucceed",
          "chance": "10"
        }
      ],
      "warmup": "30",
      "startdescription": "Si un Chasseur a trouvé de la Notoriété, il essaiera de l'utiliser pour créer ou améliorer des Preuves. S'il est Méticuleux, il réussira toujours. S'il est Erratique, il a plus de chances d'échouer... Mais il peut parfois créer des preuves même sans Notoriété.",
      "label": "En train d'examiner les Preuves..."
    },
    {
      "startdescription": "Mon adversaire se comporte de manière excentrique. [Cela n'arrive qu'occasionnellement.]",
      "requirements": {
        "erratic": "1",
        "reputation": "1"
      },
      "actionId": "suspicion",
      "id": "suspicionerratic_alwaysfail",
      "description": "Mon adversaire a-t-il pratiqué un instrument de musique au lieu de poursuivre l'enquête ? Joué aux  fléchettes ? Ou fait de très longues siestes ? Les rapports sont incohérents, mais son comportement l'est aussi. Il n'a fait aucun progrès.",
      "effects": {
        "reputation": "-1"
      },
      "label": "Curieuses Habitudes"
    },
    {
      "startdescription": "Une rumeur prétend que mon adversaire s'est mis à faire des oracles avec le I Ching. Une autre prétend qu'il cherche des réponses dans ses rêves. Une autre encore, qu'il choisit les questions à poser en lançant des dés. Il a trouvé des preuves là où il ne devrait pas y en avoir. [Cela n'arrive qu'occasionnellement.]",
      "id": "suspicionerratic_alwayssucceed",
      "requirements": {
        "erratic": "1",
        "reputation": "-1"
      },
      "actionId": "suspicion",
      "effects": {
        "notoriety": "1"
      },
      "linked": [
        {
          "id": "suspicionpromoteevidence",
          "chance": "100"
        },
        {
          "id": "suspicioncreateevidence",
          "chance": "100"
        }
      ],
      "warmup": "30",
      "label": "Succès Déconcertants"
    },
    {
      "startdescription": "Ma Mystique a attiré l'attention de ce chasseur. Il ne peut encore rien prouver, mais ils continuera à chercher plus longtemps.",
      "slots": [
        {
          "id": "Clues",
          "greedy": "true",
          "label": "Indices",
          "required": {
            "reputation": "1"
          }
        }
      ],
      "requirements": {
        "mystique": "1"
      },
      "actionId": "suspicion",
      "id": "suspicion_searchlongerforevidence",
      "linked": [
        {
          "id": "suspicion_searchlongerforevidence",
          "chance": "100"
        },
        {
          "id": "suspiciongrabevidence",
          "chance": "100"
        }
      ],
      "warmup": "60",
      "effects": {
        "mystique": "-1"
      },
      "label": "Les Périls de la Renommée"
    },
    {
      "actionId": "suspicion",
      "id": "suspicionpromoteevidencemeticulous",
      "requirements": {
        "reputation": "1",
        "meticulous": "1",
        "evidence": "1"
      },
      "label": "En train de créer des Preuves Accablantes",
      "linked": [
        {
          "id": "suspicionpromoteevidence",
          "chance": "100"
        }
      ]
    },
    {
      "startdescription": "Ce chasseur met la touche finale à son enquête.",
      "warmup": "30",
      "requirements": {
        "evidence": "1",
        "reputation": "1"
      },
      "actionId": "suspicion",
      "id": "suspicionpromoteevidence",
      "description": "Si jamais ce procès a lieu, je serai en grave danger. Même si ce chasseur est éliminé, un autre peut trouver ses notes.",
      "effects": {
        "evidenceb": "1",
        "reputation": "-1",
        "evidence": "-1"
      },
      "label": "En train de créer des Preuves Accablantes"
    },
    {
      "actionId": "suspicion",
      "id": "suspicioncreateevidencemeticulous",
      "requirements": {
        "meticulous": "1",
        "reputation": "1"
      },
      "label": "Convertir les Indices en Preuves",
      "linked": [
        {
          "id": "suspicioncreateevidence",
          "chance": "100"
        }
      ]
    },
    {
      "startdescription": "La rumeur court sur les toits et coule dans les gouttières. Ce chasseur progresse dans son enquête.",
      "warmup": "30",
      "requirements": {
        "reputation": "1"
      },
      "actionId": "suspicion",
      "id": "suspicioncreateevidence",
      "description": "Je suis certain que mon adversaire a déposé une copie de ses notes ailleurs - chez son avocat, chez son supérieur, ou même chez un contact dans la presse. C'est une situation préoccupante.",
      "effects": {
        "evidence": "1",
        "reputation": "-1"
      },
      "label": "Convertir les Indices en Preuves"
    },
    {
      "startdescription": "Le mauvais type de réputation pourrait éveiller l'intérêt des curieux, des puritains ou des vengeurs. [Une réputation peut inspirer un adversaire à se manifester].",
      "slots": [
        {
          "id": "Clues",
          "greedy": "true",
          "label": "Indices",
          "required": {
            "reputation": "1"
          }
        }
      ],
      "actionId": "suspicion",
      "id": "suspiciontrycreatehunter",
      "description": "Ma réputation, pour l'instant, reste immaculée. Les éventuels chiens de garde restent dans l'ombre.",
      "effects": {
        "contentment": "1"
      },
      "alternativerecipes": [
        {
          "id": "suspicioncreatefirsthunter",
          "chance": "100"
        },
        {
          "id": "suspicioncreatehunter",
          "chance": "100"
        }
      ],
      "warmup": "30",
      "label": "Les Quelques Curieux"
    },
    {
      "startdescription": "Quelqu'un s'en mêle.",
      "maxexecutions": "1",
      "warmup": "0",
      "requirements": {
        "reputation": "1"
      },
      "actionId": "suspicion",
      "id": "suspicioncreatefirsthunter",
      "description": "Il y a toujours quelqu'un qui ne comprend pas, ou qui comprend trop bien. Ce fauteur de troubles peut chercher des preuves de mes activités pour les présenter aux autorités.",
      "effects": {
        "defaulthunter": "1",
        "reputation": "-1"
      },
      "label": "Un Adversaire !"
    },
    {
      "startdescription": "Quelqu'un s'en mêle.",
      "warmup": "0",
      "requirements": {
        "reputation": "1"
      },
      "actionId": "suspicion",
      "id": "suspicioncreatehunter",
      "deckeffect": {
        "hunters": "1"
      },
      "description": "Il y a toujours quelqu'un qui ne comprend pas, ou qui comprend trop bien. Ce fauteur de troubles peut chercher des preuves de mes activités pour les présenter aux autorités.",
      "effects": {
        "reputation": "-1"
      },
      "label": "Un Adversaire !"
    },
    {
      "startdescription": "Mon adversaire a convaincu le Bureau de la Répression d'examiner mon cas. Le Bureau est chargé de punir le type de criminel le moins habituel - le criminel dont les crimes n'existent peut-être que dans les rêves.",
      "warmup": "30",
      "requirements": {
        "evidenceb": "1"
      },
      "actionId": "suspicion",
      "id": "suspicionpretrial",
      "linked": [
        {
          "id": "suspicion_attemptmitigation_me",
          "chance": "30"
        },
        {
          "id": "suspicion_questionfollower",
          "chance": "100"
        }
      ],
      "craftable": "false",
      "description": ".",
      "burnimage": "beforetrial",
      "label": "Le Bureau Examine mon Cas"
    },
    {
      "description": ".",
      "warmup": "30",
      "craftable": "false",
      "actionId": "suspicion",
      "id": "suspicion_questionme",
      "linked": [
        {
          "id": "suspicion_attemptmitigation_me",
          "chance": "100"
        }
      ],
      "startdescription": "Le Bureau de la Répression m'a interpellé pour un interrogatoire.",
      "label": "Je vais être jugé au tribunal !"
    },
    {
      "startdescription": "Le Bureau de la Répression recherche un de mes associés pour l'interroger. S'ils ne peuvent pas en trouver un, ils s'en prendront directement à moi.",
      "slots": [
        {
          "description": "Le Bureau a soif de suspects.",
          "greedy": "true",
          "required": {
            "independent": "1",
            "follower": "1"
          },
          "id": "Suspect",
          "forbidden": {
            "hireling": "1",
            "summoned": "1"
          },
          "label": "Suspect"
        }
      ],
      "craftable": "false",
      "actionId": "suspicion",
      "id": "suspicion_questionfollower",
      "linked": [
        {
          "id": "suspicion_attemptmitigation_follower",
          "chance": "100"
        },
        {
          "id": "suspicion_attemptmitigation_rival",
          "chance": "100"
        },
        {
          "id": "suspicion_attemptmitigation_me",
          "chance": "100"
        }
      ],
      "description": ".",
      "warmup": "30",
      "label": "Un Procès !"
    },
    {
      "description": ".",
      "slots": [
        {
          "id": "favour",
          "label": "Une Faveur",
          "required": {
            "favour": "1"
          }
        }
      ],
      "actionId": "suspicion",
      "id": "suspicion_attemptmitigation_me",
      "linked": [
        {
          "id": "suspicion_favourused",
          "chance": "100"
        },
        {
          "id": "suspicion_meimprisoned",
          "chance": "70"
        },
        {
          "id": "suspicion_meexonerated",
          "chance": "100"
        }
      ],
      "warmup": "60",
      "startdescription": "Il y a des crimes que l'État ne reconnaît pas ouvertement. Je suis accusé de l'un d'entre eux. Le Bureau de la Répression tient ses procès à huis clos, et ils ne sont pas cléments. Si je ne peux pas profiter de mes relations, je risque l'emprisonnement !",
      "label": "Le Bureau de la Répression me traduit en justice !"
    },
    {
      "startdescription": "Il y a des crimes que l'État ne reconnaît pas ouvertement. Mon associé a été impliqué dans l'un d'entre eux. Le Bureau de la Répression tient ses procès à huis clos, et ils ne sont pas cléments. Si je ne peux pas profiter de mes relations, mon associé risque de disparaître à jamais... ",
      "slots": [
        {
          "id": "favour",
          "label": "Une Faveur",
          "required": {
            "favour": "1"
          }
        }
      ],
      "requirements": {
        "follower": "1"
      },
      "actionId": "suspicion",
      "id": "suspicion_attemptmitigation_follower",
      "linked": [
        {
          "id": "suspicion_favourused",
          "chance": "100"
        },
        {
          "id": "suspicion_followerimprisoned",
          "chance": "70"
        },
        {
          "id": "suspicion_followerexonerated",
          "chance": "100"
        }
      ],
      "description": ".",
      "warmup": "60",
      "label": "Le Bureau de la Répression traduit un associé en justice !"
    },
    {
      "startdescription": "Il y a des crimes que l'État ne reconnaît pas ouvertement. Mon rival a été impliqué dans l'un d'entre eux. Le Bureau de la répression tient ses procès à huis clos, et ils ne sont pas cléments. C'est peut-être la fin pour mon rival...bien que je puisse essayer d'intervenir.",
      "slots": [
        {
          "id": "favour",
          "label": "Une Faveur",
          "required": {
            "favour": "1"
          }
        }
      ],
      "requirements": {
        "independent": "1"
      },
      "actionId": "suspicion",
      "id": "suspicion_attemptmitigation_rival",
      "linked": [
        {
          "id": "suspicion_favourused",
          "chance": "100"
        },
        {
          "id": "suspicion_rivalimprisoned",
          "chance": "70"
        },
        {
          "id": "suspicion_rivalexonerated",
          "chance": "100"
        }
      ],
      "description": ".",
      "warmup": "60",
      "label": "Le Bureau de la Répression traduit un Rival en justice !"
    },
    {
      "startdescription": "J'ai demandé une faveur à une personne de marque. Cela me protégera probablement, mais rien n'est sûr.",
      "id": "suspicion_favourused",
      "requirements": {
        "favour": "1"
      },
      "actionId": "suspicion",
      "effects": {
        "favour": "-1"
      },
      "linked": [
        {
          "id": "suspicion_followerexonerated",
          "chance": "70"
        },
        {
          "id": "suspicion_meexonerated",
          "chance": "70"
        },
        {
          "id": "suspicion_favourused_failure",
          "chance": "100"
        }
      ],
      "description": ".",
      "warmup": "30",
      "label": "Un Allié dans l'Ombre"
    },
    {
      "description": ".",
      "warmup": "30",
      "actionId": "suspicion",
      "id": "suspicion_favourused_failure",
      "linked": [
        {
          "id": "suspicion_attemptmitigation_follower",
          "chance": "100"
        },
        {
          "id": "suspicion_attemptmitigation_me",
          "chance": "100"
        }
      ],
      "startdescription": "J'ai tiré toutes les ficelles que je pouvais, et ce n'était pas suffisant. Le Bureau n'a pas de remords. Si j'ai un autre contact, je pourrais peut-être l'utiliser. Sinon, nous devrons tenter notre chance au procès.",
      "label": "Pas Assez !"
    },
    {
      "description": "Mon associé a été enfermé dans une prison où il n'y a pas de droit de visite, et même la date de sa libération est obscure. L'appétit du Bureau est satisfait pour l'instant ; mais qu'ont-ils appris ?",
      "actionId": "suspicion",
      "id": "suspicion_followerimprisoned",
      "aspects": {
        "investigatingsetback": "1"
      },
      "effects": {
        "follower": "-1"
      },
      "label": "Une Victoire pour le Bureau"
    },
    {
      "description": ".",
      "warmup": "10",
      "signalEndingFlavour": "Melancholy",
      "actionId": "suspicion",
      "id": "suspicion_meimprisoned",
      "ending": "arrest",
      "startdescription": "J'ai été reconnu coupable ! Tous mes projets s'arrêtent là. Je dois me préparer.",
      "label": "Une Victoire pour le Bureau"
    },
    {
      "startdescription": "Mon associé a été disculpé ! Les preuves n'étaient pas suffisamment convaincantes pour les condamner, et ils sont libres de partir... même s'ils ont une rancune envers moi. Le Bureau a été freiné pour le moment.",
      "requirements": {
        "follower": "1"
      },
      "actionId": "suspicion",
      "id": "suspicion_followerexonerated",
      "aspects": {
        "investigatingsetback": "1"
      },
      "mutations": [
        {
          "mutateAspectId": "resentment",
          "filterOnAspectId": "follower",
          "additional": "true",
          "mutationLevel": "1"
        }
      ],
      "label": "La Furie du Bureau"
    },
    {
      "startdescription": "J'ai été exonéré ! Les preuves n'étaient pas suffisamment convaincantes pour me faire condamner, et je suis libre de partir.",
      "requirements": {
        "follower": "-1"
      },
      "actionId": "suspicion",
      "id": "suspicion_meexonerated",
      "aspects": {
        "evidencelevel": "-1"
      },
      "label": "La Furie du Bureau"
    },
    {
      "comments": "Here for legacy compatibility",
      "description": "ARRESTATION !",
      "warmup": "0",
      "actionId": "suspicion",
      "id": "suspiciontrial",
      "linked": [
        {
          "id": "suspicionpretrial",
          "chance": "100"
        }
      ]
    },
    {
      "description": "Mon Rival ne sera pas revu à la lumière du jour. L'appétit du Bureau est satisfait pour le moment ; mais qu'ont-ils appris ?",
      "actionId": "suspicion",
      "id": "suspicion_rivalimprisoned",
      "aspects": {
        "investigatingsetback": "1"
      },
      "effects": {
        "independent": "-1"
      },
      "label": "Une Victoire pour le Bureau"
    },
    {
      "startdescription": "Mon rival a été disculpé ! Les preuves n'étaient pas suffisamment convaincantes pour le faire condamner, et il est libre de partir...bien qu'il me blâmera sans doute pour ses malheurs.",
      "requirements": {
        "independent": "1"
      },
      "actionId": "suspicion",
      "id": "suspicion_rivalexonerated",
      "aspects": {
        "investigatingsetback": "1"
      },
      "mutations": [
        {
          "mutateAspectId": "resentment",
          "filterOnAspectId": "independent",
          "additional": "true",
          "mutationLevel": "1"
        }
      ],
      "label": "La Furie du Bureau"
    },
    {
      "actionId": "suspicion",
      "id": "scapegoat",
      "warmup": "0",
      "comments": "Here for legacy compatibility"
    }
  ]
}