{
  "recipes": [
    {
      "startdescription": "Chaque fois que le principe du Cœur est impliqué, je suis susceptible de gagner en Vitalité.",
      "id": "heartinduction",
      "craftable": "false",
      "actionId": "heartinduction",
      "effects": {
        "previtality": "1"
      },
      "description": "Mon propre cœur pompe plus fort, aujourd'hui.",
      "warmup": "30",
      "label": "Le Cours du Cœur"
    },
    {
      "startdescription": "Chaque fois que le principe de la Lanterne apporte sa lumière, il se peut que je me souvienne de bribes de connaissances supplémentaires.",
      "id": "lanterninduction",
      "craftable": "false",
      "actionId": "lanterninduction",
      "effects": {
        "preerudition": "1"
      },
      "description": "Des faits brumeux ont été éclaircis dans mon cerveau. Pour l'instant, du moins.",
      "warmup": "30",
      "label": "Une Lueur dans le Crâne"
    },
    {
      "startdescription": "Le Phalène trouve la lumière dans l'obscurité, et moi aussi.",
      "id": "mothinduction",
      "craftable": "false",
      "actionId": "mothinduction",
      "effects": {
        "prerestlessness": "1"
      },
      "description": "Une mélancolie à demi perceptible m'a touché.",
      "warmup": "30",
      "label": "Vieilles Histoires Malheureuses et Lointaines"
    },
    {
      "startdescription": "Le Phalène trouve la lumière dans l'obscurité, et moi aussi.",
      "id": "mothglimmeringinduction",
      "craftable": "false",
      "actionId": "mothinduction",
      "effects": {
        "preglimmering": "1"
      },
      "description": "Que pourrais-je être si je ne pouvais pas être ça ?",
      "warmup": "30",
      "label": "L'Obscurité, la Lumière"
    },
    {
      "startdescription": "Y a-t-il une leçon à tirer de la satisfaction des désirs ?",
      "id": "grailinduction",
      "craftable": "false",
      "actionId": "grailinduction",
      "effects": {
        "preglimmering": "1"
      },
      "description": "C'est un peu comme une illumination.",
      "warmup": "30",
      "label": "L'Objectif Derrière le Désir"
    },
    {
      "startdescription": "Je me réveille en pleine nuit. Mes paumes, et mon visage, sont perlés de sueur.",
      "id": "dreadinduction",
      "craftable": "false",
      "actionId": "dreadinduction",
      "effects": {
        "predread": "1"
      },
      "description": "Lentement, mes poings serrés se détendent. Je replongerai dans le sommeil. Mais quelque chose restera, comme des toiles d'araignée dans le coin d'une pièce.",
      "warmup": "30",
      "label": "Terreurs Nocturnes"
    },
    {
      "comments": "Only triggers if there's already Dread in whatever called this.",
      "startdescription": "Je me réveille en pleine nuit. Mes paumes, et mon visage, sont perlés de sueur.",
      "id": "dreadinduction_ifdread",
      "requirements": {
        "dread": "1"
      },
      "actionId": "dreadinduction",
      "effects": {
        "predread": "1"
      },
      "craftable": "false",
      "description": "Lentement, mes poings serrés se détendent. Je replongerai dans le sommeil. Mais quelque chose restera, comme des toiles d'araignée dans le coin d'une pièce.",
      "warmup": "30",
      "label": "Terreurs Nocturnes"
    },
    {
      "startdescription": "J'ai commencé à remarquer des couleurs dans le monde pour lesquelles je n'ai pas de nom.",
      "id": "fascinationinduction",
      "craftable": "false",
      "actionId": "fascinationinduction",
      "effects": {
        "prefascination": "1"
      },
      "description": "Je vois des choses que je ne devrais pas voir. Je sais que c'est dangereux. Mais il est difficile de ne pas y aspirer.",
      "warmup": "30",
      "label": "Nouvelles Couleurs"
    },
    {
      "startdescription": "J'ai commencé à remarquer des couleurs dans le monde pour lesquelles je n'ai pas de nom.",
      "id": "fascinationinduction_iffascination",
      "requirements": {
        "fascination": "1"
      },
      "actionId": "fascinationinduction",
      "effects": {
        "prefascination": "1"
      },
      "craftable": "false",
      "description": "Je vois des choses que je ne devrais pas voir. Je sais que c'est dangereux. Mais il est difficile de ne pas y aspirer.",
      "warmup": "30",
      "label": "Nouvelles Couleurs"
    },
    {
      "startdescription": "J'ai utilisé un fidèle qui est trop connu. Le Bureau de la Répression pourrait en entendre parler.",
      "id": "poison.notoriety.induction",
      "actionId": "poison.notoriety.induction",
      "effects": {
        "notoriety": "1"
      },
      "warmup": "30",
      "label": "Le Regard Public"
    },
    {
      "startdescription": "Mes passions sont empoisonnées. Chaque émotion provoque une douleur aiguë et sauvage.",
      "id": "poison.passion.dread.induction",
      "actionId": "poison.passion.dread.induction",
      "effects": {
        "dread": "1"
      },
      "warmup": "30",
      "label": "The Creeping Colour"
    },
    {
      "startdescription": "Une bougie, lorsqu'elle est allumée, apporte de la lumière. Quand mes pensées s'enflamment, que se passe-t-il alors ?",
      "id": "poison.reason.fascination.induction",
      "actionId": "poison.reason.fascination.induction",
      "effects": {
        "fascination": "1"
      },
      "warmup": "30",
      "label": "Lumière Impitoyable"
    },
    {
      "startdescription": "J'ai invité un vieil ami à se réfugier dans mes muscles pour un jour de plus.",
      "id": "poison.health.dread.induction",
      "actionId": "poison.health.dread.induction",
      "effects": {
        "dread": "1"
      },
      "warmup": "30",
      "label": "L'Hospitalité de l'Agonie"
    },
    {
      "description": "...il sera peut-être plus difficile pour le Bureau de la Répression de suivre des pistes jusqu'à notre porte. Il sera peut-être aussi plus difficile de maintenir une réputation.",
      "slots": [
        {
          "id": "reputation",
          "greedy": "true",
          "label": "Réputation",
          "required": {
            "reputation": "1"
          }
        }
      ],
      "actionId": "unsuspicion",
      "id": "secret.induction",
      "warmup": "180",
      "effects": {
        "reputation": "-1"
      },
      "startdescription": "Nous avons pris soin d'installer notre quartier général à l'écart...",
      "label": "Les Avantages de la Vie Privée"
    }
  ]
}