{
  "recipes": [
    {
      "startdescription": "Cette situation exige une certaine discrétion. La société considérait notre association comme inappropriée.",
      "warmup": "60",
      "requirements": {
        "benefactorwill": "1",
        "funds": "1"
      },
      "actionId": "study",
      "id": "studybenefactorwill",
      "craftable": "true",
      "description": "Nos relations n'avaient jamais été formalisées. Il serait impensable que j'hérite d'une partie importante de la succession. Néanmoins, j'ai été bien pourvu.",
      "effects": {
        "benefactorwill": "-1",
        "funds": "49"
      },
      "alternativerecipes": [
        {
          "id": "studybenefactorwill_suspicion",
          "chance": "30"
        }
      ],
      "label": "Étudier les documents d'un Être Cher Disparu"
    },
    {
      "actionId": "study",
      "id": "studybenefactorwill_suspicion",
      "effects": {
        "notoriety": "1",
        "benefactorwill": "-1"
      },
      "label": ".",
      "description": "Quelque chose a mal tourné. Nos anciennes connaissances traversent la rue quand je passe. Un journal fait allusion à un acte criminel. Le notaire ne me reçoit pas. Je ne peux pas m'attendre à un legs, et le pire est peut-être à venir."
    },
    {
      "description": "The chain of loyalty is shattered. My followers will suspect nothing. By the time our Shaper can return from their exile, I will be gone, or I will be forever.",
      "warmup": "60",
      "requirements": {
        "welland.defeated": "1",
        "mentor": "1"
      },
      "actionId": "study",
      "id": "study.welland.defeated",
      "craftable": "true",
      "effects": {
        "welland.defeated": "-1",
        "ascensionpowerc": "1",
        "mentor": "-1"
      },
      "startdescription": "I have the opportunity to turn against our Shaper, as the Lionsmith did against the Colonel. [This will prevent your previous character from ever ascending, but give you the opportunity to win a standard Forge victory. It will have no other effect.]",
      "label": "As At Issus"
    },
    {
      "description": "The taste is bright on my tongue. There will be no Vitulation for our Delight. My followers will serve my desires. For now, I will devour; I will not be devoured.",
      "warmup": "60",
      "requirements": {
        "mentor": "1",
        "tryphon.defeated": "1"
      },
      "actionId": "study",
      "id": "study.tryphon.defeated",
      "craftable": "true",
      "effects": {
        "ascensionsensationc": "1",
        "tryphon.defeated": "-1",
        "mentor": "-1"
      },
      "startdescription": "If I consume what remains of Lady Tryphon, I will not be consumed. [This will prevent your previous character from ever ascending, but give you the opportunity to win a standard Grail victory. It will have no other effect.]",
      "label": "The Selectest of Menus"
    },
    {
      "description": "I have closed the door in my eye. I have sealed it with wax. That eye is blind, but the other sees new horizons. Our organisation will serve a different end. Perhaps one day I will greet our Founder as a peer.",
      "warmup": "60",
      "requirements": {
        "diarist.defeated": "1",
        "mentor": "1"
      },
      "actionId": "study",
      "id": "study.diarist.defeated",
      "craftable": "true",
      "effects": {
        "diarist.defeated": "-1",
        "ascensionenlightenmentc": "1",
        "mentor": "-1"
      },
      "startdescription": "The Diarist has given me the means to abandon our Illuminated One to the Mansus. [This will prevent your previous character from ever ascending, but give you the opportunity to win a standard Lantern victory. It will have no other effect.]",
      "label": "One Door Closes"
    },
    {
      "description": "I will live out my life according to my choices. What I am is what I will be, until I am nothing at all.",
      "warmup": "60",
      "requirements": {
        "julian.defeated": "1",
        "mentor": "1"
      },
      "actionId": "study",
      "id": "study.julian.defeated",
      "craftable": "true",
      "effects": {
        "julian.defeated": "-1",
        "dread": "1",
        "mentor": "-1"
      },
      "startdescription": "'One more stone in the Mansus-wall.' Is that all I am? Is there anything else? [This will prevent your previous character from ever ascending, and add Dread to the board. It will have no other effect.]",
      "label": "Empty and Alone"
    }
  ]
}