{
  "recipes": [
    {
      "comments": "it's possible for a corpse to have a negative follower mutation - eg, if the follower is wounded. Let's strip it out, just in case. We could add a mutation to lose any outstanding wounds too, but I'm leery of messing too much.",
      "startdescription": "Une force dévastatrice va infuser sa chair, afin qu'il rejoigne les Ressuscités Brisés. Je dois commencer le processus. Je vais préparer mon marteau.",
      "warmup": "60",
      "requirements": {
        "desire": "-1",
        "ritual": "1",
        "winter": "4",
        "corpse": "1",
        "edge": "2"
      },
      "actionId": "work",
      "id": "summon_spirit_wintera_edge",
      "aspects": {
        "raiseshattered": "1"
      },
      "craftable": "true",
      "description": "Le cadavre gémit en vacillant sur ses pieds : ou plutôt, ce qu'il reste de ses pieds. J'ai évoqué un Ressuscité Brisé.",
      "mutations": [
        {
          "mutateAspectId": "follower",
          "filterOnAspectId": "corpse",
          "mutationLevel": "0"
        }
      ],
      "label": "En appeler au Cartographe des Cicatrices pour ramener un cadavre à la demi-vie"
    },
    {
      "comments": "it's possible for a corpse to have a negative follower mutation - eg, if the follower is wounded. Let's strip it out, just in case. We could add a mutation to lose any outstanding wounds too, but I'm leery of messing too much.",
      "startdescription": "Je dois d'abord planter les graines : sous les paupières, sous la langue, dans toutes les ouvertures secrètes du corps. Il s'éveillera comme un Ressuscité Bourgeonnant.",
      "warmup": "60",
      "requirements": {
        "moth": "2",
        "desire": "-1",
        "ritual": "1",
        "winter": "4",
        "corpse": "1"
      },
      "actionId": "work",
      "id": "summon_spirit_wintera_moth",
      "aspects": {
        "raiseburgeoning": "1"
      },
      "craftable": "true",
      "description": "Le cadavre se balance sur ses pieds. Ses yeux peinent à s'ouvrir. La sève coule de sa bouche. Il bourgeonne, il s'est relevé.",
      "mutations": [
        {
          "mutateAspectId": "follower",
          "filterOnAspectId": "corpse",
          "mutationLevel": "0"
        }
      ],
      "label": "En appeler à l'If Annulaire pour ramener un cadavre à la demi-vie"
    },
    {
      "startdescription": "Ce n'est pas vraiment un rite de renouvellement, mais plutôt de report. L'Hiver peut être reporté, mais pas nié.",
      "warmup": "60",
      "requirements": {
        "spirit_wintera_edge": "1",
        "ritual": "1",
        "winter": "8",
        "desire": "-1",
        "edge": "8"
      },
      "actionId": "work",
      "id": "renew_spirit_wintera_edge",
      "aspects": {
        "renewshattered": "1"
      },
      "craftable": "true",
      "description": "Les processus de décomposition sont retardés - les énergies mobiles sont réengagées. Le cadavre fera encore dix mille pas avant de s'effondrer.",
      "label": "En appeler au Cartographe des Cicatrices pour renouveler la demi-vie d'un cadavre"
    },
    {
      "startdescription": "La nouvelle vie au sein du cadavre lutte pour être libre. Je vais la contenir un peu plus longtemps.",
      "warmup": "60",
      "requirements": {
        "winter": "8",
        "moth": "8",
        "ritual": "1",
        "spirit_wintera_moth": "1",
        "desire": "-1"
      },
      "actionId": "work",
      "id": "renew_spirit_wintera_moth",
      "aspects": {
        "renewburgeoning": "1"
      },
      "craftable": "true",
      "description": "La lumière dans les yeux du cadavre devient moins sauvage. Ses spirales sont réprimées. L'espace d'un instant, on jurerait qu'il va parler.",
      "label": "En appeler à l'If Annulaire pour renouveler la demi-vie d'un cadavre"
    },
    {
      "label": "Invoquer une des émanations d'un des Noms de la Forge des Jours",
      "warmup": "60",
      "requirements": {
        "forge": "10",
        "desire": "-1",
        "ritual": "1",
        "knock": "5",
        "lantern": "2"
      },
      "actionId": "work",
      "id": "summon_spirit_forgee_edge",
      "linked": [
        {
          "id": "summoninglosingcontrol",
          "chance": "30"
        },
        {
          "id": "summon_spirit_forgee_edge.success"
        }
      ],
      "craftable": "true",
      "effects": {
        "pre.spirit_forgee_edge": "1"
      },
      "startdescription": "Le Creuset u Roi ne viendra que lorsque la pièce brillera de l'aspect appelé Forge. Il a également besoin d'une Lanterne, pour la lumière de la Gloire qu'il prétend connaître.",
      "extantreqs": {
        "spirit_forgee_edge": "-1",
        "pre.spirit_forgee_edge": "-1",
        "spirit_forgee_edge.defunct": "-1",
        "spirit_forgee_edge.consumed": "-1"
      }
    },
    {
      "description": "Il peut se cacher dans la flamme d'une bougie s'il le faut. Mais il est là, dans toute sa splendeur de feu de joie. Après avoir parlé avec lui, la peau de mon visage et de mes mains sera rose comme si elle avait été exposée au soleil trop longtemps.",
      "warmup": "0",
      "craftable": "false",
      "actionId": "work",
      "id": "summon_spirit_forgee_edge.success",
      "label": "Invoquer une des émanations d'un des Noms de la Forge des Jours"
    },
    {
      "label": "Invoquer une des émanations d'un des Noms du Graal Rouge",
      "warmup": "60",
      "requirements": {
        "forge": "2",
        "grail": "10",
        "ritual": "1",
        "knock": "5",
        "desire": "-1"
      },
      "actionId": "work",
      "id": "summon_spirit_graile_edge",
      "linked": [
        {
          "id": "summoninglosingcontrol",
          "chance": "30"
        },
        {
          "id": "summon_spirit_graile_edge.success"
        }
      ],
      "craftable": "true",
      "effects": {
        "pre.spirit_graile_edge": "1"
      },
      "startdescription": "Ezeem ne peut entrer que là où la puissance du Graal est forte ; et il ne choisira d'entrer que lorsqu'il sera invoqué avec la Forge, avec laquelle il a flirté si souvent.",
      "extantreqs": {
        "pre.spirit_graile_edge": "-1",
        "spirit_graile_edge.defunct": "-1",
        "spirit_graile_edge": "-1"
      }
    },
    {
      "description": "Tant de riches arômes, comme un festin en suspension dans l'air ! mais d'abord, et surtout, du sang.",
      "warmup": "0",
      "craftable": "false",
      "actionId": "work",
      "id": "summon_spirit_graile_edge.success",
      "label": "Invoquer une des émanations d'un des Noms du Graal Rouge"
    },
    {
      "comments": "Teresa doesn't struggle; she's always up for a chat",
      "label": "Invoquer le mystérieux Nom connu comme étant la Baldomérienne",
      "warmup": "60",
      "requirements": {
        "desire": "-1",
        "ritual": "1",
        "knock": "5",
        "lantern": "10",
        "secrethistories": "2"
      },
      "actionId": "work",
      "id": "summon_spirit_lanterne_secret",
      "craftable": "true",
      "description": "La Baldomérienne a les épaules voûtées d'une érudite, la voix claire d'une institutrice et les taches de rousseur d'une voyageuse du Continent. Elle n'a pas d'ombre.",
      "effects": {
        "pre.spirit_lanterne_secret": "1"
      },
      "startdescription": "Une puissante force de la Lanterne pour attirer l'attention du de la Baldomérienne, et un avant-goût taquin de secrets pour la faire approcher.",
      "extantreqs": {
        "pre.spirit_lanterne_secret": "-1",
        "spirit_lanterne_secret": "-1",
        "spirit_lanterne_secret.defunct": "-1"
      }
    },
    {
      "startdescription": "Forge pour l'invocation de l'esprit de fumée, Hiver pour sa liaison. Il doit savoir qui le gouvernera.",
      "id": "summon_spirit_forgec_winter",
      "requirements": {
        "forge": "6",
        "desire": "-1",
        "ritual": "1",
        "knock": "2",
        "winter": "2"
      },
      "actionId": "work",
      "effects": {
        "pre.spirit_forgec_winter": "1"
      },
      "linked": [
        {
          "id": "summoninglosingcontrol",
          "chance": "30"
        },
        {
          "id": "summon_spirit_forgec_winter.success"
        }
      ],
      "craftable": "true",
      "warmup": "60",
      "label": "Invoquer une créature de tromperie brumeuse"
    },
    {
      "description": "Tous les enfants de la Forge ne sont pas brillants. Ses rejets et ses bâtards se rassemblent dans les Limites comme des fragments de marteau dans les crevasses d'un sol de forge. En voici un maintenant.",
      "warmup": "0",
      "craftable": "false",
      "actionId": "work",
      "id": "summon_spirit_forgec_winter.success",
      "label": "Invoquer une créature de tromperie brumeuse"
    },
    {
      "startdescription": "Le Graal pour la source du Prophète Brut, et un peu de Phalène, pour son addiction au chaos.",
      "id": "summon_spirit_grailc_moth",
      "requirements": {
        "moth": "2",
        "grail": "6",
        "ritual": "1",
        "knock": "2",
        "desire": "-1"
      },
      "actionId": "work",
      "effects": {
        "pre.spirit_grailc_moth": "1"
      },
      "linked": [
        {
          "id": "summoninglosingcontrol",
          "chance": "30"
        },
        {
          "id": "summon_spirit_grailc_moth.success"
        }
      ],
      "craftable": "true",
      "warmup": "60",
      "label": "Invoquer l'une des créatures les plus déroutantes du Graal Rouge"
    },
    {
      "description": "Il entre dans le monde, un membre à la fois, cherchant comme un serpent, croassant comme un corbeau, palpitant comme une veine. Il se blottira contre ma jambe, si je le laisse faire, et je devrai ensuite me débarrasser de mes chaussures.",
      "warmup": "0",
      "craftable": "false",
      "actionId": "work",
      "id": "summon_spirit_grailc_moth.success",
      "label": "Invoquer l'une des créatures les plus déroutantes du Graal Rouge"
    },
    {
      "startdescription": "A Reflet était autrefois un mortel vivant, puis un mortel mort, et maintenant c'est autre chose. Leur invocation nécessite la Lanterne, pour la lumière qui les a attirés vers la Mansus, et la Lame, pour les épreuves qu'ils ont endurées dans les miroirs.",
      "id": "summon_spirit_lanternc_edge",
      "requirements": {
        "desire": "-1",
        "ritual": "1",
        "knock": "2",
        "lantern": "6",
        "edge": "2"
      },
      "actionId": "work",
      "effects": {
        "pre.spirit_lanternc_edge": "1"
      },
      "linked": [
        {
          "id": "summoninglosingcontrol",
          "chance": "30"
        },
        {
          "id": "summon_spirit_lanternc_edge.success"
        }
      ],
      "craftable": "true",
      "warmup": "60",
      "label": "Invoquer une chose tranchante de la Lanterne"
    },
    {
      "description": "Les Reflets ne s'adonnent pas à des entrées tape-à-l'œil. Un regard vivant les fera voler en éclats. Je sais que je suis en sa présence, et cela suffit pour l'instant.",
      "warmup": "0",
      "craftable": "false",
      "actionId": "work",
      "id": "summon_spirit_lanternc_edge.success",
      "label": "Invoquer une chose tranchante de la Lanterne"
    },
    {
      "startdescription": "Le Percussigant, impitoyable et joyeux ! Le Cœur l'amènera, la Lame le contraindra.",
      "id": "summon_spirit_heartc_edge",
      "requirements": {
        "desire": "-1",
        "ritual": "1",
        "knock": "2",
        "heart": "6",
        "edge": "2"
      },
      "actionId": "work",
      "effects": {
        "pre.spirit_heartc_edge": "1"
      },
      "linked": [
        {
          "id": "summoninglosingcontrol",
          "chance": "30"
        },
        {
          "id": "summon_spirit_heartc_edge.success"
        }
      ],
      "craftable": "true",
      "warmup": "60",
      "label": "Invoquer une créature de Peau-du-Tonnerre"
    },
    {
      "description": "D'abord le bruit, le bruit sourd, le cliquetis et le cri des cérémonies auxquelles il assiste dans le Bois. Le voici maintenant, se frayant un chemin à travers la peau du monde, comme un oncle griffu et impitoyable ou un ours sans tête qui agite frénétiquement ses pattes.",
      "warmup": "0",
      "craftable": "false",
      "actionId": "work",
      "id": "summon_spirit_heartc_edge.success",
      "label": "Invoquer une créature de Peau-du-Tonnerre"
    },
    {
      "startdescription": "Un grand froid d'Hiver pour nommer et dessiner la \"Servante-dans-le-Miroir\". La Lame, pour correspondre à sa profonde cruauté.",
      "id": "summon_spirit_winterd_edge",
      "requirements": {
        "winter": "8",
        "desire": "-1",
        "ritual": "1",
        "knock": "2",
        "edge": "2"
      },
      "actionId": "work",
      "effects": {
        "pre.spirit_winterd_edge": "1"
      },
      "linked": [
        {
          "id": "summoninglosingcontrol",
          "chance": "30"
        },
        {
          "id": "summon_spirit_winterd_edge.success"
        }
      ],
      "craftable": "true",
      "warmup": "60",
      "label": "Invoquer un servant du Soleil"
    },
    {
      "description": "La chose qui était une femme n'a pas d'expression propre. Les mouvements de ses yeux et de sa bouche correspondent toujours aux miens, comme si je me regardais dans un miroir. Ses ongles sont tranchants comme du verre.",
      "warmup": "0",
      "craftable": "false",
      "actionId": "work",
      "id": "summon_spirit_winterd_edge.success",
      "label": "Invoquer un servant du Soleil"
    },
    {
      "startdescription": "Ce sont les Morts qui ne descendent ni ne montent, mais qui restent dans la Mansus et rêvent de l'Hiver. La puissance de l'Hiver, ainsi qu'un peu de la chaleur du Cœur, les attireront ici.",
      "id": "summon_spirit_winterb_heart",
      "requirements": {
        "winter": "4",
        "desire": "-1",
        "ritual": "1",
        "knock": "2",
        "heart": "2"
      },
      "actionId": "work",
      "effects": {
        "pre.spirit_winterb_heart": "1"
      },
      "linked": [
        {
          "id": "summoninglosingcontrol",
          "chance": "30"
        },
        {
          "id": "summon_spirit_winterb_heart.success"
        }
      ],
      "craftable": "true",
      "warmup": "60",
      "label": "Invoquer un des Morts sans Voix"
    },
    {
      "description": "Une forme sombre auréolée de la lumière de l'Hiver. Elle ne parle pas, mais ses yeux sont avides, ils cherchent, ils cherchent. Les morts se languissent toujours du monde, finalement.",
      "warmup": "0",
      "craftable": "false",
      "actionId": "work",
      "id": "summon_spirit_winterb_heart.success",
      "label": "Invoquer un des Morts sans Voix"
    },
    {
      "startdescription": "L'invocation lutte contre mon contrôle ! Je pourrais utiliser la Raison pour la rejeter en toute sécurité, ce qui est toujours fiable. Je pourrais essayer de réaffirmer mon contrôle avec la Passion, qui n'est pas fiable. Ou je pourrais laisser ce qui va arriver, arriver.",
      "slots": [
        {
          "id": "Effort",
          "label": "Effort",
          "required": {
            "reason": "1",
            "passion": "1"
          },
          "description": " Je pourrais utiliser la Raison pour la rejeter en toute sécurité, ce qui est toujours fiable. Je pourrais essayer de réaffirmer mon contrôle avec la Passion, qui n'est pas fiable. Ou je pourrais laisser ce qui va arriver, arriver."
        }
      ],
      "requirements": {},
      "actionId": "work",
      "id": "summoninglosingcontrol",
      "linked": [
        {
          "id": "summoningescaped",
          "chance": "100"
        }
      ],
      "craftable": "false",
      "description": "Elle a échappé à mon contrôle !",
      "alternativerecipes": [
        {
          "id": "summoningshutitdown",
          "chance": "100"
        },
        {
          "id": "summoningfightformastery",
          "chance": "100"
        }
      ],
      "warmup": "30",
      "label": "Invocation : un Esprit Rebelle"
    },
    {
      "startdescription": "Prononcez les mots de renvoi. Fermez bien le cercle. Effacez toute trace.",
      "id": "summoningshutitdown",
      "requirements": {
        "reason": "1"
      },
      "actionId": "work",
      "effects": {},
      "aspects": {
        "fatiguing": "1",
        "killmanifesting": "1"
      },
      "description": "Elle est partie. Nous sommes sain et sauf.",
      "warmup": "10",
      "label": "Invocation : la Renvoyer d'Où elle Vient"
    },
    {
      "description": "",
      "linked": [
        {
          "id": "summoningmasteryregained",
          "chance": "70"
        },
        {
          "id": "summoningescaped",
          "chance": "100"
        }
      ],
      "warmup": "10",
      "requirements": {
        "passion": "1"
      },
      "actionId": "work",
      "id": "summoningfightformastery",
      "aspects": {
        "fatiguing": "1"
      },
      "startdescription": "Les choses du monde extérieur ont de nombreuses armes : couteaux et énigmes, feu et désespoir. J'ai moi aussi mes propres armes. [Cela fonctionne généralement, mais pas toujours.]",
      "label": "Invocation : Lutte pour la Maîtrise"
    },
    {
      "startdescription": "Elle s'est libérée !",
      "warmup": "5",
      "requirements": {},
      "actionId": "work",
      "id": "summoningescaped",
      "description": "Mon invocation a échappé à mon contrôle, et va sans aucun doute faire des ravages - ",
      "alternativerecipes": [
        {
          "id": "summoning_haunt_devourer",
          "additional": "true",
          "expulsion": {
            "filter": {
              "manifesting": "1"
            },
            "limit": "1"
          },
          "chance": "100"
        },
        {
          "id": "summoning_haunt_deceiver",
          "additional": "true",
          "expulsion": {
            "filter": {
              "manifesting": "1"
            },
            "limit": "1"
          },
          "chance": "100"
        }
      ],
      "label": "Invocation : une Brèche !"
    },
    {
      "startdescription": "J'ai réussi !",
      "id": "summoningmasteryregained",
      "requirements": {},
      "actionId": "work",
      "effects": {},
      "description": "Mon invocation obéira à mes ordres - pour l'instant.",
      "warmup": "10",
      "label": "Invocation : Contrôle Récupéré !"
    }
  ]
}